{
    "section": {
        "s01": {
            "name": "s01",
            "title": "We're Spectral"
        },
        "s02": {
            "name": "s02",
            "characteristic": [
                {
                    "title": "600",
                    "text": "Cups of coffee"
                },
                {
                    "title": "1M+",
                    "text": "Code LInes"
                },
                {
                    "title": "2020",
                    "text": "Product launched"
                },
                {
                    "title": "40+",
                    "text": "customers"
                }
            ]
        },
        "s03": {
            "name": "s03",
            "title": "Our Story",
            "description": "<p>Spectral was built by industry veterans spanning San Francisco and Tel-Aviv who built infrastructure, products and security for the world’s largest tech companies. Through our unique experience in cyber intelligence units as well as building large-scale enterprise systems and contributing to open source projects, one question kept coming up -- how do you protect against security-minded human error?</p><p>What we’ve seen, is that even when a given company does its best to have a pristine security posture, boasting an impressive portfolio of security products integrated into their lifecycle -- still -- it takes just one human error that exists in an enormous vast space of possible human errors to make, and your data is up for grabs.</p><p>These errors are a function of multiple factors such as your tech stack, existing engineering skillsets, company maturity, velocity, growth, investment in awareness, investment in infrastructure, and the list goes on. Not only that, each of these factors grow exponentially as technology grows.</p><p>Spectral is here to tame this  with a <b>developer-first</b> mindset. We combine in-house researchers, data scientists, and unique domain expertise in both cyber intelligence, cyber security and building developer tools and infrastructure to build turn-key solutions that are easy, fast, and developer friendly</p>"
        },
        "s04": {
            "name": "s04",
            "employees": [
                {
                    "imageSrc": null,
                    "title": "Vladimir Groisman",
                    "text": "Founder / CEO",
                    "description": "Lorem ipsum dolor sit amet, consectetur adipiscing elit, sed do eiusmod tempor incididunt ut labore et dolore magna aliqua. Ut enim ad minim veniam, quis nostrud exercitation ullamco laboris nisi ut aliquip ex ea commodo"
                },
                {
                    "imageSrc": null,
                    "title": "Vladimir Groisman",
                    "text": "Founder / CEO",
                    "description": "Lorem ipsum dolor sit amet, consectetur adipiscing elit, sed do eiusmod tempor incididunt ut labore et dolore magna aliqua. Ut enim ad minim veniam, quis nostrud exercitation ullamco laboris nisi ut aliquip ex ea commodo"
                },
                {
                    "imageSrc": null,
                    "title": "Vladimir Groisman",
                    "text": "Founder / CEO",
                    "description": "Lorem ipsum dolor sit amet, consectetur adipiscing elit, sed do eiusmod tempor incididunt ut labore et dolore magna aliqua. Ut enim ad minim veniam, quis nostrud exercitation ullamco laboris nisi ut aliquip ex ea commodo"
                },
                {
                    "imageSrc": null,
                    "title": "Vladimir Groisman",
                    "text": "Founder / CEO",
                    "description": "Lorem ipsum dolor sit amet, consectetur adipiscing elit, sed do eiusmod tempor incididunt ut labore et dolore magna aliqua. Ut enim ad minim veniam, quis nostrud exercitation ullamco laboris nisi ut aliquip ex ea commodo"
                },
                {
                    "imageSrc": null,
                    "title": "Vladimir Groisman",
                    "text": "Founder / CEO",
                    "description": "Lorem ipsum dolor sit amet, consectetur adipiscing elit, sed do eiusmod tempor incididunt ut labore et dolore magna aliqua. Ut enim ad minim veniam, quis nostrud exercitation ullamco laboris nisi ut aliquip ex ea commodo"
                },
                {
                    "imageSrc": null,
                    "title": "Vladimir Groisman",
                    "text": "Founder / CEO",
                    "description": "Lorem ipsum dolor sit amet, consectetur adipiscing elit, sed do eiusmod tempor incididunt ut labore et dolore magna aliqua. Ut enim ad minim veniam, quis nostrud exercitation ullamco laboris nisi ut aliquip ex ea commodo"
                },
                {
                    "imageSrc": null,
                    "title": "Vladimir Groisman",
                    "text": "Founder / CEO",
                    "description": "Lorem ipsum dolor sit amet, consectetur adipiscing elit, sed do eiusmod tempor incididunt ut labore et dolore magna aliqua. Ut enim ad minim veniam, quis nostrud exercitation ullamco laboris nisi ut aliquip ex ea commodo"
                },
                {
                    "imageSrc": null,
                    "title": "Vladimir Groisman",
                    "text": "Founder / CEO",
                    "description": "Lorem ipsum dolor sit amet, consectetur adipiscing elit, sed do eiusmod tempor incididunt ut labore et dolore magna aliqua. Ut enim ad minim veniam, quis nostrud exercitation ullamco laboris nisi ut aliquip ex ea commodo"
                }
            ]
        },
        "s05": {
            "name": "s05",
            "title": "Want to join our team?",
            "buttonText": "Email us to hello@spectralops.io",
            "href": "mailto:hello@spectralops.io"
        },
        "s06": {
            "name": "s06",
            "title": "How to find us",
            "address": {
                "city": "Tel Aviv",
                "street": " Alon towers 2,Yigal Alon St 94, Tel Aviv-Yafo Aviv"
            }
        }
    }
}
