{
    "section": {
        "s01": {
            "name": "s01",
            "headerCard": {
                "title": "Magical Code Security for Modern Teams",
                "description": "Enabling teams to build and ship software faster while avoiding security mistakes, credential leakage, misconfiguration and data breaches without agents, across the entire software development lifecycle",
                "buttonGroup": {
                    "getStart": {
                        "name": "getStart",
                        "text": "get started"
                    }
                },
                "animation": "S01Image"
            },
            "h1": "Magical Code Security for Modern Teams",
            "description": "Enabling teams to build and ship software faster while avoiding security mistakes, credential leakage, misconfiguration and data breaches without agents, across the entire software development lifecycle",
            "buttonGroup": {
                "getStart": {
                    "name": "getStart",
                    "text": "Get Started"
                },
                "learnMore": {
                    "name": "learnMore",
                    "text": "learn more",
                    "to": "/features"
                }
            },
            "backgroundImage": "s01Image",
            "h2": "Code Safer on Any Stack, Faster Than Ever",
            "promotion": {
                "devSecOpsWorkflows": {
                    "name": "devSecOpsWorkflows",
                    "imageSrc": "PromotionImage1",
                    "title": "Accelerate Your DevSecOps workflows",
                    "description": "Spectral empowers DevSecOps teams by integrating into your engineering teams CI/CD chain and reports as well"
                },
                "detectMitigateRisk": {
                    "name": "detectMitigateRisk",
                    "imageSrc": "PromotionImage2",
                    "title": "No More Blindspots: Detect and Mitigate Risk",
                    "description": "Get a full spectrum and mitigate your organizational risk footprint. Unlock blindspots at your supply chain and reports as well"
                },
                "policiesVisibility": {
                    "name": "policiesVisibility",
                    "imageSrc": "PromotionImage3",
                    "title": "Apply Policies Gain Visibility",
                    "description": "Spectral works with your existing dev, secops, legal workflows by automatically providing audits and reports as well"
                }
            }
        },
        "s02": {
            "name": "s02",
            "divider": {
                "title": "Built for Modern Pipelines",
                "description": "We have integration to your entire SDLC",
                "imageSrc": "S02DevFirstImage"
            },
            "introduction": {
                "developerFirst": {
                    "name": "developerFirst",
                    "title": "Developer first",
                    "animation": "S02DevFirstImage",
                    "description": "Spectral was built by developers for developers. We believe in developer tools experience with a security mindset",
                    "button": {
                        "readMore": {
                            "name": "readMore",
                            "text": "read more",
                            "to": "/features"
                        }
                    },
                    "buttonText": "read more",
                    "to": "/features"
                },
                "production": {
                    "name": "production",
                    "title": "Keeps You Safe, Also in Production",
                    "animation": "S02ProductionImage",
                    "description": "We don't only scan your code but also assets your code produces: logs, files, temporary data, and more.",
                    "button": {
                        "readMore": {
                            "name": "readMore",
                            "text": "read more",
                            "to": "/features"
                        }
                    },
                    "buttonText": "read more",
                    "to": "/features"
                }
            }
        },
        "s03": {
            "name": "s03",
            "title": "For any programming language, any way you like",
            "divider": {
                "imageSrc": ""
            },
            "codeDemo": {
                "docker": {
                    "name": "docker",
                    "language": "bash",
                    "title": "Docker",
                    "icon": "DockerIconImage",
                    "code": "# nodejs \n$ yarn install spectralops \n$ yarn spectral init \n# python \n$ pip install spectralops \n$ spectral init \n# all \n$ curl -L spectralops.io/get | sh \n$ spectral init"
                },
                "kubernetes": {
                    "name": "kubernetes",
                    "title": "Kubernetes",
                    "icon": "KubernetesIconImage",
                    "code": "# kubernetes \n$ yarn install spectralops \n$ yarn spectral init \n# python \n$ pip install spectralops \n$ spectral init \n# all \n$ curl -L spectralops.io/get | sh \n$ spectral init"
                },
                "kubernetes1": {
                    "name": "kubernetes1",
                    "title": "Kubernetes",
                    "icon": "KubernetesIconImage",
                    "code": "# nodejs \n$ yarn install spectralops \n$ yarn spectral init \n# python \n$ pip install spectralops \n$ spectral init \n# all \n$ curl -L spectralops.io/get | sh \n$ spectral init"
                },
                "kubernetes2": {
                    "name": "kubernetes2",
                    "title": "Kubernetes",
                    "icon": "KubernetesIconImage",
                    "code": "# nodejs \n$ yarn install spectralops \n$ yarn spectral init \n# python \n$ pip install spectralops \n$ spectral init \n# all \n$ curl -L spectralops.io/get | sh \n$ spectral init"
                },
                "kubernetes3": {
                    "name": "kubernetes3",
                    "title": "Kubernetes",
                    "icon": "KubernetesIconImage",
                    "code": "# nodejs \n$ yarn install spectralops \n$ yarn spectral init \n# python \n$ pip install spectralops \n$ spectral init \n# all \n$ curl -L spectralops.io/get | sh \n$ spectral init"
                },
                "kubernetes4": {
                    "name": "kubernetes4",
                    "title": "Kubernetes",
                    "icon": "KubernetesIconImage",
                    "code": "# nodejs \n$ yarn install spectralops \n$ yarn spectral init \n# python \n$ pip install spectralops \n$ spectral init \n# all \n$ curl -L spectralops.io/get | sh \n$ spectral init"
                },
                "kubernetes5": {
                    "name": "kubernetes5",
                    "title": "Kubernetes",
                    "icon": "KubernetesIconImage",
                    "code": "# nodejs \n$ yarn install spectralops \n$ yarn spectral init \n# python \n$ pip install spectralops \n$ spectral init \n# all \n$ curl -L spectralops.io/get | sh \n$ spectral init"
                },
                "kubernetes6": {
                    "name": "kubernetes6",
                    "title": "Kubernetes",
                    "icon": "KubernetesIconImage",
                    "code": "# nodejs \n$ yarn install spectralops \n$ yarn spectral init \n# python \n$ pip install spectralops \n$ spectral init \n# all \n$ curl -L spectralops.io/get | sh \n$ spectral init"
                },
                "kubernetes7": {
                    "name": "kubernetes7",
                    "title": "Kubernetes",
                    "icon": "KubernetesIconImage",
                    "code": "# nodejs \n$ yarn install spectralops \n$ yarn spectral init \n# python \n$ pip install spectralops \n$ spectral init \n# all \n$ curl -L spectralops.io/get | sh \n$ spectral init"
                },
                "kubernetes8": {
                    "name": "kubernetes8",
                    "title": "Kubernetes",
                    "icon": "KubernetesIconImage",
                    "code": "# nodejs \n$ yarn install spectralops \n$ yarn spectral init \n# python \n$ pip install spectralops \n$ spectral init \n# all \n$ curl -L spectralops.io/get | sh \n$ spectral init"
                }
            }
        },
        "s04": {
            "name": "s04",
            "title": "Spectral Sees Through Every Stack",
            "description": "Spectral makes sure you are protected across systems, apps, and services.",
            "button": {
                "getStarted": {
                    "name": "getStarted",
                    "text": "get started"
                }
            },
            "stack": {
                "infra": {
                    "name": "infra",
                    "service": {
                        "git": {
                            "name": "git",
                            "to": "/",
                            "icon": "ServiceGitIconImage"
                        },
                        "github": {
                            "name": "github",
                            "to": "/",
                            "icon": "ServiceGithubIconImage"
                        },
                        "github2": {
                            "name": "github2",
                            "to": "/",
                            "icon": "ServiceGithubIconImage"
                        },
                        "kubernetes": {
                            "name": "kubernetes",
                            "to": "/",
                            "icon": "ServiceKubernetesIconImage"
                        }
                    }
                },
                "SaaS": {
                    "name": "SaaS",
                    "service": {
                        "github": {
                            "name": "github",
                            "to": "/",
                            "icon": "ServiceGithubIconImage"
                        },
                        "gitlab": {
                            "name": "gitlab",
                            "to": "/",
                            "icon": "ServiceGitlabIconImage"
                        },
                        "github2": {
                            "name": "git",
                            "to": "/",
                            "icon": "ServiceGitIconImage"
                        },
                        "kubernetes": {
                            "name": "kubernetes",
                            "to": "/",
                            "icon": "ServiceKubernetesIconImage"
                        }
                    }
                },
                "IaaS": {
                    "name": "IaaS",
                    "service": {
                        "git": {
                            "name": "git",
                            "to": "/",
                            "icon": "ServiceGitIconImage"
                        },
                        "github": {
                            "name": "github",
                            "to": "/",
                            "icon": "ServiceGithubIconImage"
                        },
                        "github2": {
                            "name": "github2",
                            "to": "/",
                            "icon": "ServiceGithubIconImage"
                        },
                        "kubernetes": {
                            "name": "kubernetes",
                            "to": "/",
                            "icon": "ServiceKubernetesIconImage"
                        }
                    }
                },
                "storage": {
                    "name": "storage",
                    "service": {
                        "github": {
                            "github": "github",
                            "to": "/",
                            "icon": "ServiceGithubIconImage"
                        },
                        "gitlab": {
                            "name": "gitlab",
                            "to": "/",
                            "icon": "ServiceGitlabIconImage"
                        },
                        "kubernetes": {
                            "name": "kubernetes",
                            "to": "/",
                            "icon": "ServiceKubernetesIconImage"
                        },
                        "git2": {
                            "name": "git",
                            "to": "/",
                            "icon": "ServiceGitIconImage"
                        }
                    }
                }
            }
        },
        "s05": {
            "name": "s05",
            "title": "Make no mistakes",
            "description": "Some Recent Security News",
            "button": {
                "getStarted": {
                    "name": "getStarted",
                    "text": "get started"
                }
            },
            "bg": {
                "imageSrc": "S05Image.png"
            },
            "cardGroup": {
                "Elasticsearch": {
                    "name": "Elasticsearch",
                    "title": "Elastic Search servers",
                    "description": " A hacker has wiped, defaced more than 15,000 Elasticsearch servers...",
                    "postDate": "March 2020",
                    "imageSrc": "https://zdnet2.cbsistatic.com/hub/i/2019/02/07/a054149d-2867-4b12-90be-356758f407fd/06-elasticsearch.png",
                    "source": {
                        "href": "https://www.zdnet.com/article/a-hacker-has-wiped-defaced-more-than-15000-elasticsearch-servers/",
                        "text": "Zdent",
                        "icon": "zdnetFavicons"
                    }
                },
                "GoDaddy": {
                    "name": "GoDaddy",
                    "title": "GoDaddy",
                    "description": "GoDaddy Confirms Data Breach: What 19 Million Customers Need To Know...",
                    "postDate": "May 2020",
                    "imageSrc": "https://specials-images.forbesimg.com/imageserve/1169729390/960x0.jpg?fit=scale",
                    "source": {
                        "href": "https://www.forbes.com/sites/daveywinder/2020/05/05/godaddy-confirms-data-breach-what-19-million-customers-need-to-know/",
                        "text": "Forbes",
                        "icon": "forbesFavicons"
                    }
                },
                "Mercedes-Benz leak": {
                    "name": "Mercedes-Benz leak",
                    "title": "Mercedes-Benz leak",
                    "description": " Mercedes-Benz onboard logic unit (OLU) source code leaks online",
                    "postDate": "May 2020",
                    "imageSrc": "https://zdnet2.cbsistatic.com/hub/i/2020/05/18/d368c558-2176-4c65-b010-60afbe105c82/daimler-van.jpg",
                    "source": {
                        "href": "https://www.zdnet.com/article/mercedes-benz-onboard-logic-unit-olu-source-code-leaks-online/",
                        "text": "Zdent",
                        "icon": "zdnetFavicons"
                    }
                },
                "Microsoft, Adobe, Lenovo..": {
                    "name": "Microsoft, Adobe, Lenovo..",
                    "title": "Microsoft, Adobe, Lenovo..",
                    "description": "A public repository in Gitlab of leaked code includes big names like Microsoft, Adobe, Lenovo, AMD...",
                    "postDate": "July 2020",
                    "imageSrc": "https://www.bleepstatic.com/content/hl-images/2020/07/27/leak.jpg",
                    "source": {
                        "href": "https://www.bleepingcomputer.com/news/security/source-code-from-dozens-of-companies-leaked-online/",
                        "text": "bleepingcomputer",
                        "icon": "bleepingcomputerFavicons"
                    }
                },
                "Impreva data Breach": {
                    "name": "Impreva data Breach",
                    "title": "Impreva data Breach",
                    "description": "Imperva CEO Chris Hylen resigned from the company following a data breach that exposed personal information",
                    "postDate": " October 2020",
                    "imageSrc": "https://www.crn.com/resources/0256-0dd9ac9df9cf-f07dc211189c-1000/hylen-chris-imperva400.jpg",
                    "source": {
                        "href": "https://www.crn.com/news/security/imperva-ceo-chris-hylen-steps-down-in-wake-of-data-breach-report",
                        "text": "CRN",
                        "icon": "crnFavicons"
                    }
                },
                "Orvis data leak": {
                    "name": "Orvis data leak",
                    "title": "Orvis data leak",
                    "description": "Internal passwords belonging to American retailer Orvis were twice leaked online in a double data breach...",
                    "postDate": "November 2019",
                    "imageSrc": "https://krebsonsecurity.com/wp-content/uploads/2019/08/incapcloud.png",
                    "source": {
                        "href": "https://www.infosecurity-magazine.com/news/orvis-passwords-leaked-twice-on/"
                    }
                },
                "Starbucks API Key": {
                    "name": "Starbucks API Key",
                    "title": "Starbucks API Key",
                    "description": "Starbucks Devs Leave API Key in GitHub Public Repo",
                    "postDate": "December 2019",
                    "imageSrc": "https://www.bleepstatic.com/content/hl-images/2019/08/29/Starbucks.jpg",
                    "source": {
                        "href": "https://www.bleepingcomputer.com/news/security/starbucks-devs-leave-api-key-in-github-public-repo/",
                        "text": "bleepingcomputer",
                        "icon": "bleepingcomputerFavicons"
                    }
                }
            }
        },
        "foxChart": {
            "title": "Get started with Spectral today",
            "description": "Reduce operational costs with our shift-left approach (up to 30x)",
            "buttonText": "get started",
            "columns": ["Design", "Development", "Test", "Production"]
        }
    }
}
