<svg width="1920" height="698" viewBox="0 0 1920 698" fill="none" xmlns="http://www.w3.org/2000/svg">
<path d="M337.387 151.55C59.776 90.1725 -24.2941 130.543 -19.6272 162.511C-52.6285 141.96 -163.633 394.048 -139.632 569.414C-115.631 744.779 33.375 709.158 119.378 644.766C205.382 580.374 478.392 443.37 677.4 444.74C876.408 446.11 845.407 813.275 1069.42 458.44C1197.38 255.749 1278.42 462.55 1605.44 465.29C1867.05 467.482 2001.79 288.098 2010.45 257.044C2027.79 157.031 2069.46 -219.731 1737.44 96.7488C1512.96 310.733 1478.43 91.2686 1271.42 41.9471C1064.42 -7.37448 1038.41 92.6386 876.408 170.731C714.402 248.823 684.401 228.273 337.387 151.55Z" fill="url(#paint0_linear)"/>
<defs>
<linearGradient id="paint0_linear" x1="939.411" y1="104.154" x2="939.578" y2="697.63" gradientUnits="userSpaceOnUse">
<stop stop-color="#021F56"/>
<stop offset="1" stop-color="#012A76"/>
</linearGradient>
</defs>
</svg>
