<svg width="603" height="435" viewBox="0 0 603 435" fill="none" xmlns="http://www.w3.org/2000/svg">
<g filter="url(#filter0_d)">
<path d="M552.08 178.36C552.08 178.206 552.08 178.052 552.08 177.745C552.234 172.52 548.849 167.142 541.927 163.146L325.942 38.6747C312.25 30.8376 289.944 30.8376 276.407 38.6747L60.2678 163.146C53.3452 167.142 49.9608 172.52 50.1146 177.745C50.1146 177.899 50.1146 199.259 50.1146 199.412C50.1146 199.566 50.1146 199.72 50.1146 200.027C49.9608 205.252 53.3452 210.63 60.2678 214.625L276.253 339.097C289.944 346.934 312.25 346.934 325.788 339.097L541.773 214.472C548.695 210.476 552.08 205.098 551.926 199.873C551.926 199.72 551.926 199.566 551.926 199.259C552.08 199.259 552.08 178.513 552.08 178.36Z" fill="#DAEDFE"/>
<g filter="url(#filter1_d)">
<path d="M325.942 315.74C312.251 323.577 289.945 323.577 276.407 315.74L60.2685 191.115C46.5772 183.278 46.5772 170.369 60.2685 162.532L276.254 37.9069C289.945 30.0698 312.251 30.0698 325.789 37.9069L541.774 162.532C555.465 170.369 555.465 183.278 541.774 191.115L325.942 315.74Z" fill="white"/>
</g>
</g>
<g filter="url(#filter2_dd)">
<path d="M279.965 77.3606V145.641L220.555 180.45V111.724L279.965 77.3606Z" fill="url(#paint0_linear)"/>
<path d="M161.144 77.3606V145.641L220.553 180.45V111.724L161.144 77.3606Z" fill="url(#paint1_linear)"/>
<path d="M279.965 77.3632L220.555 43L161.145 77.3632L220.555 111.726L279.965 77.3632Z" fill="url(#paint2_linear)"/>
</g>
<path fill-rule="evenodd" clip-rule="evenodd" d="M187.598 106.793L200.706 114.36C200.83 114.432 200.912 114.225 200.912 113.842V112.886C200.912 112.504 200.83 112.202 200.706 112.13L187.598 104.563C187.475 104.491 187.392 104.698 187.392 105.081V106.037C187.392 106.355 187.495 106.733 187.598 106.793ZM210.079 133.153L201.452 128.172C201.259 128.061 201.109 127.865 201.014 127.629C200.912 127.372 200.912 127.131 200.912 126.899L200.912 126.855V126.268C200.912 125.885 201.108 125.744 201.403 125.914L210.079 130.923C210.373 131.093 210.569 131.461 210.569 131.843V132.799C210.569 133.181 210.373 133.323 210.079 133.153ZM206.851 159.539L201.411 156.398C201.162 156.254 200.912 155.791 200.912 155.473V154.517C200.912 154.135 201.112 153.995 201.411 154.168L206.851 157.309C207.151 157.482 207.35 157.852 207.35 158.234V159.19C207.35 159.572 207.151 159.712 206.851 159.539ZM189.823 140.043L195.263 143.184C195.562 143.357 195.762 143.217 195.762 142.835V141.879C195.762 141.497 195.562 141.127 195.263 140.954L189.823 137.813C189.523 137.64 189.324 137.78 189.324 138.162V139.118C189.324 139.5 189.523 139.87 189.823 140.043ZM210.65 152.068L207.27 150.116C206.932 149.921 206.706 149.536 206.706 149.154V148.198C206.706 147.816 206.932 147.691 207.27 147.886L210.65 149.838C210.988 150.033 211.213 150.418 211.213 150.8V151.756C211.213 152.138 210.988 152.263 210.65 152.068ZM195.484 157.436L183.363 150.438C183.196 150.342 183.085 149.968 183.085 149.658V148.667C183.085 148.295 183.224 148.128 183.363 148.208L195.484 155.206C195.65 155.302 195.762 155.676 195.762 155.986V156.977C195.762 157.349 195.623 157.516 195.484 157.436ZM173.724 135.952L195.266 148.39C195.564 148.562 195.762 148.421 195.762 148.039V147.083C195.762 146.701 195.564 146.331 195.266 146.16L173.724 133.722C173.427 133.551 173.228 133.691 173.228 134.073V135.029C173.228 135.412 173.476 135.809 173.724 135.952ZM203.243 143.331L179.973 129.896C179.44 129.588 179.085 129.065 179.085 128.746V127.79C179.085 127.408 179.44 127.358 179.973 127.666L203.243 141.101C203.776 141.408 204.131 141.868 204.131 142.251V143.206C204.131 143.589 203.776 143.639 203.243 143.331ZM198.207 150.088L206.837 155.07C207.145 155.248 207.35 155.112 207.35 154.729V153.774C207.35 153.391 207.145 153.018 206.837 152.84L198.207 147.857C197.899 147.68 197.693 147.816 197.693 148.198V149.154C197.693 149.536 197.95 149.939 198.207 150.088ZM206.837 163.991L198.207 159.008C197.95 158.86 197.693 158.402 197.693 158.03V157.101C197.693 156.729 197.899 156.6 198.207 156.778L206.837 161.761C207.145 161.939 207.35 162.305 207.35 162.677V163.668C207.35 164.04 207.145 164.169 206.837 163.991ZM195.708 115.896L204.322 120.869C204.635 121.049 204.844 120.915 204.844 120.533V119.577C204.844 119.195 204.635 118.819 204.322 118.638L195.708 113.666C195.395 113.485 195.186 113.619 195.186 114.001V114.957C195.186 115.34 195.395 115.715 195.708 115.896ZM203.322 124.682L194.708 119.709C194.395 119.528 194.186 119.152 194.186 118.77V117.814C194.186 117.432 194.395 117.298 194.708 117.479L203.322 122.451C203.635 122.632 203.844 123.008 203.844 123.39V124.346C203.844 124.728 203.635 124.862 203.322 124.682ZM191.099 122.195L199.137 126.836C199.43 127.005 199.625 126.862 199.625 126.48V125.524C199.625 125.142 199.43 124.774 199.137 124.606L191.099 119.964C190.806 119.796 190.611 119.938 190.611 120.32V121.276C190.611 121.659 190.806 122.026 191.099 122.195ZM210.078 128.692L205.266 125.914C205.021 125.772 204.775 125.376 204.775 124.993V124.038C204.775 123.655 204.972 123.514 205.266 123.684L210.078 126.462C210.373 126.632 210.569 127.001 210.569 127.383V128.339C210.569 128.721 210.373 128.862 210.078 128.692ZM196.928 144.145L205.541 149.118C205.854 149.299 206.063 149.164 206.063 148.782V147.826C206.063 147.444 205.854 147.069 205.541 146.888L196.928 141.915C196.614 141.734 196.406 141.868 196.406 142.251V143.207C196.406 143.589 196.667 143.994 196.928 144.145ZM187.699 138.817L173.455 130.593C173.253 130.477 173.118 130.144 173.085 129.742V128.787C173.085 128.404 173.22 128.227 173.422 128.344L187.699 136.587C187.901 136.704 188.036 137.036 188.036 137.419V138.374C188.036 138.757 187.901 138.934 187.699 138.817ZM181.257 107.592L192.911 114.32C193.076 114.416 193.187 114.225 193.187 113.842V112.886C193.187 112.504 193.076 112.186 192.911 112.09L181.23 105.346C181.064 105.251 180.954 105.442 180.954 105.824V106.78C180.982 107.178 181.092 107.497 181.257 107.592ZM191.911 118.133L180.257 111.405C180.092 111.31 179.982 110.991 179.954 110.593V109.637C179.954 109.255 180.064 109.064 180.23 109.159L191.911 115.903C192.076 115.999 192.187 116.317 192.187 116.699V117.655C192.187 118.038 192.076 118.229 191.911 118.133ZM205.755 144.781L212.954 148.938C213.156 149.054 213.29 148.877 213.29 148.495V147.539C213.29 147.157 213.156 146.824 212.954 146.707L205.755 142.551C205.553 142.435 205.419 142.612 205.419 142.994V143.95C205.419 144.269 205.553 144.665 205.755 144.781ZM209.566 142.521L177.579 124.053C176.683 123.536 176.085 122.872 176.085 122.553V121.597C176.085 121.215 176.683 121.305 177.579 121.823L209.566 140.29C210.462 140.808 211.06 141.408 211.06 141.791V142.746C211.06 143.129 210.462 143.038 209.566 142.521Z" fill="url(#paint3_linear)"/>
<rect width="70.3844" height="61.9602" transform="matrix(-0.866025 -0.5 -0.866025 0.5 220.698 180.39)" fill="url(#paint4_linear)"/>
<g filter="url(#filter3_dd)">
<path d="M431.266 61.0193V162.403L343.053 214.089V112.043L431.266 61.0193Z" fill="url(#paint5_linear)"/>
<path d="M254.838 61.0193V162.403L343.051 214.089V112.043L254.838 61.0193Z" fill="url(#paint6_linear)"/>
<path d="M431.266 61.0234L343.053 10L254.84 61.0234L343.053 112.047L431.266 61.0234Z" fill="url(#paint7_linear)"/>
</g>
<path fill-rule="evenodd" clip-rule="evenodd" d="M270.655 104.421L318.88 132.263C319.326 132.52 319.622 132.313 319.622 131.745V130.326C319.622 129.759 319.326 129.209 318.88 128.952L270.655 101.109C270.21 100.852 269.914 101.059 269.914 101.627V103.046C269.914 103.614 270.21 104.164 270.655 104.421ZM313.581 115.958L294.118 104.721C293.965 104.632 293.812 104.071 293.812 103.598V102.179C293.812 101.611 293.935 101.303 294.118 101.409L313.581 112.646C313.764 112.752 313.887 113.201 313.887 113.769V115.188C313.887 115.756 313.764 116.064 313.581 115.958ZM314.688 136.465L327.498 143.861C327.935 144.114 328.226 143.903 328.226 143.336V141.916C328.226 141.349 327.935 140.802 327.498 140.55L314.615 133.112C314.178 132.86 313.887 133.07 313.887 133.638V134.689C313.887 134.934 313.889 135.186 313.969 135.459C314.099 135.899 314.35 136.27 314.688 136.465ZM314.628 178.376L322.705 183.039C323.15 183.296 323.446 183.089 323.446 182.521V181.102C323.446 180.534 323.15 179.985 322.705 179.728L314.628 175.065C314.183 174.808 313.887 175.015 313.887 175.583V177.002C313.887 177.475 314.257 178.162 314.628 178.376ZM305.498 158.755L297.421 154.092C296.976 153.835 296.68 153.286 296.68 152.718V151.299C296.68 150.731 296.976 150.524 297.421 150.78L305.498 155.444C305.943 155.701 306.239 156.25 306.239 156.818V158.237C306.239 158.805 305.943 159.012 305.498 158.755ZM323.327 169.049L328.345 171.946C328.847 172.236 329.182 172.051 329.182 171.483V170.064C329.182 169.496 328.847 168.924 328.345 168.635L323.327 165.737C322.825 165.447 322.49 165.633 322.49 166.2V167.62C322.49 168.187 322.825 168.759 323.327 169.049ZM273.134 133.447L293.492 145.2C293.684 145.311 293.812 145.007 293.812 144.439V143.02C293.812 142.452 293.684 142 293.492 141.889L273.102 130.117C272.91 130.006 272.781 130.31 272.781 130.878V132.297C272.814 132.789 272.942 133.336 273.134 133.447ZM305.506 179.732L273.515 161.263C273.075 161.008 272.781 160.379 272.781 159.919V158.447C272.781 157.895 273.148 157.739 273.515 157.951L305.506 176.421C305.946 176.675 306.239 177.304 306.239 177.764V179.236C306.239 179.788 305.872 179.944 305.506 179.732ZM273.517 148.018L305.504 166.485C305.945 166.74 306.239 166.532 306.239 165.964V164.545C306.239 163.977 305.945 163.429 305.504 163.174L273.517 144.706C273.076 144.451 272.781 144.66 272.781 145.228V146.647C272.781 147.215 273.149 147.805 273.517 148.018ZM317.921 159.305L298.382 148.024C297.934 147.765 297.636 147.12 297.636 146.647V145.228C297.636 144.66 297.934 144.454 298.382 144.712L317.921 155.993C318.368 156.251 318.666 156.802 318.666 157.37V158.789C318.666 159.357 318.368 159.563 317.921 159.305ZM309.87 169.006L322.684 176.404C323.141 176.668 323.446 176.466 323.446 175.898V174.479C323.446 173.911 323.141 173.357 322.684 173.093L309.87 165.695C309.412 165.43 309.107 165.633 309.107 166.2V167.62C309.107 168.187 309.489 168.786 309.87 169.006ZM322.684 189.65L309.87 182.252C309.489 182.032 309.107 181.352 309.107 180.8V179.42C309.107 178.868 309.412 178.676 309.87 178.94L322.684 186.338C323.141 186.603 323.446 187.147 323.446 187.699V189.17C323.446 189.722 323.141 189.914 322.684 189.65ZM315.618 117.134L328.407 124.517C328.872 124.786 329.182 124.586 329.182 124.019V122.599C329.182 122.032 328.872 121.474 328.407 121.206L315.618 113.822C315.153 113.554 314.843 113.753 314.843 114.321V115.74C314.843 116.213 315.153 116.865 315.618 117.134ZM318.847 125.621L306.058 118.237C305.593 117.969 305.283 117.411 305.283 116.844V115.425C305.283 114.857 305.593 114.657 306.058 114.926L318.847 122.31C319.312 122.578 319.622 123.136 319.622 123.703V125.122C319.622 125.69 319.312 125.89 318.847 125.621ZM311.251 134.481L299.315 127.59C298.881 127.339 298.592 126.794 298.592 126.226V124.807C298.592 124.239 298.881 124.028 299.315 124.279L311.251 131.17C311.685 131.421 311.975 131.966 311.975 132.534V133.953C311.975 134.521 311.685 134.732 311.251 134.481ZM320.352 133.112L327.497 137.238C327.934 137.49 328.226 137.28 328.226 136.713V135.293C328.226 134.726 327.934 134.179 327.497 133.926L320.352 129.801C319.914 129.548 319.623 129.759 319.623 130.326V131.745C319.623 132.313 319.987 132.902 320.352 133.112ZM320.759 167.566L307.97 160.183C307.583 159.959 307.195 159.357 307.195 158.789V157.37C307.195 156.802 307.505 156.603 307.97 156.871L320.759 164.255C321.224 164.523 321.534 165.081 321.534 165.648V167.068C321.534 167.635 321.224 167.835 320.759 167.566ZM263.071 134.26L294.036 152.138C294.475 152.391 294.768 152.182 294.768 151.614V150.195C294.768 149.627 294.475 149.08 294.036 148.826L262.998 130.907C262.559 130.653 262.266 130.862 262.266 131.43V132.479C262.266 132.725 262.268 132.979 262.35 133.254C262.48 133.694 262.732 134.064 263.071 134.26ZM302.006 115.898L284.703 105.908C284.457 105.766 284.294 105.293 284.253 104.702V103.283C284.253 102.715 284.416 102.431 284.662 102.573L302.006 112.587C302.252 112.728 302.416 113.201 302.416 113.769V115.188C302.416 115.756 302.252 116.04 302.006 115.898ZM321.078 161.127L331.767 167.299C332.066 167.472 332.266 167.208 332.266 166.641V165.222C332.266 164.654 332.066 164.16 331.767 163.987L321.078 157.816C320.778 157.643 320.578 157.906 320.578 158.474V159.893C320.578 160.366 320.778 160.954 321.078 161.127ZM327.82 158.397L303.55 144.384C302.869 143.992 302.416 143.257 302.416 142.783V141.364C302.416 140.797 302.869 140.68 303.55 141.073L327.82 155.086C328.501 155.479 328.955 156.119 328.955 156.687V158.106C328.955 158.674 328.501 158.79 327.82 158.397Z" fill="url(#paint8_linear)"/>
<rect width="104.509" height="92" transform="matrix(-0.866025 -0.5 -0.866025 0.5 343.266 214)" fill="url(#paint9_linear)"/>
<g filter="url(#filter4_dd)">
<path d="M503.965 122.361V190.641L444.555 225.45V156.724L503.965 122.361Z" fill="url(#paint10_linear)"/>
<path d="M385.144 122.361V190.641L444.553 225.45V156.724L385.144 122.361Z" fill="url(#paint11_linear)"/>
<path d="M503.965 122.363L444.555 88L385.145 122.363L444.555 156.726L503.965 122.363Z" fill="url(#paint12_linear)"/>
</g>
<path fill-rule="evenodd" clip-rule="evenodd" d="M393.584 150.518L426.063 169.27C426.363 169.443 426.562 169.304 426.562 168.921V167.965C426.562 167.583 426.363 167.213 426.063 167.04L393.584 148.288C393.285 148.115 393.085 148.255 393.085 148.637V149.593C393.085 149.975 393.285 150.345 393.584 150.518ZM418.838 155.975L414.158 153.273C414.121 153.251 414.085 152.912 414.085 152.593V151.637C414.085 151.255 414.114 151.017 414.158 151.042L418.838 153.745C418.883 153.77 418.912 154.042 418.912 154.424V155.38C418.912 155.762 418.883 156 418.838 155.975ZM420.158 156.735L424.838 159.437C424.883 159.462 424.912 159.225 424.912 158.842V157.886C424.912 157.504 424.883 157.232 424.838 157.207L420.158 154.505C420.114 154.479 420.085 154.717 420.085 155.099V156.055C420.085 156.374 420.121 156.714 420.158 156.735ZM425.451 173.172L434.079 178.153C434.373 178.323 434.569 178.181 434.569 177.799V176.843C434.569 176.461 434.373 176.093 434.079 175.923L425.402 170.913C425.108 170.744 424.912 170.885 424.912 171.267V171.855L424.912 171.899C424.912 172.131 424.911 172.372 425.014 172.629C425.109 172.865 425.259 173.061 425.451 173.172ZM425.451 177.542L434.079 182.523C434.373 182.693 434.569 182.551 434.569 182.169V181.213C434.569 180.83 434.373 180.462 434.079 180.292L425.402 175.283C425.108 175.113 424.912 175.255 424.912 175.637V176.225L424.912 176.269C424.912 176.5 424.911 176.741 425.014 176.998C425.109 177.235 425.259 177.431 425.451 177.542ZM430.851 204.539L425.411 201.398C425.162 201.254 424.912 200.791 424.912 200.473V199.517C424.912 199.135 425.112 198.995 425.411 199.168L430.851 202.309C431.15 202.481 431.35 202.852 431.35 203.234V204.19C431.35 204.572 431.15 204.712 430.851 204.539ZM413.822 185.043L419.262 188.184C419.562 188.357 419.761 188.217 419.761 187.835V186.879C419.761 186.497 419.562 186.127 419.262 185.954L413.822 182.813C413.523 182.64 413.323 182.78 413.323 183.162V184.118C413.323 184.5 413.523 184.87 413.822 185.043ZM434.649 197.068L431.269 195.116C430.931 194.921 430.706 194.536 430.706 194.154V193.198C430.706 192.816 430.931 192.691 431.269 192.886L434.649 194.837C434.987 195.033 435.213 195.418 435.213 195.8V196.756C435.213 197.138 434.987 197.263 434.649 197.068ZM397.466 171.139L411.176 179.055C411.306 179.129 411.392 178.924 411.392 178.542V177.586C411.392 177.204 411.306 176.899 411.176 176.824L397.444 168.896C397.315 168.821 397.228 169.026 397.228 169.409V170.365C397.25 170.696 397.336 171.064 397.466 171.139ZM419.571 202.487L411.275 197.697C411.161 197.631 411.085 197.277 411.085 196.968V195.976C411.085 195.605 411.18 195.412 411.275 195.467L419.571 200.257C419.685 200.322 419.761 200.676 419.761 200.986V201.977C419.761 202.349 419.666 202.542 419.571 202.487ZM397.723 180.952L419.266 193.39C419.563 193.561 419.761 193.421 419.761 193.039V192.083C419.761 191.701 419.563 191.331 419.266 191.16L397.723 178.722C397.426 178.55 397.228 178.691 397.228 179.073V180.029C397.228 180.411 397.476 180.809 397.723 180.952ZM427.629 188.554L414.47 180.956C414.168 180.782 413.967 180.348 413.967 180.029V179.073C413.967 178.691 414.168 178.552 414.47 178.726L427.629 186.323C427.93 186.497 428.131 186.868 428.131 187.251V188.206C428.131 188.589 427.93 188.728 427.629 188.554ZM422.207 195.088L430.836 200.07C431.145 200.248 431.35 200.112 431.35 199.729V198.774C431.35 198.391 431.145 198.018 430.836 197.84L422.207 192.857C421.899 192.679 421.693 192.816 421.693 193.198V194.154C421.693 194.536 421.95 194.939 422.207 195.088ZM430.836 208.991L422.207 204.008C421.95 203.86 421.693 203.402 421.693 203.03V202.101C421.693 201.729 421.899 201.6 422.207 201.778L430.836 206.76C431.145 206.938 431.35 207.305 431.35 207.677V208.668C431.35 209.039 431.145 209.169 430.836 208.991ZM426.078 160.152L434.691 165.125C435.004 165.306 435.213 165.172 435.213 164.789V163.833C435.213 163.451 435.004 163.076 434.691 162.895L426.078 157.922C425.764 157.741 425.556 157.876 425.556 158.258V159.214C425.556 159.532 425.764 159.971 426.078 160.152ZM433.276 168.768L419.927 161.061C419.442 160.781 419.118 160.339 419.118 159.957V159.001C419.118 158.619 419.442 158.551 419.927 158.831L433.276 166.538C433.761 166.818 434.085 167.26 434.085 167.642V168.598C434.085 168.98 433.761 169.049 433.276 168.768ZM422.514 171.476L404.195 160.899C403.529 160.515 403.085 160.004 403.085 159.621V158.665C403.085 158.283 403.529 158.285 404.195 158.669L422.514 169.246C423.18 169.631 423.624 170.142 423.624 170.524V171.48C423.624 171.862 423.18 171.861 422.514 171.476ZM429.266 170.914L434.078 173.692C434.373 173.862 434.569 173.721 434.569 173.339V172.383C434.569 172 434.373 171.632 434.078 171.462L429.266 168.684C428.971 168.514 428.775 168.655 428.775 169.037V169.993C428.775 170.376 429.021 170.772 429.266 170.914ZM429.54 194.118L420.927 189.145C420.666 188.994 420.405 188.589 420.405 188.206V187.251C420.405 186.868 420.614 186.734 420.927 186.915L429.54 191.888C429.854 192.068 430.062 192.444 430.062 192.826V193.782C430.062 194.164 429.854 194.299 429.54 194.118ZM390.689 171.687L411.543 183.727C411.839 183.898 412.036 183.757 412.036 183.374V182.419C412.036 182.036 411.839 181.667 411.543 181.497L390.639 169.428C390.344 169.257 390.146 169.398 390.146 169.781V170.366L390.146 170.411C390.146 170.643 390.145 170.886 390.25 171.144C390.345 171.38 390.496 171.576 390.689 171.687ZM416.911 159.32L405.257 152.592C405.092 152.497 404.981 152.178 404.954 151.78V150.824C404.954 150.442 405.064 150.25 405.229 150.346L416.911 157.09C417.076 157.186 417.186 157.504 417.186 157.886V158.842C417.186 159.224 417.076 159.416 416.911 159.32ZM429.755 189.781L436.954 193.938C437.155 194.054 437.29 193.877 437.29 193.495V192.539C437.29 192.156 437.155 191.824 436.954 191.707L429.755 187.551C429.553 187.435 429.419 187.612 429.419 187.994V188.95C429.419 189.269 429.553 189.665 429.755 189.781ZM434.296 187.943L417.95 178.505C417.492 178.241 417.186 177.746 417.186 177.427V176.471C417.186 176.089 417.492 176.01 417.95 176.275L434.296 185.712C434.754 185.977 435.06 186.408 435.06 186.791V187.746C435.06 188.129 434.754 188.207 434.296 187.943Z" fill="url(#paint13_linear)"/>
<rect width="70.3844" height="61.9602" transform="matrix(-0.866025 -0.5 -0.866025 0.5 444.698 225.39)" fill="url(#paint14_linear)"/>
<g filter="url(#filter5_dd)">
<path d="M173.085 128.635V155.731L149.509 169.544V142.271L173.085 128.635Z" fill="url(#paint15_linear)"/>
<path d="M125.933 128.635V155.731L149.509 169.544V142.271L125.933 128.635Z" fill="url(#paint16_linear)"/>
<path d="M173.085 128.636L149.509 115L125.934 128.636L149.509 142.272L173.085 128.636Z" fill="url(#paint17_linear)"/>
</g>
<rect width="27.9303" height="24.5874" transform="matrix(-0.866025 -0.5 -0.866025 0.5 149.566 169.52)" fill="url(#paint18_linear)"/>
<g filter="url(#filter6_dd)">
<path d="M366.085 232.635V259.731L342.509 273.544V246.271L366.085 232.635Z" fill="url(#paint19_linear)"/>
<path d="M318.933 232.635V259.731L342.509 273.544V246.271L318.933 232.635Z" fill="url(#paint20_linear)"/>
<path d="M366.085 232.636L342.509 219L318.934 232.636L342.509 246.272L366.085 232.636Z" fill="url(#paint21_linear)"/>
</g>
<rect width="27.9303" height="24.5874" transform="matrix(-0.866025 -0.5 -0.866025 0.5 342.566 273.52)" fill="url(#paint22_linear)"/>
<defs>
<filter id="filter0_d" x="0" y="22.0291" width="602.085" height="412.946" filterUnits="userSpaceOnUse" color-interpolation-filters="sRGB">
<feFlood flood-opacity="0" result="BackgroundImageFix"/>
<feColorMatrix in="SourceAlpha" type="matrix" values="0 0 0 0 0 0 0 0 0 0 0 0 0 0 0 0 0 0 127 0"/>
<feOffset dy="40"/>
<feGaussianBlur stdDeviation="25"/>
<feColorMatrix type="matrix" values="0 0 0 0 0.0784314 0 0 0 0 0.541176 0 0 0 0 0.737255 0 0 0 0.1 0"/>
<feBlend mode="normal" in2="BackgroundImageFix" result="effect1_dropShadow"/>
<feBlend mode="normal" in="SourceGraphic" in2="effect1_dropShadow" result="shape"/>
</filter>
<filter id="filter1_d" x="26" y="0.0290527" width="550.042" height="337.589" filterUnits="userSpaceOnUse" color-interpolation-filters="sRGB">
<feFlood flood-opacity="0" result="BackgroundImageFix"/>
<feColorMatrix in="SourceAlpha" type="matrix" values="0 0 0 0 0 0 0 0 0 0 0 0 0 0 0 0 0 0 127 0"/>
<feOffset dy="-8"/>
<feGaussianBlur stdDeviation="12"/>
<feColorMatrix type="matrix" values="0 0 0 0 0.854902 0 0 0 0 0.933333 0 0 0 0 0.988235 0 0 0 0.4 0"/>
<feBlend mode="normal" in2="BackgroundImageFix" result="effect1_dropShadow"/>
<feBlend mode="normal" in="SourceGraphic" in2="effect1_dropShadow" result="shape"/>
</filter>
<filter id="filter2_dd" x="153.144" y="42" width="134.821" height="154.45" filterUnits="userSpaceOnUse" color-interpolation-filters="sRGB">
<feFlood flood-opacity="0" result="BackgroundImageFix"/>
<feColorMatrix in="SourceAlpha" type="matrix" values="0 0 0 0 0 0 0 0 0 0 0 0 0 0 0 0 0 0 127 0"/>
<feOffset dy="1"/>
<feGaussianBlur stdDeviation="1"/>
<feColorMatrix type="matrix" values="0 0 0 0 0.203922 0 0 0 0 0.0823529 0 0 0 0 0.462745 0 0 0 0.3 0"/>
<feBlend mode="normal" in2="BackgroundImageFix" result="effect1_dropShadow"/>
<feColorMatrix in="SourceAlpha" type="matrix" values="0 0 0 0 0 0 0 0 0 0 0 0 0 0 0 0 0 0 127 0"/>
<feOffset dy="8"/>
<feGaussianBlur stdDeviation="4"/>
<feColorMatrix type="matrix" values="0 0 0 0 0.341176 0 0 0 0 0.152941 0 0 0 0 0.741176 0 0 0 0.16 0"/>
<feBlend mode="normal" in2="effect1_dropShadow" result="effect2_dropShadow"/>
<feBlend mode="normal" in="SourceGraphic" in2="effect2_dropShadow" result="shape"/>
</filter>
<filter id="filter3_dd" x="246.838" y="9" width="192.428" height="221.089" filterUnits="userSpaceOnUse" color-interpolation-filters="sRGB">
<feFlood flood-opacity="0" result="BackgroundImageFix"/>
<feColorMatrix in="SourceAlpha" type="matrix" values="0 0 0 0 0 0 0 0 0 0 0 0 0 0 0 0 0 0 127 0"/>
<feOffset dy="1"/>
<feGaussianBlur stdDeviation="1"/>
<feColorMatrix type="matrix" values="0 0 0 0 0.203922 0 0 0 0 0.0823529 0 0 0 0 0.462745 0 0 0 0.3 0"/>
<feBlend mode="normal" in2="BackgroundImageFix" result="effect1_dropShadow"/>
<feColorMatrix in="SourceAlpha" type="matrix" values="0 0 0 0 0 0 0 0 0 0 0 0 0 0 0 0 0 0 127 0"/>
<feOffset dy="8"/>
<feGaussianBlur stdDeviation="4"/>
<feColorMatrix type="matrix" values="0 0 0 0 0.341176 0 0 0 0 0.152941 0 0 0 0 0.741176 0 0 0 0.16 0"/>
<feBlend mode="normal" in2="effect1_dropShadow" result="effect2_dropShadow"/>
<feBlend mode="normal" in="SourceGraphic" in2="effect2_dropShadow" result="shape"/>
</filter>
<filter id="filter4_dd" x="377.144" y="87" width="134.821" height="154.45" filterUnits="userSpaceOnUse" color-interpolation-filters="sRGB">
<feFlood flood-opacity="0" result="BackgroundImageFix"/>
<feColorMatrix in="SourceAlpha" type="matrix" values="0 0 0 0 0 0 0 0 0 0 0 0 0 0 0 0 0 0 127 0"/>
<feOffset dy="1"/>
<feGaussianBlur stdDeviation="1"/>
<feColorMatrix type="matrix" values="0 0 0 0 0.203922 0 0 0 0 0.0823529 0 0 0 0 0.462745 0 0 0 0.3 0"/>
<feBlend mode="normal" in2="BackgroundImageFix" result="effect1_dropShadow"/>
<feColorMatrix in="SourceAlpha" type="matrix" values="0 0 0 0 0 0 0 0 0 0 0 0 0 0 0 0 0 0 127 0"/>
<feOffset dy="8"/>
<feGaussianBlur stdDeviation="4"/>
<feColorMatrix type="matrix" values="0 0 0 0 0.341176 0 0 0 0 0.152941 0 0 0 0 0.741176 0 0 0 0.16 0"/>
<feBlend mode="normal" in2="effect1_dropShadow" result="effect2_dropShadow"/>
<feBlend mode="normal" in="SourceGraphic" in2="effect2_dropShadow" result="shape"/>
</filter>
<filter id="filter5_dd" x="117.934" y="114" width="63.1512" height="71.5439" filterUnits="userSpaceOnUse" color-interpolation-filters="sRGB">
<feFlood flood-opacity="0" result="BackgroundImageFix"/>
<feColorMatrix in="SourceAlpha" type="matrix" values="0 0 0 0 0 0 0 0 0 0 0 0 0 0 0 0 0 0 127 0"/>
<feOffset dy="1"/>
<feGaussianBlur stdDeviation="1"/>
<feColorMatrix type="matrix" values="0 0 0 0 0.203922 0 0 0 0 0.0823529 0 0 0 0 0.462745 0 0 0 0.3 0"/>
<feBlend mode="normal" in2="BackgroundImageFix" result="effect1_dropShadow"/>
<feColorMatrix in="SourceAlpha" type="matrix" values="0 0 0 0 0 0 0 0 0 0 0 0 0 0 0 0 0 0 127 0"/>
<feOffset dy="8"/>
<feGaussianBlur stdDeviation="4"/>
<feColorMatrix type="matrix" values="0 0 0 0 0.341176 0 0 0 0 0.152941 0 0 0 0 0.741176 0 0 0 0.16 0"/>
<feBlend mode="normal" in2="effect1_dropShadow" result="effect2_dropShadow"/>
<feBlend mode="normal" in="SourceGraphic" in2="effect2_dropShadow" result="shape"/>
</filter>
<filter id="filter6_dd" x="310.934" y="218" width="63.1512" height="71.5439" filterUnits="userSpaceOnUse" color-interpolation-filters="sRGB">
<feFlood flood-opacity="0" result="BackgroundImageFix"/>
<feColorMatrix in="SourceAlpha" type="matrix" values="0 0 0 0 0 0 0 0 0 0 0 0 0 0 0 0 0 0 127 0"/>
<feOffset dy="1"/>
<feGaussianBlur stdDeviation="1"/>
<feColorMatrix type="matrix" values="0 0 0 0 0.203922 0 0 0 0 0.0823529 0 0 0 0 0.462745 0 0 0 0.3 0"/>
<feBlend mode="normal" in2="BackgroundImageFix" result="effect1_dropShadow"/>
<feColorMatrix in="SourceAlpha" type="matrix" values="0 0 0 0 0 0 0 0 0 0 0 0 0 0 0 0 0 0 127 0"/>
<feOffset dy="8"/>
<feGaussianBlur stdDeviation="4"/>
<feColorMatrix type="matrix" values="0 0 0 0 0.341176 0 0 0 0 0.152941 0 0 0 0 0.741176 0 0 0 0.16 0"/>
<feBlend mode="normal" in2="effect1_dropShadow" result="effect2_dropShadow"/>
<feBlend mode="normal" in="SourceGraphic" in2="effect2_dropShadow" result="shape"/>
</filter>
<linearGradient id="paint0_linear" x1="248.907" y1="94.2456" x2="248.907" y2="170.337" gradientUnits="userSpaceOnUse">
<stop offset="0.153061" stop-color="#6E36E5"/>
<stop offset="1" stop-color="#7535FD"/>
</linearGradient>
<linearGradient id="paint1_linear" x1="160.68" y1="141.682" x2="220.322" y2="116.74" gradientUnits="userSpaceOnUse">
<stop stop-color="#7139E8"/>
<stop offset="0.986775" stop-color="#582BBA"/>
</linearGradient>
<linearGradient id="paint2_linear" x1="225.614" y1="47.6587" x2="220.955" y2="111.327" gradientUnits="userSpaceOnUse">
<stop stop-color="#AF89FF"/>
<stop offset="1" stop-color="#9C6DFF"/>
</linearGradient>
<linearGradient id="paint3_linear" x1="169.032" y1="134.3" x2="213.255" y2="116.037" gradientUnits="userSpaceOnUse">
<stop stop-color="#C9AFFF"/>
<stop offset="1" stop-color="#8952FF"/>
</linearGradient>
<linearGradient id="paint4_linear" x1="38.0833" y1="-22.5299" x2="36.5424" y2="41.9653" gradientUnits="userSpaceOnUse">
<stop stop-color="#6130CA" stop-opacity="0.53"/>
<stop offset="1" stop-color="white" stop-opacity="0"/>
</linearGradient>
<linearGradient id="paint5_linear" x1="385.151" y1="86.0906" x2="385.151" y2="199.073" gradientUnits="userSpaceOnUse">
<stop offset="0.153061" stop-color="#6E36E5"/>
<stop offset="1" stop-color="#7535FD"/>
</linearGradient>
<linearGradient id="paint6_linear" x1="254.148" y1="156.525" x2="342.707" y2="119.491" gradientUnits="userSpaceOnUse">
<stop stop-color="#7139E8"/>
<stop offset="0.986775" stop-color="#582BBA"/>
</linearGradient>
<linearGradient id="paint7_linear" x1="350.564" y1="16.9173" x2="343.647" y2="111.454" gradientUnits="userSpaceOnUse">
<stop stop-color="#AF89FF"/>
<stop offset="1" stop-color="#9C6DFF"/>
</linearGradient>
<linearGradient id="paint8_linear" x1="266.55" y1="145.37" x2="332.298" y2="118.336" gradientUnits="userSpaceOnUse">
<stop stop-color="#DCCCFF"/>
<stop offset="1" stop-color="#9260FD"/>
</linearGradient>
<linearGradient id="paint9_linear" x1="56.547" y1="-33.453" x2="54.259" y2="62.3111" gradientUnits="userSpaceOnUse">
<stop stop-color="#6130CA" stop-opacity="0.53"/>
<stop offset="1" stop-color="white" stop-opacity="0"/>
</linearGradient>
<linearGradient id="paint10_linear" x1="472.907" y1="139.246" x2="472.907" y2="215.337" gradientUnits="userSpaceOnUse">
<stop offset="0.153061" stop-color="#6E36E5"/>
<stop offset="1" stop-color="#7535FD"/>
</linearGradient>
<linearGradient id="paint11_linear" x1="384.68" y1="186.682" x2="444.322" y2="161.74" gradientUnits="userSpaceOnUse">
<stop stop-color="#7139E8"/>
<stop offset="0.986775" stop-color="#582BBA"/>
</linearGradient>
<linearGradient id="paint12_linear" x1="449.614" y1="92.6587" x2="444.955" y2="156.327" gradientUnits="userSpaceOnUse">
<stop stop-color="#AF89FF"/>
<stop offset="1" stop-color="#9C6DFF"/>
</linearGradient>
<linearGradient id="paint13_linear" x1="393.029" y1="179.162" x2="437.309" y2="160.956" gradientUnits="userSpaceOnUse">
<stop stop-color="#D2BDFF"/>
<stop offset="1" stop-color="#8C56FF"/>
</linearGradient>
<linearGradient id="paint14_linear" x1="39.1214" y1="-6.6584" x2="35.8855" y2="62.2438" gradientUnits="userSpaceOnUse">
<stop stop-color="#6130CA" stop-opacity="0.53"/>
<stop offset="1" stop-color="white" stop-opacity="0"/>
</linearGradient>
<linearGradient id="paint15_linear" x1="160.76" y1="135.336" x2="160.76" y2="165.531" gradientUnits="userSpaceOnUse">
<stop offset="0.153061" stop-color="#6E36E5"/>
<stop offset="1" stop-color="#7535FD"/>
</linearGradient>
<linearGradient id="paint16_linear" x1="125.749" y1="154.159" x2="149.417" y2="144.262" gradientUnits="userSpaceOnUse">
<stop stop-color="#7139E8"/>
<stop offset="0.986775" stop-color="#582BBA"/>
</linearGradient>
<linearGradient id="paint17_linear" x1="151.517" y1="116.849" x2="149.668" y2="142.114" gradientUnits="userSpaceOnUse">
<stop stop-color="#AF89FF"/>
<stop offset="1" stop-color="#9C6DFF"/>
</linearGradient>
<linearGradient id="paint18_linear" x1="18.7054" y1="-8.33419" x2="13.6349" y2="24.6006" gradientUnits="userSpaceOnUse">
<stop stop-color="#6130CA" stop-opacity="0.53"/>
<stop offset="1" stop-color="white" stop-opacity="0"/>
</linearGradient>
<linearGradient id="paint19_linear" x1="353.76" y1="239.336" x2="353.76" y2="269.531" gradientUnits="userSpaceOnUse">
<stop offset="0.153061" stop-color="#6E36E5"/>
<stop offset="1" stop-color="#7535FD"/>
</linearGradient>
<linearGradient id="paint20_linear" x1="318.749" y1="258.159" x2="342.417" y2="248.262" gradientUnits="userSpaceOnUse">
<stop stop-color="#7139E8"/>
<stop offset="0.986775" stop-color="#582BBA"/>
</linearGradient>
<linearGradient id="paint21_linear" x1="344.517" y1="220.849" x2="342.668" y2="246.114" gradientUnits="userSpaceOnUse">
<stop stop-color="#AF89FF"/>
<stop offset="1" stop-color="#9C6DFF"/>
</linearGradient>
<linearGradient id="paint22_linear" x1="18.7054" y1="-8.33419" x2="13.6349" y2="24.6006" gradientUnits="userSpaceOnUse">
<stop stop-color="#6130CA" stop-opacity="0.53"/>
<stop offset="1" stop-color="white" stop-opacity="0"/>
</linearGradient>
</defs>
</svg>
