<svg width="329" height="344" viewBox="0 0 329 344" fill="none" xmlns="http://www.w3.org/2000/svg">
<path d="M64 344L32 163H297L265 344H64Z" fill="url(#paint0_linear)"/>
<path d="M45 224.652V233.956L53.0761 238.608V229.337L45 224.652Z" fill="#18BBF1"/>
<path d="M61.1523 224.652V233.956L53.0761 238.608V229.337L61.1523 224.652Z" fill="#0046A2"/>
<path d="M45 224.652L53.0761 220L61.1523 224.652L53.0761 229.338L45 224.652Z" fill="#1AF98C"/>
<path d="M97 253.652V262.956L105.076 267.608V258.337L97 253.652Z" fill="#18BBF1"/>
<path d="M113.152 253.652V262.956L105.076 267.608V258.337L113.152 253.652Z" fill="#0046A2"/>
<path d="M97 253.652L105.076 249L113.152 253.652L105.076 258.338L97 253.652Z" fill="#1AF98C"/>
<path d="M248.152 279.652V288.956L240.076 293.608V284.337L248.152 279.652Z" fill="#18BBF1"/>
<path d="M232 279.652V288.956L240.076 293.608V284.337L232 279.652Z" fill="#0046A2"/>
<path d="M248.152 279.652L240.076 275L232 279.652L240.076 284.338L248.152 279.652Z" fill="#1AF98C"/>
<rect x="-2.98023e-08" y="0.5" width="188.482" height="188.482" transform="matrix(0.866025 0.5 -0.866025 0.5 164.529 104.25)" stroke="url(#paint1_linear)"/>
<path d="M288.152 256.652V265.956L280.076 270.608V261.337L288.152 256.652Z" fill="#18BBF1"/>
<path d="M272 256.652V265.956L280.076 270.608V261.337L272 256.652Z" fill="#0046A2"/>
<path d="M288.152 256.652L280.076 252L272 256.652L280.076 261.338L288.152 256.652Z" fill="#1AF98C"/>
<rect x="-2.98023e-08" y="0.5" width="188.482" height="188.482" transform="matrix(0.866025 0.5 -0.866025 0.5 164.529 140.25)" stroke="url(#paint2_linear)"/>
<g filter="url(#filter0_d)">
<path opacity="0.8" d="M290.306 161.971C289.422 160.941 288.317 159.983 286.844 159.1L175.778 94.0374C168.782 89.9875 157.292 89.9875 150.295 94.0374L39.2292 159.173C37.7562 160.057 36.5778 161.014 35.7676 162.045H34V167.568H34.0737C34.4419 169.85 36.2095 172.133 39.2292 173.9L150.295 237.963C157.292 242.012 168.782 242.012 175.778 237.963L286.771 173.9C289.864 172.133 291.558 169.85 291.926 167.568H292V162.045H290.306V161.971Z" fill="#DAEDFE"/>
<path d="M175.777 231.981C168.781 236.006 157.293 236.006 150.297 231.981L39.2469 168.318C32.251 164.293 32.251 157.707 39.2469 153.682L150.223 90.0185C157.219 85.9938 168.707 85.9938 175.703 90.0185L286.753 153.682C293.749 157.707 293.749 164.293 286.753 168.318L175.777 231.981Z" fill="white"/>
<mask id="mask0" mask-type="alpha" maskUnits="userSpaceOnUse" x="34" y="87" width="258" height="148">
<path d="M175.777 231.981C168.781 236.006 157.293 236.006 150.297 231.981L39.2469 168.318C32.251 164.293 32.251 157.707 39.2469 153.682L150.223 90.0185C157.219 85.9938 168.707 85.9938 175.703 90.0185L286.753 153.682C293.749 157.707 293.749 164.293 286.753 168.318L175.777 231.981Z" fill="white"/>
</mask>
<g mask="url(#mask0)">
<circle r="91.3901" transform="matrix(0.866025 0.5 -0.866025 0.5 163.028 164)" fill="url(#paint3_radial)"/>
</g>
</g>
<g filter="url(#filter1_di)">
<path d="M103.146 72.0682V134.951L157.859 167.008V103.715L103.146 72.0682Z" fill="url(#paint4_linear)"/>
<path d="M212.574 72.0682V134.951L157.861 167.008V103.715L212.574 72.0682Z" fill="url(#paint5_linear)"/>
<path d="M103.146 72.0708L157.86 40.4241L212.573 72.0708L157.86 103.718L103.146 72.0708Z" fill="url(#paint6_linear)"/>
</g>
<g opacity="0.3" filter="url(#filter2_dd)">
<path d="M158.302 200.752L72.15 150.274V51.2603L158.302 101.091V200.752Z" fill="url(#paint7_linear)" stroke="url(#paint8_linear)" stroke-width="0.3"/>
<path d="M184.602 101.091L270.753 51.2603V150.274L184.602 200.752V101.091Z" fill="url(#paint9_linear)" stroke="url(#paint10_linear)" stroke-width="0.3"/>
<path d="M158.452 100.432L72.9986 51.0046L158.452 1.57762L243.905 51.0046L158.452 100.432Z" fill="url(#paint11_linear)" stroke="url(#paint12_linear)"/>
</g>
<defs>
<filter id="filter0_d" x="2" y="63" width="322" height="218" filterUnits="userSpaceOnUse" color-interpolation-filters="sRGB">
<feFlood flood-opacity="0" result="BackgroundImageFix"/>
<feColorMatrix in="SourceAlpha" type="matrix" values="0 0 0 0 0 0 0 0 0 0 0 0 0 0 0 0 0 0 127 0"/>
<feOffset dy="8"/>
<feGaussianBlur stdDeviation="16"/>
<feColorMatrix type="matrix" values="0 0 0 0 0.488467 0 0 0 0 0.481667 0 0 0 0 0.566667 0 0 0 0.24 0"/>
<feBlend mode="normal" in2="BackgroundImageFix" result="effect1_dropShadow"/>
<feBlend mode="normal" in="SourceGraphic" in2="effect1_dropShadow" result="shape"/>
</filter>
<filter id="filter1_di" x="63.1462" y="0.424072" width="189.428" height="206.584" filterUnits="userSpaceOnUse" color-interpolation-filters="sRGB">
<feFlood flood-opacity="0" result="BackgroundImageFix"/>
<feColorMatrix in="SourceAlpha" type="matrix" values="0 0 0 0 0 0 0 0 0 0 0 0 0 0 0 0 0 0 127 0"/>
<feOffset/>
<feGaussianBlur stdDeviation="20"/>
<feColorMatrix type="matrix" values="0 0 0 0 1 0 0 0 0 1 0 0 0 0 1 0 0 0 1 0"/>
<feBlend mode="normal" in2="BackgroundImageFix" result="effect1_dropShadow"/>
<feBlend mode="normal" in="SourceGraphic" in2="effect1_dropShadow" result="shape"/>
<feColorMatrix in="SourceAlpha" type="matrix" values="0 0 0 0 0 0 0 0 0 0 0 0 0 0 0 0 0 0 127 0" result="hardAlpha"/>
<feOffset dy="4"/>
<feGaussianBlur stdDeviation="10"/>
<feComposite in2="hardAlpha" operator="arithmetic" k2="-1" k3="1"/>
<feColorMatrix type="matrix" values="0 0 0 0 1 0 0 0 0 1 0 0 0 0 1 0 0 0 0.3 0"/>
<feBlend mode="normal" in2="shape" result="effect2_innerShadow"/>
</filter>
<filter id="filter2_dd" x="64" y="0" width="214.903" height="217.014" filterUnits="userSpaceOnUse" color-interpolation-filters="sRGB">
<feFlood flood-opacity="0" result="BackgroundImageFix"/>
<feColorMatrix in="SourceAlpha" type="matrix" values="0 0 0 0 0 0 0 0 0 0 0 0 0 0 0 0 0 0 127 0"/>
<feOffset dy="8"/>
<feGaussianBlur stdDeviation="4"/>
<feColorMatrix type="matrix" values="0 0 0 0 0.341176 0 0 0 0 0.152941 0 0 0 0 0.741176 0 0 0 0.16 0"/>
<feBlend mode="normal" in2="BackgroundImageFix" result="effect1_dropShadow"/>
<feColorMatrix in="SourceAlpha" type="matrix" values="0 0 0 0 0 0 0 0 0 0 0 0 0 0 0 0 0 0 127 0"/>
<feOffset dy="1"/>
<feGaussianBlur stdDeviation="1"/>
<feColorMatrix type="matrix" values="0 0 0 0 0.203922 0 0 0 0 0.0823529 0 0 0 0 0.462745 0 0 0 0.3 0"/>
<feBlend mode="normal" in2="effect1_dropShadow" result="effect2_dropShadow"/>
<feBlend mode="normal" in="SourceGraphic" in2="effect2_dropShadow" result="shape"/>
</filter>
<linearGradient id="paint0_linear" x1="164.5" y1="163" x2="164.5" y2="344" gradientUnits="userSpaceOnUse">
<stop stop-color="#DAEDFE"/>
<stop offset="0.209945" stop-color="#DAEDFE"/>
<stop offset="0.895028" stop-color="white" stop-opacity="0"/>
</linearGradient>
<linearGradient id="paint1_linear" x1="-1.22687e-05" y1="189.482" x2="102.929" y2="88.1447" gradientUnits="userSpaceOnUse">
<stop offset="0.190856" stop-color="#CBD5D9"/>
<stop offset="0.288264" stop-color="#CBD5D9" stop-opacity="0"/>
<stop offset="0.319516" stop-color="#CBD5D9" stop-opacity="0"/>
<stop offset="0.396164" stop-color="#CBD5D9"/>
<stop offset="0.528853" stop-color="#CBD5D9"/>
<stop offset="0.582792" stop-color="#CBD5D9" stop-opacity="0"/>
<stop offset="0.611314" stop-color="#CBD5D9" stop-opacity="0"/>
<stop offset="0.695229" stop-color="#CBD5D9"/>
<stop offset="1" stop-color="#CBD5D9"/>
</linearGradient>
<linearGradient id="paint2_linear" x1="180.741" y1="-8.74098" x2="188.203" y2="184.563" gradientUnits="userSpaceOnUse">
<stop offset="0.235605" stop-color="#CBD5D9"/>
<stop offset="0.339053" stop-color="#CBD5D9" stop-opacity="0"/>
<stop offset="0.398394" stop-color="#CBD5D9"/>
<stop offset="0.483948" stop-color="#CBD5D9"/>
<stop offset="0.52545" stop-color="#CBD5D9" stop-opacity="0"/>
<stop offset="0.564265" stop-color="#CBD5D9" stop-opacity="0"/>
<stop offset="0.684583" stop-color="#CBD5D9" stop-opacity="0.685294"/>
</linearGradient>
<radialGradient id="paint3_radial" cx="0" cy="0" r="1" gradientUnits="userSpaceOnUse" gradientTransform="translate(91.3901 91.3901) rotate(85.0731) scale(85.0129 77.7386)">
<stop offset="0.31709" stop-color="#7535FD" stop-opacity="0.33"/>
<stop offset="0.943013" stop-color="#7535FD" stop-opacity="0"/>
</radialGradient>
<linearGradient id="paint4_linear" x1="97.1774" y1="134.375" x2="156.865" y2="107.516" gradientUnits="userSpaceOnUse">
<stop offset="0.0364583" stop-color="#6E36E5"/>
<stop offset="0.491684" stop-color="#9664FF"/>
<stop offset="1" stop-color="white"/>
</linearGradient>
<linearGradient id="paint5_linear" x1="158.855" y1="104.531" x2="212.574" y2="141.339" gradientUnits="userSpaceOnUse">
<stop offset="0.0186479" stop-color="white" stop-opacity="0.53"/>
<stop offset="0.467198" stop-color="#AF8AFF"/>
<stop offset="0.979167" stop-color="#7B42F4"/>
</linearGradient>
<linearGradient id="paint6_linear" x1="153.201" y1="44.7145" x2="157.722" y2="123.182" gradientUnits="userSpaceOnUse">
<stop stop-color="#9D70FF"/>
<stop offset="0.442708" stop-color="#C1A4FF"/>
<stop offset="1" stop-color="white" stop-opacity="0.24"/>
</linearGradient>
<linearGradient id="paint7_linear" x1="146.76" y1="148.005" x2="79.4014" y2="108.383" gradientUnits="userSpaceOnUse">
<stop offset="0.153061" stop-color="#6E36E5"/>
<stop offset="1" stop-color="#BC9DFE"/>
</linearGradient>
<linearGradient id="paint8_linear" x1="154.005" y1="129.899" x2="75.6649" y2="107.143" gradientUnits="userSpaceOnUse">
<stop stop-color="#A77DFF" stop-opacity="0.53"/>
<stop offset="1" stop-color="white" stop-opacity="0"/>
</linearGradient>
<linearGradient id="paint9_linear" x1="270.903" y1="104.42" x2="188.525" y2="87.5474" gradientUnits="userSpaceOnUse">
<stop stop-color="#B696FA" stop-opacity="0.37"/>
<stop offset="0.979167" stop-color="#7B42F4"/>
</linearGradient>
<linearGradient id="paint10_linear" x1="184.452" y1="122.811" x2="270.903" y2="108.759" gradientUnits="userSpaceOnUse">
<stop stop-color="#E7DCFF" stop-opacity="0.42"/>
<stop offset="1" stop-color="white" stop-opacity="0"/>
</linearGradient>
<linearGradient id="paint11_linear" x1="164.396" y1="93.194" x2="165.387" y2="13.9489" gradientUnits="userSpaceOnUse">
<stop stop-color="white" stop-opacity="0.77"/>
<stop offset="0.557476" stop-color="#7236F3"/>
<stop offset="1" stop-color="#905CFF"/>
</linearGradient>
<linearGradient id="paint12_linear" x1="158.452" y1="1" x2="158.452" y2="101.009" gradientUnits="userSpaceOnUse">
<stop offset="0.325749" stop-color="white" stop-opacity="0"/>
<stop offset="1" stop-color="white"/>
</linearGradient>
</defs>
</svg>
