<svg width="1" height="505" viewBox="0 0 1 505" fill="none" xmlns="http://www.w3.org/2000/svg">
<line x1="0.5" y1="0.5" x2="0.499981" y2="504.5" stroke="#E6DEFE" stroke-linecap="round" stroke-dasharray="6 8"/>
</svg>
