<svg width="343" height="535" viewBox="0 0 343 535" fill="none" xmlns="http://www.w3.org/2000/svg">
<g opacity="0.8">
<line x1="22.5" y1="1.19824" x2="22.5" y2="505.198" stroke="url(#paint0_linear)" stroke-linecap="round" stroke-dasharray="6 8"/>
<line x1="118.5" y1="1.19824" x2="118.5" y2="505.198" stroke="url(#paint1_linear)" stroke-linecap="round" stroke-dasharray="6 8"/>
<line x1="214.5" y1="1.19824" x2="214.5" y2="505.198" stroke="url(#paint2_linear)" stroke-linecap="round" stroke-dasharray="6 8"/>
<line x1="310.5" y1="1.19824" x2="310.5" y2="505.198" stroke="url(#paint3_linear)" stroke-linecap="round" stroke-dasharray="6 8"/>
</g>
<path d="M10.2494 525.686C10.2494 526.438 10.1304 527.121 9.89241 527.737C9.65441 528.353 9.31841 528.881 8.88441 529.319C8.45041 529.758 7.92775 530.099 7.31641 530.341C6.70975 530.579 6.03775 530.698 5.30041 530.698H1.55541V520.667H5.30041C6.03775 520.667 6.70975 520.789 7.31641 521.031C7.92775 521.269 8.45041 521.61 8.88441 522.053C9.31841 522.492 9.65441 523.019 9.89241 523.635C10.1304 524.251 10.2494 524.935 10.2494 525.686ZM8.85641 525.686C8.85641 525.07 8.77241 524.52 8.60441 524.034C8.43641 523.549 8.19841 523.138 7.89041 522.802C7.58241 522.466 7.20908 522.21 6.77041 522.032C6.33175 521.855 5.84175 521.766 5.30041 521.766H2.91341V529.599H5.30041C5.84175 529.599 6.33175 529.511 6.77041 529.333C7.20908 529.156 7.58241 528.902 7.89041 528.57C8.19841 528.234 8.43641 527.824 8.60441 527.338C8.77241 526.853 8.85641 526.302 8.85641 525.686ZM16.5621 526.379C16.5621 526.09 16.5201 525.826 16.4361 525.588C16.3568 525.346 16.2378 525.138 16.0791 524.965C15.9251 524.788 15.7361 524.653 15.5121 524.559C15.2881 524.461 15.0338 524.412 14.7491 524.412C14.1518 524.412 13.6781 524.587 13.3281 524.937C12.9828 525.283 12.7681 525.763 12.6841 526.379H16.5621ZM17.5701 529.704C17.4161 529.891 17.2318 530.054 17.0171 530.194C16.8024 530.33 16.5714 530.442 16.3241 530.53C16.0814 530.619 15.8294 530.684 15.5681 530.726C15.3068 530.773 15.0478 530.796 14.7911 530.796C14.3011 530.796 13.8484 530.715 13.4331 530.551C13.0224 530.383 12.6654 530.141 12.3621 529.823C12.0634 529.501 11.8301 529.105 11.6621 528.633C11.4941 528.162 11.4101 527.621 11.4101 527.009C11.4101 526.515 11.4848 526.053 11.6341 525.623C11.7881 525.194 12.0074 524.823 12.2921 524.51C12.5768 524.193 12.9244 523.946 13.3351 523.768C13.7458 523.586 14.2078 523.495 14.7211 523.495C15.1458 523.495 15.5378 523.568 15.8971 523.712C16.2611 523.852 16.5738 524.058 16.8351 524.328C17.1011 524.594 17.3088 524.926 17.4581 525.322C17.6074 525.714 17.6821 526.162 17.6821 526.666C17.6821 526.862 17.6611 526.993 17.6191 527.058C17.5771 527.124 17.4978 527.156 17.3811 527.156H12.6421C12.6561 527.604 12.7168 527.994 12.8241 528.325C12.9361 528.657 13.0901 528.934 13.2861 529.158C13.4821 529.378 13.7154 529.543 13.9861 529.655C14.2568 529.763 14.5601 529.816 14.8961 529.816C15.2088 529.816 15.4771 529.781 15.7011 529.711C15.9298 529.637 16.1258 529.557 16.2891 529.473C16.4524 529.389 16.5878 529.312 16.6951 529.242C16.8071 529.168 16.9028 529.13 16.9821 529.13C17.0848 529.13 17.1641 529.17 17.2201 529.249L17.5701 529.704ZM23.3426 524.776C23.2866 524.879 23.2003 524.93 23.0836 524.93C23.0136 524.93 22.9343 524.905 22.8456 524.853C22.7569 524.802 22.6473 524.746 22.5166 524.685C22.3906 524.62 22.2389 524.562 22.0616 524.51C21.8843 524.454 21.6743 524.426 21.4316 524.426C21.2216 524.426 21.0326 524.454 20.8646 524.51C20.6966 524.562 20.5519 524.634 20.4306 524.727C20.3139 524.821 20.2229 524.93 20.1576 525.056C20.0969 525.178 20.0666 525.311 20.0666 525.455C20.0666 525.637 20.1179 525.789 20.2206 525.91C20.3279 526.032 20.4679 526.137 20.6406 526.225C20.8133 526.314 21.0093 526.393 21.2286 526.463C21.4479 526.529 21.6719 526.601 21.9006 526.68C22.1339 526.755 22.3603 526.839 22.5796 526.932C22.7989 527.026 22.9949 527.142 23.1676 527.282C23.3403 527.422 23.4779 527.595 23.5806 527.8C23.6879 528.001 23.7416 528.244 23.7416 528.528C23.7416 528.855 23.6833 529.158 23.5666 529.438C23.4499 529.714 23.2773 529.954 23.0486 530.159C22.8199 530.36 22.5399 530.519 22.2086 530.635C21.8773 530.752 21.4946 530.81 21.0606 530.81C20.5659 530.81 20.1179 530.731 19.7166 530.572C19.3153 530.409 18.9746 530.201 18.6946 529.949L18.9886 529.473C19.0259 529.413 19.0703 529.366 19.1216 529.333C19.1729 529.301 19.2383 529.284 19.3176 529.284C19.4016 529.284 19.4903 529.317 19.5836 529.382C19.6769 529.448 19.7889 529.52 19.9196 529.599C20.0549 529.679 20.2183 529.751 20.4096 529.816C20.6009 529.882 20.8389 529.914 21.1236 529.914C21.3663 529.914 21.5786 529.884 21.7606 529.823C21.9426 529.758 22.0943 529.672 22.2156 529.564C22.3369 529.457 22.4256 529.333 22.4816 529.193C22.5423 529.053 22.5726 528.904 22.5726 528.745C22.5726 528.549 22.5189 528.388 22.4116 528.262C22.3089 528.132 22.1713 528.022 21.9986 527.933C21.8259 527.84 21.6276 527.761 21.4036 527.695C21.1843 527.625 20.9579 527.553 20.7246 527.478C20.4959 527.404 20.2696 527.32 20.0456 527.226C19.8263 527.128 19.6303 527.007 19.4576 526.862C19.2849 526.718 19.1449 526.54 19.0376 526.33C18.9349 526.116 18.8836 525.857 18.8836 525.553C18.8836 525.283 18.9396 525.024 19.0516 524.776C19.1636 524.524 19.3269 524.305 19.5416 524.118C19.7563 523.927 20.0199 523.775 20.3326 523.663C20.6453 523.551 21.0023 523.495 21.4036 523.495C21.8703 523.495 22.2879 523.57 22.6566 523.719C23.0299 523.864 23.3519 524.065 23.6226 524.321L23.3426 524.776ZM26.5852 523.607V530.698H25.3392V523.607H26.5852ZM26.8512 521.381C26.8512 521.503 26.8256 521.617 26.7742 521.724C26.7276 521.827 26.6622 521.92 26.5782 522.004C26.4989 522.084 26.4032 522.147 26.2912 522.193C26.1839 522.24 26.0696 522.263 25.9482 522.263C25.8269 522.263 25.7126 522.24 25.6052 522.193C25.5026 522.147 25.4116 522.084 25.3322 522.004C25.2529 521.92 25.1899 521.827 25.1432 521.724C25.0966 521.617 25.0732 521.503 25.0732 521.381C25.0732 521.26 25.0966 521.146 25.1432 521.038C25.1899 520.926 25.2529 520.831 25.3322 520.751C25.4116 520.667 25.5026 520.602 25.6052 520.555C25.7126 520.509 25.8269 520.485 25.9482 520.485C26.0696 520.485 26.1839 520.509 26.2912 520.555C26.4032 520.602 26.4989 520.667 26.5782 520.751C26.6622 520.831 26.7276 520.926 26.7742 521.038C26.8256 521.146 26.8512 521.26 26.8512 521.381ZM31.1035 527.233C31.3555 527.233 31.5772 527.198 31.7685 527.128C31.9598 527.058 32.1208 526.96 32.2515 526.834C32.3822 526.708 32.4802 526.559 32.5455 526.386C32.6108 526.209 32.6435 526.015 32.6435 525.805C32.6435 525.371 32.5105 525.026 32.2445 524.769C31.9832 524.513 31.6028 524.384 31.1035 524.384C30.5995 524.384 30.2145 524.513 29.9485 524.769C29.6872 525.026 29.5565 525.371 29.5565 525.805C29.5565 526.015 29.5892 526.209 29.6545 526.386C29.7245 526.559 29.8248 526.708 29.9555 526.834C30.0862 526.96 30.2472 527.058 30.4385 527.128C30.6298 527.198 30.8515 527.233 31.1035 527.233ZM33.3505 531.083C33.3505 530.911 33.3015 530.771 33.2035 530.663C33.1055 530.556 32.9725 530.472 32.8045 530.411C32.6412 530.351 32.4498 530.309 32.2305 530.285C32.0112 530.257 31.7778 530.236 31.5305 530.222C31.2878 530.208 31.0405 530.194 30.7885 530.18C30.5365 530.166 30.2938 530.143 30.0605 530.11C29.7992 530.232 29.5845 530.386 29.4165 530.572C29.2532 530.754 29.1715 530.969 29.1715 531.216C29.1715 531.375 29.2112 531.522 29.2905 531.657C29.3745 531.797 29.5005 531.916 29.6685 532.014C29.8365 532.117 30.0465 532.196 30.2985 532.252C30.5552 532.313 30.8562 532.343 31.2015 532.343C31.5375 532.343 31.8385 532.313 32.1045 532.252C32.3705 532.192 32.5945 532.105 32.7765 531.993C32.9632 531.881 33.1055 531.748 33.2035 531.594C33.3015 531.44 33.3505 531.27 33.3505 531.083ZM34.6175 523.887V524.349C34.6175 524.503 34.5195 524.601 34.3235 524.643L33.5185 524.748C33.6772 525.056 33.7565 525.397 33.7565 525.77C33.7565 526.116 33.6888 526.431 33.5535 526.715C33.4228 526.995 33.2408 527.236 33.0075 527.436C32.7742 527.637 32.4942 527.791 32.1675 527.898C31.8408 528.006 31.4862 528.059 31.1035 528.059C30.7722 528.059 30.4595 528.02 30.1655 527.94C30.0162 528.034 29.9018 528.134 29.8225 528.241C29.7432 528.344 29.7035 528.449 29.7035 528.556C29.7035 528.724 29.7712 528.853 29.9065 528.941C30.0465 529.025 30.2285 529.086 30.4525 529.123C30.6765 529.161 30.9308 529.184 31.2155 529.193C31.5048 529.203 31.7988 529.219 32.0975 529.242C32.4008 529.261 32.6948 529.296 32.9795 529.347C33.2688 529.399 33.5255 529.483 33.7495 529.599C33.9735 529.716 34.1532 529.877 34.2885 530.082C34.4285 530.288 34.4985 530.554 34.4985 530.88C34.4985 531.184 34.4215 531.478 34.2675 531.762C34.1182 532.047 33.9012 532.299 33.6165 532.518C33.3318 532.742 32.9818 532.92 32.5665 533.05C32.1558 533.186 31.6915 533.253 31.1735 533.253C30.6555 533.253 30.2028 533.202 29.8155 533.099C29.4282 532.997 29.1062 532.859 28.8495 532.686C28.5928 532.514 28.3992 532.313 28.2685 532.084C28.1425 531.86 28.0795 531.625 28.0795 531.377C28.0795 531.027 28.1892 530.731 28.4085 530.488C28.6278 530.246 28.9288 530.052 29.3115 529.907C29.1015 529.814 28.9335 529.69 28.8075 529.536C28.6862 529.378 28.6255 529.165 28.6255 528.899C28.6255 528.797 28.6442 528.692 28.6815 528.584C28.7188 528.472 28.7748 528.363 28.8495 528.255C28.9288 528.143 29.0245 528.038 29.1365 527.94C29.2485 527.842 29.3792 527.756 29.5285 527.681C29.1785 527.485 28.9055 527.226 28.7095 526.904C28.5135 526.578 28.4155 526.2 28.4155 525.77C28.4155 525.425 28.4808 525.112 28.6115 524.832C28.7468 524.548 28.9335 524.307 29.1715 524.111C29.4095 523.911 29.6918 523.757 30.0185 523.649C30.3498 523.542 30.7115 523.488 31.1035 523.488C31.4115 523.488 31.6985 523.523 31.9645 523.593C32.2305 523.659 32.4732 523.757 32.6925 523.887H34.6175ZM37.0819 524.636C37.2359 524.464 37.3993 524.307 37.5719 524.167C37.7446 524.027 37.9266 523.908 38.1179 523.81C38.3139 523.708 38.5193 523.631 38.7339 523.579C38.9533 523.523 39.1889 523.495 39.4409 523.495C39.8283 523.495 40.1689 523.561 40.4629 523.691C40.7616 523.817 41.0089 523.999 41.2049 524.237C41.4056 524.471 41.5573 524.753 41.6599 525.084C41.7626 525.416 41.8139 525.782 41.8139 526.183V530.698H40.5609V526.183C40.5609 525.647 40.4373 525.231 40.1899 524.937C39.9473 524.639 39.5763 524.489 39.0769 524.489C38.7083 524.489 38.3629 524.578 38.0409 524.755C37.7236 524.933 37.4296 525.173 37.1589 525.476V530.698H35.9059V523.607H36.6549C36.8323 523.607 36.9419 523.694 36.9839 523.866L37.0819 524.636Z" fill="#E6DEFE"/>
<path d="M92.0971 525.988C92.0971 526.739 91.9781 527.423 91.7401 528.039C91.5021 528.655 91.1661 529.182 90.7321 529.621C90.2981 530.06 89.7754 530.4 89.1641 530.643C88.5574 530.881 87.8854 531 87.1481 531H83.4031V520.969H87.1481C87.8854 520.969 88.5574 521.09 89.1641 521.333C89.7754 521.571 90.2981 521.912 90.7321 522.355C91.1661 522.794 91.5021 523.321 91.7401 523.937C91.9781 524.553 92.0971 525.237 92.0971 525.988ZM90.7041 525.988C90.7041 525.372 90.6201 524.821 90.4521 524.336C90.2841 523.851 90.0461 523.44 89.7381 523.104C89.4301 522.768 89.0567 522.511 88.6181 522.334C88.1794 522.157 87.6894 522.068 87.1481 522.068H84.7611V529.901H87.1481C87.6894 529.901 88.1794 529.812 88.6181 529.635C89.0567 529.458 89.4301 529.203 89.7381 528.872C90.0461 528.536 90.2841 528.125 90.4521 527.64C90.6201 527.155 90.7041 526.604 90.7041 525.988ZM98.4098 526.681C98.4098 526.392 98.3678 526.128 98.2838 525.89C98.2044 525.647 98.0854 525.44 97.9268 525.267C97.7728 525.09 97.5838 524.954 97.3598 524.861C97.1358 524.763 96.8814 524.714 96.5968 524.714C95.9994 524.714 95.5258 524.889 95.1758 525.239C94.8304 525.584 94.6158 526.065 94.5318 526.681H98.4098ZM99.4178 530.006C99.2638 530.193 99.0794 530.356 98.8648 530.496C98.6501 530.631 98.4191 530.743 98.1718 530.832C97.9291 530.921 97.6771 530.986 97.4158 531.028C97.1544 531.075 96.8954 531.098 96.6388 531.098C96.1488 531.098 95.6961 531.016 95.2808 530.853C94.8701 530.685 94.5131 530.442 94.2098 530.125C93.9111 529.803 93.6778 529.406 93.5098 528.935C93.3418 528.464 93.2578 527.922 93.2578 527.311C93.2578 526.816 93.3324 526.354 93.4818 525.925C93.6358 525.496 93.8551 525.125 94.1398 524.812C94.4244 524.495 94.7721 524.247 95.1828 524.07C95.5934 523.888 96.0554 523.797 96.5688 523.797C96.9934 523.797 97.3854 523.869 97.7448 524.014C98.1088 524.154 98.4214 524.359 98.6828 524.63C98.9488 524.896 99.1564 525.227 99.3058 525.624C99.4551 526.016 99.5298 526.464 99.5298 526.968C99.5298 527.164 99.5088 527.295 99.4668 527.36C99.4248 527.425 99.3454 527.458 99.2288 527.458H94.4898C94.5038 527.906 94.5644 528.296 94.6718 528.627C94.7838 528.958 94.9378 529.236 95.1338 529.46C95.3298 529.679 95.5631 529.845 95.8338 529.957C96.1044 530.064 96.4078 530.118 96.7438 530.118C97.0564 530.118 97.3248 530.083 97.5488 530.013C97.7774 529.938 97.9734 529.859 98.1368 529.775C98.3001 529.691 98.4354 529.614 98.5428 529.544C98.6548 529.469 98.7504 529.432 98.8298 529.432C98.9324 529.432 99.0118 529.472 99.0678 529.551L99.4178 530.006ZM106.986 523.909L104.095 531H102.975L100.084 523.909H101.099C101.202 523.909 101.286 523.935 101.351 523.986C101.416 524.037 101.461 524.098 101.484 524.168L103.283 528.732C103.339 528.905 103.388 529.073 103.43 529.236C103.472 529.399 103.512 529.563 103.549 529.726C103.586 529.563 103.626 529.399 103.668 529.236C103.71 529.073 103.761 528.905 103.822 528.732L105.642 524.168C105.67 524.093 105.717 524.033 105.782 523.986C105.847 523.935 105.924 523.909 106.013 523.909H106.986ZM109.417 520.689V531H108.171V520.689H109.417ZM114.426 523.797C114.944 523.797 115.411 523.883 115.826 524.056C116.242 524.229 116.596 524.474 116.89 524.791C117.184 525.108 117.408 525.493 117.562 525.946C117.721 526.394 117.8 526.896 117.8 527.451C117.8 528.011 117.721 528.515 117.562 528.963C117.408 529.411 117.184 529.794 116.89 530.111C116.596 530.428 116.242 530.673 115.826 530.846C115.411 531.014 114.944 531.098 114.426 531.098C113.904 531.098 113.432 531.014 113.012 530.846C112.597 530.673 112.242 530.428 111.948 530.111C111.654 529.794 111.428 529.411 111.269 528.963C111.115 528.515 111.038 528.011 111.038 527.451C111.038 526.896 111.115 526.394 111.269 525.946C111.428 525.493 111.654 525.108 111.948 524.791C112.242 524.474 112.597 524.229 113.012 524.056C113.432 523.883 113.904 523.797 114.426 523.797ZM114.426 530.125C115.126 530.125 115.649 529.892 115.994 529.425C116.34 528.954 116.512 528.298 116.512 527.458C116.512 526.613 116.34 525.955 115.994 525.484C115.649 525.013 115.126 524.777 114.426 524.777C114.072 524.777 113.761 524.838 113.495 524.959C113.234 525.08 113.015 525.255 112.837 525.484C112.665 525.713 112.534 525.995 112.445 526.331C112.361 526.662 112.319 527.038 112.319 527.458C112.319 528.298 112.492 528.954 112.837 529.425C113.187 529.892 113.717 530.125 114.426 530.125ZM120.634 529.292C120.862 529.6 121.112 529.817 121.383 529.943C121.653 530.069 121.957 530.132 122.293 530.132C122.955 530.132 123.464 529.896 123.819 529.425C124.173 528.954 124.351 528.282 124.351 527.409C124.351 526.947 124.309 526.55 124.225 526.219C124.145 525.888 124.029 525.617 123.875 525.407C123.721 525.192 123.532 525.036 123.308 524.938C123.084 524.84 122.829 524.791 122.545 524.791C122.139 524.791 121.782 524.884 121.474 525.071C121.17 525.258 120.89 525.521 120.634 525.862V529.292ZM120.571 525.008C120.869 524.639 121.215 524.343 121.607 524.119C121.999 523.895 122.447 523.783 122.951 523.783C123.361 523.783 123.732 523.862 124.064 524.021C124.395 524.175 124.677 524.406 124.911 524.714C125.144 525.017 125.324 525.395 125.45 525.848C125.576 526.301 125.639 526.821 125.639 527.409C125.639 527.932 125.569 528.419 125.429 528.872C125.289 529.32 125.086 529.71 124.82 530.041C124.558 530.368 124.236 530.627 123.854 530.818C123.476 531.005 123.049 531.098 122.573 531.098C122.139 531.098 121.765 531.026 121.453 530.881C121.145 530.732 120.872 530.526 120.634 530.265V533.401H119.381V523.909H120.13C120.307 523.909 120.417 523.995 120.459 524.168L120.571 525.008ZM127.228 531V523.909H127.977C128.155 523.909 128.264 523.995 128.306 524.168L128.397 524.896C128.659 524.574 128.953 524.31 129.279 524.105C129.606 523.9 129.984 523.797 130.413 523.797C130.889 523.797 131.274 523.93 131.568 524.196C131.867 524.462 132.082 524.821 132.212 525.274C132.315 525.017 132.446 524.796 132.604 524.609C132.768 524.422 132.95 524.268 133.15 524.147C133.351 524.026 133.563 523.937 133.787 523.881C134.016 523.825 134.247 523.797 134.48 523.797C134.854 523.797 135.185 523.858 135.474 523.979C135.768 524.096 136.016 524.268 136.216 524.497C136.422 524.726 136.578 525.008 136.685 525.344C136.793 525.675 136.846 526.056 136.846 526.485V531H135.593V526.485C135.593 525.93 135.472 525.51 135.229 525.225C134.987 524.936 134.637 524.791 134.179 524.791C133.974 524.791 133.778 524.828 133.591 524.903C133.409 524.973 133.248 525.078 133.108 525.218C132.968 525.358 132.856 525.535 132.772 525.75C132.693 525.96 132.653 526.205 132.653 526.485V531H131.4V526.485C131.4 525.916 131.286 525.491 131.057 525.211C130.829 524.931 130.495 524.791 130.056 524.791C129.748 524.791 129.464 524.875 129.202 525.043C128.941 525.206 128.701 525.43 128.481 525.715V531H127.228ZM143.486 526.681C143.486 526.392 143.444 526.128 143.36 525.89C143.281 525.647 143.162 525.44 143.003 525.267C142.849 525.09 142.66 524.954 142.436 524.861C142.212 524.763 141.958 524.714 141.673 524.714C141.076 524.714 140.602 524.889 140.252 525.239C139.907 525.584 139.692 526.065 139.608 526.681H143.486ZM144.494 530.006C144.34 530.193 144.156 530.356 143.941 530.496C143.726 530.631 143.495 530.743 143.248 530.832C143.005 530.921 142.753 530.986 142.492 531.028C142.231 531.075 141.972 531.098 141.715 531.098C141.225 531.098 140.772 531.016 140.357 530.853C139.946 530.685 139.589 530.442 139.286 530.125C138.987 529.803 138.754 529.406 138.586 528.935C138.418 528.464 138.334 527.922 138.334 527.311C138.334 526.816 138.409 526.354 138.558 525.925C138.712 525.496 138.931 525.125 139.216 524.812C139.501 524.495 139.848 524.247 140.259 524.07C140.67 523.888 141.132 523.797 141.645 523.797C142.07 523.797 142.462 523.869 142.821 524.014C143.185 524.154 143.498 524.359 143.759 524.63C144.025 524.896 144.233 525.227 144.382 525.624C144.531 526.016 144.606 526.464 144.606 526.968C144.606 527.164 144.585 527.295 144.543 527.36C144.501 527.425 144.422 527.458 144.305 527.458H139.566C139.58 527.906 139.641 528.296 139.748 528.627C139.86 528.958 140.014 529.236 140.21 529.46C140.406 529.679 140.639 529.845 140.91 529.957C141.181 530.064 141.484 530.118 141.82 530.118C142.133 530.118 142.401 530.083 142.625 530.013C142.854 529.938 143.05 529.859 143.213 529.775C143.376 529.691 143.512 529.614 143.619 529.544C143.731 529.469 143.827 529.432 143.906 529.432C144.009 529.432 144.088 529.472 144.144 529.551L144.494 530.006ZM147.312 524.938C147.466 524.765 147.63 524.609 147.802 524.469C147.975 524.329 148.157 524.21 148.348 524.112C148.544 524.009 148.75 523.932 148.964 523.881C149.184 523.825 149.419 523.797 149.671 523.797C150.059 523.797 150.399 523.862 150.693 523.993C150.992 524.119 151.239 524.301 151.435 524.539C151.636 524.772 151.788 525.055 151.89 525.386C151.993 525.717 152.044 526.084 152.044 526.485V531H150.791V526.485C150.791 525.948 150.668 525.533 150.42 525.239C150.178 524.94 149.807 524.791 149.307 524.791C148.939 524.791 148.593 524.88 148.271 525.057C147.954 525.234 147.66 525.475 147.389 525.778V531H146.136V523.909H146.885C147.063 523.909 147.172 523.995 147.214 524.168L147.312 524.938ZM156.024 531.112C155.464 531.112 155.033 530.956 154.729 530.643C154.431 530.33 154.281 529.88 154.281 529.292V524.952H153.427C153.353 524.952 153.29 524.931 153.238 524.889C153.187 524.842 153.161 524.772 153.161 524.679V524.182L154.323 524.035L154.61 521.844C154.624 521.774 154.655 521.718 154.701 521.676C154.753 521.629 154.818 521.606 154.897 521.606H155.527V524.049H157.578V524.952H155.527V529.208C155.527 529.507 155.6 529.728 155.744 529.873C155.889 530.018 156.076 530.09 156.304 530.09C156.435 530.09 156.547 530.074 156.64 530.041C156.738 530.004 156.822 529.964 156.892 529.922C156.962 529.88 157.021 529.843 157.067 529.81C157.119 529.773 157.163 529.754 157.2 529.754C157.266 529.754 157.324 529.794 157.375 529.873L157.739 530.468C157.525 530.669 157.266 530.827 156.962 530.944C156.659 531.056 156.346 531.112 156.024 531.112Z" fill="#E6DEFE"/>
<path d="M209.547 522.11H206.299V531H204.948V522.11H201.693V520.969H209.547V522.11ZM213.779 526.681C213.779 526.392 213.737 526.128 213.653 525.89C213.574 525.647 213.455 525.44 213.296 525.267C213.142 525.09 212.953 524.954 212.729 524.861C212.505 524.763 212.251 524.714 211.966 524.714C211.369 524.714 210.895 524.889 210.545 525.239C210.2 525.584 209.985 526.065 209.901 526.681H213.779ZM214.787 530.006C214.633 530.193 214.449 530.356 214.234 530.496C214.019 530.631 213.788 530.743 213.541 530.832C213.298 530.921 213.046 530.986 212.785 531.028C212.524 531.075 212.265 531.098 212.008 531.098C211.518 531.098 211.065 531.016 210.65 530.853C210.239 530.685 209.882 530.442 209.579 530.125C209.28 529.803 209.047 529.406 208.879 528.935C208.711 528.464 208.627 527.922 208.627 527.311C208.627 526.816 208.702 526.354 208.851 525.925C209.005 525.496 209.224 525.125 209.509 524.812C209.794 524.495 210.141 524.247 210.552 524.07C210.963 523.888 211.425 523.797 211.938 523.797C212.363 523.797 212.755 523.869 213.114 524.014C213.478 524.154 213.791 524.359 214.052 524.63C214.318 524.896 214.526 525.227 214.675 525.624C214.824 526.016 214.899 526.464 214.899 526.968C214.899 527.164 214.878 527.295 214.836 527.36C214.794 527.425 214.715 527.458 214.598 527.458H209.859C209.873 527.906 209.934 528.296 210.041 528.627C210.153 528.958 210.307 529.236 210.503 529.46C210.699 529.679 210.932 529.845 211.203 529.957C211.474 530.064 211.777 530.118 212.113 530.118C212.426 530.118 212.694 530.083 212.918 530.013C213.147 529.938 213.343 529.859 213.506 529.775C213.669 529.691 213.805 529.614 213.912 529.544C214.024 529.469 214.12 529.432 214.199 529.432C214.302 529.432 214.381 529.472 214.437 529.551L214.787 530.006ZM220.559 525.078C220.503 525.181 220.417 525.232 220.3 525.232C220.23 525.232 220.151 525.206 220.062 525.155C219.974 525.104 219.864 525.048 219.733 524.987C219.607 524.922 219.456 524.863 219.278 524.812C219.101 524.756 218.891 524.728 218.648 524.728C218.438 524.728 218.249 524.756 218.081 524.812C217.913 524.863 217.769 524.936 217.647 525.029C217.531 525.122 217.44 525.232 217.374 525.358C217.314 525.479 217.283 525.612 217.283 525.757C217.283 525.939 217.335 526.091 217.437 526.212C217.545 526.333 217.685 526.438 217.857 526.527C218.03 526.616 218.226 526.695 218.445 526.765C218.665 526.83 218.889 526.903 219.117 526.982C219.351 527.057 219.577 527.141 219.796 527.234C220.016 527.327 220.212 527.444 220.384 527.584C220.557 527.724 220.695 527.897 220.797 528.102C220.905 528.303 220.958 528.545 220.958 528.83C220.958 529.157 220.9 529.46 220.783 529.74C220.667 530.015 220.494 530.256 220.265 530.461C220.037 530.662 219.757 530.82 219.425 530.937C219.094 531.054 218.711 531.112 218.277 531.112C217.783 531.112 217.335 531.033 216.933 530.874C216.532 530.711 216.191 530.503 215.911 530.251L216.205 529.775C216.243 529.714 216.287 529.668 216.338 529.635C216.39 529.602 216.455 529.586 216.534 529.586C216.618 529.586 216.707 529.619 216.8 529.684C216.894 529.749 217.006 529.822 217.136 529.901C217.272 529.98 217.435 530.053 217.626 530.118C217.818 530.183 218.056 530.216 218.34 530.216C218.583 530.216 218.795 530.186 218.977 530.125C219.159 530.06 219.311 529.973 219.432 529.866C219.554 529.759 219.642 529.635 219.698 529.495C219.759 529.355 219.789 529.206 219.789 529.047C219.789 528.851 219.736 528.69 219.628 528.564C219.526 528.433 219.388 528.324 219.215 528.235C219.043 528.142 218.844 528.062 218.62 527.997C218.401 527.927 218.175 527.855 217.941 527.78C217.713 527.705 217.486 527.621 217.262 527.528C217.043 527.43 216.847 527.309 216.674 527.164C216.502 527.019 216.362 526.842 216.254 526.632C216.152 526.417 216.1 526.158 216.1 525.855C216.1 525.584 216.156 525.325 216.268 525.078C216.38 524.826 216.544 524.607 216.758 524.42C216.973 524.229 217.237 524.077 217.549 523.965C217.862 523.853 218.219 523.797 218.62 523.797C219.087 523.797 219.505 523.872 219.873 524.021C220.247 524.166 220.569 524.366 220.839 524.623L220.559 525.078ZM224.663 531.112C224.103 531.112 223.671 530.956 223.368 530.643C223.069 530.33 222.92 529.88 222.92 529.292V524.952H222.066C221.991 524.952 221.928 524.931 221.877 524.889C221.826 524.842 221.8 524.772 221.8 524.679V524.182L222.962 524.035L223.249 521.844C223.263 521.774 223.293 521.718 223.34 521.676C223.391 521.629 223.457 521.606 223.536 521.606H224.166V524.049H226.217V524.952H224.166V529.208C224.166 529.507 224.238 529.728 224.383 529.873C224.528 530.018 224.714 530.09 224.943 530.09C225.074 530.09 225.186 530.074 225.279 530.041C225.377 530.004 225.461 529.964 225.531 529.922C225.601 529.88 225.659 529.843 225.706 529.81C225.757 529.773 225.802 529.754 225.839 529.754C225.904 529.754 225.963 529.794 226.014 529.873L226.378 530.468C226.163 530.669 225.904 530.827 225.601 530.944C225.298 531.056 224.985 531.112 224.663 531.112Z" fill="#E6DEFE"/>
<path d="M280.301 526.17C280.688 526.17 281.029 526.119 281.323 526.016C281.621 525.913 281.871 525.771 282.072 525.589C282.277 525.402 282.431 525.181 282.534 524.924C282.636 524.667 282.688 524.385 282.688 524.077C282.688 523.438 282.489 522.938 282.093 522.579C281.701 522.22 281.103 522.04 280.301 522.04H278.691V526.17H280.301ZM280.301 520.969C280.935 520.969 281.486 521.044 281.953 521.193C282.424 521.338 282.814 521.545 283.122 521.816C283.43 522.087 283.658 522.413 283.808 522.796C283.962 523.179 284.039 523.606 284.039 524.077C284.039 524.544 283.957 524.971 283.794 525.358C283.63 525.745 283.39 526.079 283.073 526.359C282.76 526.639 282.37 526.858 281.904 527.017C281.442 527.171 280.907 527.248 280.301 527.248H278.691V531H277.34V520.969H280.301ZM286.5 525.33C286.724 524.845 286.999 524.467 287.326 524.196C287.653 523.921 288.052 523.783 288.523 523.783C288.672 523.783 288.815 523.799 288.95 523.832C289.09 523.865 289.214 523.916 289.321 523.986L289.23 524.917C289.202 525.034 289.132 525.092 289.02 525.092C288.955 525.092 288.859 525.078 288.733 525.05C288.607 525.022 288.465 525.008 288.306 525.008C288.082 525.008 287.881 525.041 287.704 525.106C287.531 525.171 287.375 525.269 287.235 525.4C287.1 525.526 286.976 525.685 286.864 525.876C286.757 526.063 286.659 526.277 286.57 526.52V531H285.317V523.909H286.031C286.166 523.909 286.26 523.935 286.311 523.986C286.362 524.037 286.397 524.126 286.416 524.252L286.5 525.33ZM293.119 523.797C293.637 523.797 294.103 523.883 294.519 524.056C294.934 524.229 295.289 524.474 295.583 524.791C295.877 525.108 296.101 525.493 296.255 525.946C296.413 526.394 296.493 526.896 296.493 527.451C296.493 528.011 296.413 528.515 296.255 528.963C296.101 529.411 295.877 529.794 295.583 530.111C295.289 530.428 294.934 530.673 294.519 530.846C294.103 531.014 293.637 531.098 293.119 531.098C292.596 531.098 292.125 531.014 291.705 530.846C291.289 530.673 290.935 530.428 290.641 530.111C290.347 529.794 290.12 529.411 289.962 528.963C289.808 528.515 289.731 528.011 289.731 527.451C289.731 526.896 289.808 526.394 289.962 525.946C290.12 525.493 290.347 525.108 290.641 524.791C290.935 524.474 291.289 524.229 291.705 524.056C292.125 523.883 292.596 523.797 293.119 523.797ZM293.119 530.125C293.819 530.125 294.341 529.892 294.687 529.425C295.032 528.954 295.205 528.298 295.205 527.458C295.205 526.613 295.032 525.955 294.687 525.484C294.341 525.013 293.819 524.777 293.119 524.777C292.764 524.777 292.454 524.838 292.188 524.959C291.926 525.08 291.707 525.255 291.53 525.484C291.357 525.713 291.226 525.995 291.138 526.331C291.054 526.662 291.012 527.038 291.012 527.458C291.012 528.298 291.184 528.954 291.53 529.425C291.88 529.892 292.409 530.125 293.119 530.125ZM302.693 525.596C302.46 525.283 302.208 525.066 301.937 524.945C301.666 524.819 301.363 524.756 301.027 524.756C300.369 524.756 299.863 524.992 299.508 525.463C299.153 525.934 298.976 526.606 298.976 527.479C298.976 527.941 299.016 528.338 299.095 528.669C299.174 528.996 299.291 529.266 299.445 529.481C299.599 529.691 299.788 529.845 300.012 529.943C300.236 530.041 300.49 530.09 300.775 530.09C301.186 530.09 301.543 529.997 301.846 529.81C302.154 529.623 302.436 529.36 302.693 529.019V525.596ZM303.939 520.689V531H303.197C303.02 531 302.908 530.914 302.861 530.741L302.749 529.88C302.446 530.244 302.1 530.538 301.713 530.762C301.326 530.986 300.878 531.098 300.369 531.098C299.963 531.098 299.594 531.021 299.263 530.867C298.932 530.708 298.649 530.477 298.416 530.174C298.183 529.871 298.003 529.493 297.877 529.04C297.751 528.587 297.688 528.067 297.688 527.479C297.688 526.956 297.758 526.471 297.898 526.023C298.038 525.57 298.239 525.178 298.5 524.847C298.761 524.516 299.081 524.257 299.459 524.07C299.842 523.879 300.271 523.783 300.747 523.783C301.181 523.783 301.552 523.858 301.86 524.007C302.173 524.152 302.45 524.355 302.693 524.616V520.689H303.939ZM309.75 527.808C309.176 527.827 308.686 527.873 308.28 527.948C307.879 528.018 307.55 528.111 307.293 528.228C307.041 528.345 306.857 528.482 306.74 528.641C306.628 528.8 306.572 528.977 306.572 529.173C306.572 529.36 306.602 529.521 306.663 529.656C306.724 529.791 306.805 529.903 306.908 529.992C307.015 530.076 307.139 530.139 307.279 530.181C307.424 530.218 307.578 530.237 307.741 530.237C307.96 530.237 308.161 530.216 308.343 530.174C308.525 530.127 308.695 530.062 308.854 529.978C309.017 529.894 309.171 529.794 309.316 529.677C309.465 529.56 309.61 529.427 309.75 529.278V527.808ZM305.725 524.91C306.117 524.532 306.539 524.25 306.992 524.063C307.445 523.876 307.946 523.783 308.497 523.783C308.894 523.783 309.246 523.848 309.554 523.979C309.862 524.11 310.121 524.292 310.331 524.525C310.541 524.758 310.7 525.041 310.807 525.372C310.914 525.703 310.968 526.067 310.968 526.464V531H310.415C310.294 531 310.2 530.981 310.135 530.944C310.07 530.902 310.018 530.823 309.981 530.706L309.841 530.034C309.654 530.207 309.472 530.361 309.295 530.496C309.118 530.627 308.931 530.739 308.735 530.832C308.539 530.921 308.329 530.988 308.105 531.035C307.886 531.086 307.641 531.112 307.37 531.112C307.095 531.112 306.836 531.075 306.593 531C306.35 530.921 306.138 530.804 305.956 530.65C305.779 530.496 305.636 530.302 305.529 530.069C305.426 529.831 305.375 529.551 305.375 529.229C305.375 528.949 305.452 528.681 305.606 528.424C305.76 528.163 306.01 527.932 306.355 527.731C306.7 527.53 307.151 527.367 307.706 527.241C308.261 527.11 308.943 527.036 309.75 527.017V526.464C309.75 525.913 309.631 525.498 309.393 525.218C309.155 524.933 308.807 524.791 308.35 524.791C308.042 524.791 307.783 524.831 307.573 524.91C307.368 524.985 307.188 525.071 307.034 525.169C306.885 525.262 306.754 525.349 306.642 525.428C306.535 525.503 306.427 525.54 306.32 525.54C306.236 525.54 306.164 525.519 306.103 525.477C306.042 525.43 305.991 525.374 305.949 525.309L305.725 524.91ZM317.801 525.169C317.764 525.22 317.726 525.26 317.689 525.288C317.652 525.316 317.6 525.33 317.535 525.33C317.465 525.33 317.388 525.302 317.304 525.246C317.22 525.185 317.115 525.12 316.989 525.05C316.868 524.98 316.716 524.917 316.534 524.861C316.357 524.8 316.137 524.77 315.876 524.77C315.526 524.77 315.218 524.833 314.952 524.959C314.686 525.08 314.462 525.258 314.28 525.491C314.103 525.724 313.967 526.007 313.874 526.338C313.785 526.669 313.741 527.04 313.741 527.451C313.741 527.88 313.79 528.263 313.888 528.599C313.986 528.93 314.124 529.21 314.301 529.439C314.483 529.663 314.7 529.836 314.952 529.957C315.209 530.074 315.496 530.132 315.813 530.132C316.116 530.132 316.366 530.097 316.562 530.027C316.758 529.952 316.919 529.871 317.045 529.782C317.176 529.693 317.283 529.614 317.367 529.544C317.456 529.469 317.542 529.432 317.626 529.432C317.729 529.432 317.808 529.472 317.864 529.551L318.214 530.006C318.06 530.197 317.885 530.361 317.689 530.496C317.493 530.631 317.281 530.746 317.052 530.839C316.828 530.928 316.592 530.993 316.345 531.035C316.098 531.077 315.846 531.098 315.589 531.098C315.146 531.098 314.733 531.016 314.35 530.853C313.972 530.69 313.643 530.454 313.363 530.146C313.083 529.833 312.864 529.451 312.705 528.998C312.546 528.545 312.467 528.03 312.467 527.451C312.467 526.924 312.539 526.436 312.684 525.988C312.833 525.54 313.048 525.155 313.328 524.833C313.613 524.506 313.96 524.252 314.371 524.07C314.786 523.888 315.262 523.797 315.799 523.797C316.298 523.797 316.737 523.879 317.115 524.042C317.498 524.201 317.836 524.427 318.13 524.721L317.801 525.169ZM326.131 531H324.885V524.952H321.231V529.208C321.231 529.507 321.304 529.728 321.448 529.873C321.593 530.018 321.78 530.09 322.008 530.09C322.139 530.09 322.251 530.074 322.344 530.041C322.442 530.004 322.526 529.964 322.596 529.922C322.666 529.88 322.725 529.843 322.771 529.81C322.823 529.773 322.867 529.754 322.904 529.754C322.97 529.754 323.028 529.794 323.079 529.873L323.443 530.468C323.229 530.669 322.97 530.827 322.666 530.944C322.363 531.056 322.05 531.112 321.728 531.112C321.168 531.112 320.737 530.956 320.433 530.643C320.135 530.33 319.985 529.88 319.985 529.292V524.952H319.131C319.057 524.952 318.994 524.931 318.942 524.889C318.891 524.842 318.865 524.772 318.865 524.679V524.182L320.027 524.028L320.314 521.844C320.328 521.774 320.359 521.718 320.405 521.676C320.457 521.629 320.522 521.606 320.601 521.606H321.231V524.049H326.131V531ZM326.439 521.634C326.439 521.755 326.414 521.87 326.362 521.977C326.316 522.08 326.25 522.171 326.166 522.25C326.087 522.329 325.994 522.392 325.886 522.439C325.779 522.486 325.665 522.509 325.543 522.509C325.422 522.509 325.308 522.486 325.2 522.439C325.098 522.392 325.007 522.329 324.927 522.25C324.848 522.171 324.785 522.08 324.738 521.977C324.692 521.87 324.668 521.755 324.668 521.634C324.668 521.513 324.692 521.398 324.738 521.291C324.785 521.179 324.848 521.083 324.927 521.004C325.007 520.92 325.098 520.855 325.2 520.808C325.308 520.761 325.422 520.738 325.543 520.738C325.665 520.738 325.779 520.761 325.886 520.808C325.994 520.855 326.087 520.92 326.166 521.004C326.25 521.083 326.316 521.179 326.362 521.291C326.414 521.398 326.439 521.513 326.439 521.634ZM331.167 523.797C331.685 523.797 332.152 523.883 332.567 524.056C332.983 524.229 333.337 524.474 333.631 524.791C333.925 525.108 334.149 525.493 334.303 525.946C334.462 526.394 334.541 526.896 334.541 527.451C334.541 528.011 334.462 528.515 334.303 528.963C334.149 529.411 333.925 529.794 333.631 530.111C333.337 530.428 332.983 530.673 332.567 530.846C332.152 531.014 331.685 531.098 331.167 531.098C330.645 531.098 330.173 531.014 329.753 530.846C329.338 530.673 328.983 530.428 328.689 530.111C328.395 529.794 328.169 529.411 328.01 528.963C327.856 528.515 327.779 528.011 327.779 527.451C327.779 526.896 327.856 526.394 328.01 525.946C328.169 525.493 328.395 525.108 328.689 524.791C328.983 524.474 329.338 524.229 329.753 524.056C330.173 523.883 330.645 523.797 331.167 523.797ZM331.167 530.125C331.867 530.125 332.39 529.892 332.735 529.425C333.081 528.954 333.253 528.298 333.253 527.458C333.253 526.613 333.081 525.955 332.735 525.484C332.39 525.013 331.867 524.777 331.167 524.777C330.813 524.777 330.502 524.838 330.236 524.959C329.975 525.08 329.756 525.255 329.578 525.484C329.406 525.713 329.275 525.995 329.186 526.331C329.102 526.662 329.06 527.038 329.06 527.458C329.06 528.298 329.233 528.954 329.578 529.425C329.928 529.892 330.458 530.125 331.167 530.125ZM337.298 524.938C337.452 524.765 337.615 524.609 337.788 524.469C337.96 524.329 338.142 524.21 338.334 524.112C338.53 524.009 338.735 523.932 338.95 523.881C339.169 523.825 339.405 523.797 339.657 523.797C340.044 523.797 340.385 523.862 340.679 523.993C340.977 524.119 341.225 524.301 341.421 524.539C341.621 524.772 341.773 525.055 341.876 525.386C341.978 525.717 342.03 526.084 342.03 526.485V531H340.777V526.485C340.777 525.948 340.653 525.533 340.406 525.239C340.163 524.94 339.792 524.791 339.293 524.791C338.924 524.791 338.579 524.88 338.257 525.057C337.939 525.234 337.645 525.475 337.375 525.778V531H336.122V523.909H336.871C337.048 523.909 337.158 523.995 337.2 524.168L337.298 524.938Z" fill="#E6DEFE"/>
<defs>
<linearGradient id="paint0_linear" x1="22.0004" y1="253" x2="22" y2="-23.9997" gradientUnits="userSpaceOnUse">
<stop stop-color="#E6DEFE"/>
<stop offset="1" stop-color="#E6DEFE" stop-opacity="0"/>
</linearGradient>
<linearGradient id="paint1_linear" x1="118" y1="253.198" x2="118" y2="-68.9998" gradientUnits="userSpaceOnUse">
<stop stop-color="#E6DEFE"/>
<stop offset="1" stop-color="#E6DEFE" stop-opacity="0"/>
</linearGradient>
<linearGradient id="paint2_linear" x1="214" y1="276" x2="214" y2="-54.9998" gradientUnits="userSpaceOnUse">
<stop stop-color="#E6DEFE"/>
<stop offset="1" stop-color="#E6DEFE" stop-opacity="0"/>
</linearGradient>
<linearGradient id="paint3_linear" x1="310" y1="253.198" x2="310" y2="-55.9998" gradientUnits="userSpaceOnUse">
<stop stop-color="#E6DEFE"/>
<stop offset="1" stop-color="#E6DEFE" stop-opacity="0"/>
</linearGradient>
</defs>
</svg>
