<svg width="10" height="570" viewBox="0 0 10 570" fill="none" xmlns="http://www.w3.org/2000/svg">
<path fill-rule="evenodd" clip-rule="evenodd" d="M5.19549 0C6.02391 0 6.69549 0.671573 6.69549 1.5L6.69548 129.143H8.38867C9.20067 129.143 9.67413 130.06 9.20414 130.722L6.69548 134.257L6.69547 283.143H8.38867C9.20067 283.143 9.67413 284.06 9.20414 284.722L6.69547 288.257L6.69547 437.143H8.38867C9.20067 437.143 9.67413 438.06 9.20414 438.722L6.69547 442.257L6.69546 568.5C6.69546 569.328 6.02389 570 5.19546 570C4.36703 570 3.69546 569.328 3.69546 568.5L3.69547 443.665L0.186975 438.722C-0.283009 438.06 0.190443 437.143 1.00245 437.143H3.69547L3.69547 289.665L0.186975 284.722C-0.283009 284.06 0.190443 283.143 1.00245 283.143H3.69547L3.69548 135.665L0.186975 130.722C-0.283009 130.06 0.190443 129.143 1.00245 129.143H3.69548L3.69549 1.5C3.69549 0.671573 4.36706 0 5.19549 0Z" fill="url(#paint0_linear)"/>
<defs>
<linearGradient id="paint0_linear" x1="9.38" y1="570.48" x2="-0.833676" y2="-0.00815717" gradientUnits="userSpaceOnUse">
<stop stop-color="#18BBF1"/>
<stop offset="1" stop-color="#4284FB"/>
</linearGradient>
</defs>
</svg>
