<svg width="1498" height="560" viewBox="0 0 1498 560" fill="none" xmlns="http://www.w3.org/2000/svg">
<path opacity="0.7" d="M-380.657 536.328C-392.55 539.916 -397.993 544.149 -397 549.114C-419.357 538.951 -401.782 512.517 -380.657 536.328C-336.655 523.055 -204.359 518.614 17 518.614C179 518.614 429 530.663 647 449.09C742.499 413.355 901.058 368.84 1131 312.793C1396.58 248.06 1631.52 109.765 1856 -46.4225C2188 -277.423 1922.33 449.114 1905 522.114C1896.33 544.781 1663.6 573.69 1402 572.09C1075 570.09 1074 569.09 857 564.09C514.667 556.202 645 565.09 446 564.09C247 563.09 -7.00009 619.663 -93.0001 666.663C-179 713.663 -328 739.663 -352 611.663C-359.74 570.383 -370.601 547.663 -380.657 536.328Z" fill="#41159C"/>
</svg>
