<svg width="24" height="25" viewBox="0 0 24 25" fill="none" xmlns="http://www.w3.org/2000/svg">
<circle cx="12" cy="12.5" r="9" fill="white"/>
<path d="M12.9375 12.604C12.9885 12.6695 13.01 12.764 12.9955 12.8515L12.8575 13.4555C12.843 13.55 12.7775 13.623 12.698 13.6665L12.139 13.9285C12.059 13.972 11.9575 13.972 11.8775 13.9285L11.3185 13.6665C11.2385 13.623 11.1735 13.55 11.159 13.4555L11.021 12.8515C11.0065 12.764 11.0285 12.6695 11.079 12.604L11.471 12.1165C11.5215 12.0435 11.609 12 11.703 12H12.313C12.4075 12 12.4945 12.0435 12.5455 12.1165L12.9375 12.604Z" fill="#0277BD"/>
<path d="M12.6557 8.16512L12.6797 8.35262C12.7467 8.87112 12.7947 9.39512 12.8427 9.91362C12.8617 10.1201 12.8812 10.3221 12.8952 10.5286C12.9047 10.6871 13.0822 10.7686 13.2117 10.6776C13.3747 10.5576 13.5427 10.4376 13.7152 10.3221C14.1467 10.0291 14.5732 9.73613 15.0142 9.45263L15.1772 9.35162C14.4917 8.72712 13.6192 8.29962 12.6557 8.16512ZM12.6557 8.16512L12.6797 8.35262C12.7467 8.87112 12.7947 9.39512 12.8427 9.91362C12.8617 10.1201 12.8812 10.3221 12.8952 10.5286C12.9047 10.6871 13.0822 10.7686 13.2117 10.6776C13.3747 10.5576 13.5427 10.4376 13.7152 10.3221C14.1467 10.0291 14.5732 9.73613 15.0142 9.45263L15.1772 9.35162C14.4917 8.72712 13.6192 8.29962 12.6557 8.16512ZM12.6557 8.16512L12.6797 8.35262C12.7467 8.87112 12.7947 9.39512 12.8427 9.91362C12.8617 10.1201 12.8812 10.3221 12.8952 10.5286C12.9047 10.6871 13.0822 10.7686 13.2117 10.6776C13.3747 10.5576 13.5427 10.4376 13.7152 10.3221C14.1467 10.0291 14.5732 9.73613 15.0142 9.45263L15.1772 9.35162C14.4917 8.72712 13.6192 8.29962 12.6557 8.16512ZM12.6557 8.16512L12.6797 8.35262C12.7467 8.87112 12.7947 9.39512 12.8427 9.91362C12.8617 10.1201 12.8812 10.3221 12.8952 10.5286C12.9047 10.6871 13.0822 10.7686 13.2117 10.6776C13.3747 10.5576 13.5427 10.4376 13.7152 10.3221C14.1467 10.0291 14.5732 9.73613 15.0142 9.45263L15.1772 9.35162C14.4917 8.72712 13.6192 8.29962 12.6557 8.16512ZM12.6557 8.16512L12.6797 8.35262C12.7467 8.87112 12.7947 9.39512 12.8427 9.91362C12.8617 10.1201 12.8812 10.3221 12.8952 10.5286C12.9047 10.6871 13.0822 10.7686 13.2117 10.6776C13.3747 10.5576 13.5427 10.4376 13.7152 10.3221C14.1467 10.0291 14.5732 9.73613 15.0142 9.45263L15.1772 9.35162C14.4917 8.72712 13.6192 8.29962 12.6557 8.16512ZM16.0592 10.4176L15.9297 10.5571C15.5702 10.9416 15.2012 11.3111 14.8317 11.6811C14.5967 11.9211 14.3427 12.1516 14.0982 12.3871C14.4242 12.4686 14.7502 12.5551 15.0762 12.6511C15.5797 12.7951 16.0782 12.9346 16.5767 13.0976L16.7542 13.1551C16.7592 13.0781 16.7592 12.9966 16.7592 12.9151C16.7592 11.9981 16.5052 11.1431 16.0592 10.4176ZM16.0592 10.4176L15.9297 10.5571C15.5702 10.9416 15.2012 11.3111 14.8317 11.6811C14.5967 11.9211 14.3427 12.1516 14.0982 12.3871C14.4242 12.4686 14.7502 12.5551 15.0762 12.6511C15.5797 12.7951 16.0782 12.9346 16.5767 13.0976L16.7542 13.1551C16.7592 13.0781 16.7592 12.9966 16.7592 12.9151C16.7592 11.9981 16.5052 11.1431 16.0592 10.4176ZM12.6557 8.16512L12.6797 8.35262C12.7467 8.87112 12.7947 9.39512 12.8427 9.91362C12.8617 10.1201 12.8812 10.3221 12.8952 10.5286C12.9047 10.6871 13.0822 10.7686 13.2117 10.6776C13.3747 10.5576 13.5427 10.4376 13.7152 10.3221C14.1467 10.0291 14.5732 9.73613 15.0142 9.45263L15.1772 9.35162C14.4917 8.72712 13.6192 8.29962 12.6557 8.16512ZM12.6557 8.16512L12.6797 8.35262C12.7467 8.87112 12.7947 9.39512 12.8427 9.91362C12.8617 10.1201 12.8812 10.3221 12.8952 10.5286C12.9047 10.6871 13.0822 10.7686 13.2117 10.6776C13.3747 10.5576 13.5427 10.4376 13.7152 10.3221C14.1467 10.0291 14.5732 9.73613 15.0142 9.45263L15.1772 9.35162C14.4917 8.72712 13.6192 8.29962 12.6557 8.16512ZM16.3132 14.5101C15.7907 14.4766 15.2727 14.4286 14.7502 14.3806C14.5247 14.3616 14.3042 14.3376 14.0792 14.3131C13.9352 14.2941 13.8202 14.4381 13.8732 14.5771C13.9547 14.7931 14.0312 15.0096 14.1082 15.2306C14.2762 15.7206 14.4487 16.2151 14.6067 16.7146L14.6592 16.8876C15.4932 16.3161 16.1407 15.4901 16.4807 14.5196L16.3132 14.5101ZM16.0592 10.4176L15.9297 10.5571C15.5702 10.9416 15.2012 11.3111 14.8317 11.6811C14.5967 11.9211 14.3427 12.1516 14.0982 12.3871C14.4242 12.4686 14.7502 12.5551 15.0762 12.6511C15.5797 12.7951 16.0782 12.9346 16.5767 13.0976L16.7542 13.1551C16.7592 13.0781 16.7592 12.9966 16.7592 12.9151C16.7592 11.9981 16.5052 11.1431 16.0592 10.4176ZM16.0592 10.4176L15.9297 10.5571C15.5702 10.9416 15.2012 11.3111 14.8317 11.6811C14.5967 11.9211 14.3427 12.1516 14.0982 12.3871C14.4242 12.4686 14.7502 12.5551 15.0762 12.6511C15.5797 12.7951 16.0782 12.9346 16.5767 13.0976L16.7542 13.1551C16.7592 13.0781 16.7592 12.9966 16.7592 12.9151C16.7592 11.9981 16.5052 11.1431 16.0592 10.4176ZM16.3132 14.5101C15.7907 14.4766 15.2727 14.4286 14.7502 14.3806C14.5247 14.3616 14.3042 14.3376 14.0792 14.3131C13.9352 14.2941 13.8202 14.4381 13.8732 14.5771C13.9547 14.7931 14.0312 15.0096 14.1082 15.2306C14.2762 15.7206 14.4487 16.2151 14.6067 16.7146L14.6592 16.8876C15.4932 16.3161 16.1407 15.4901 16.4807 14.5196L16.3132 14.5101ZM12.6557 8.16512L12.6797 8.35262C12.7467 8.87112 12.7947 9.39512 12.8427 9.91362C12.8617 10.1201 12.8812 10.3221 12.8952 10.5286C12.9047 10.6871 13.0822 10.7686 13.2117 10.6776C13.3747 10.5576 13.5427 10.4376 13.7152 10.3221C14.1467 10.0291 14.5732 9.73613 15.0142 9.45263L15.1772 9.35162C14.4917 8.72712 13.6192 8.29962 12.6557 8.16512ZM12.6557 8.16512L12.6797 8.35262C12.7467 8.87112 12.7947 9.39512 12.8427 9.91362C12.8617 10.1201 12.8812 10.3221 12.8952 10.5286C12.9047 10.6871 13.0822 10.7686 13.2117 10.6776C13.3747 10.5576 13.5427 10.4376 13.7152 10.3221C14.1467 10.0291 14.5732 9.73613 15.0142 9.45263L15.1772 9.35162C14.4917 8.72712 13.6192 8.29962 12.6557 8.16512ZM16.3132 14.5101C15.7907 14.4766 15.2727 14.4286 14.7502 14.3806C14.5247 14.3616 14.3042 14.3376 14.0792 14.3131C13.9352 14.2941 13.8202 14.4381 13.8732 14.5771C13.9547 14.7931 14.0312 15.0096 14.1082 15.2306C14.2762 15.7206 14.4487 16.2151 14.6067 16.7146L14.6592 16.8876C15.4932 16.3161 16.1407 15.4901 16.4807 14.5196L16.3132 14.5101ZM16.0592 10.4176L15.9297 10.5571C15.5702 10.9416 15.2012 11.3111 14.8317 11.6811C14.5967 11.9211 14.3427 12.1516 14.0982 12.3871C14.4242 12.4686 14.7502 12.5551 15.0762 12.6511C15.5797 12.7951 16.0782 12.9346 16.5767 13.0976L16.7542 13.1551C16.7592 13.0781 16.7592 12.9966 16.7592 12.9151C16.7592 11.9981 16.5052 11.1431 16.0592 10.4176ZM16.0592 10.4176L15.9297 10.5571C15.5702 10.9416 15.2012 11.3111 14.8317 11.6811C14.5967 11.9211 14.3427 12.1516 14.0982 12.3871C14.4242 12.4686 14.7502 12.5551 15.0762 12.6511C15.5797 12.7951 16.0782 12.9346 16.5767 13.0976L16.7542 13.1551C16.7592 13.0781 16.7592 12.9966 16.7592 12.9151C16.7592 11.9981 16.5052 11.1431 16.0592 10.4176ZM16.3132 14.5101C15.7907 14.4766 15.2727 14.4286 14.7502 14.3806C14.5247 14.3616 14.3042 14.3376 14.0792 14.3131C13.9352 14.2941 13.8202 14.4381 13.8732 14.5771C13.9547 14.7931 14.0312 15.0096 14.1082 15.2306C14.2762 15.7206 14.4487 16.2151 14.6067 16.7146L14.6592 16.8876C15.4932 16.3161 16.1407 15.4901 16.4807 14.5196L16.3132 14.5101ZM12.6557 8.16512L12.6797 8.35262C12.7467 8.87112 12.7947 9.39512 12.8427 9.91362C12.8617 10.1201 12.8812 10.3221 12.8952 10.5286C12.9047 10.6871 13.0822 10.7686 13.2117 10.6776C13.3747 10.5576 13.5427 10.4376 13.7152 10.3221C14.1467 10.0291 14.5732 9.73613 15.0142 9.45263L15.1772 9.35162C14.4917 8.72712 13.6192 8.29962 12.6557 8.16512ZM13.3027 17.3101C13.0247 16.8681 12.7657 16.4121 12.5067 15.9606C12.3917 15.7636 12.2812 15.5666 12.1757 15.3651C12.0992 15.2256 11.9022 15.2256 11.8257 15.3651C11.7152 15.5716 11.6002 15.7736 11.4807 15.9701C11.2172 16.4216 10.9532 16.8731 10.6752 17.3151L10.5552 17.5071C11.0012 17.6466 11.4757 17.7186 11.9647 17.7186C12.4682 17.7186 12.9572 17.6416 13.4127 17.4926L13.3027 17.3101ZM12.6557 8.16512L12.6797 8.35262C12.7467 8.87112 12.7947 9.39512 12.8427 9.91362C12.8617 10.1201 12.8812 10.3221 12.8952 10.5286C12.9047 10.6871 13.0822 10.7686 13.2117 10.6776C13.3747 10.5576 13.5427 10.4376 13.7152 10.3221C14.1467 10.0291 14.5732 9.73613 15.0142 9.45263L15.1772 9.35162C14.4917 8.72712 13.6192 8.29962 12.6557 8.16512ZM16.3132 14.5101C15.7907 14.4766 15.2727 14.4286 14.7502 14.3806C14.5247 14.3616 14.3042 14.3376 14.0792 14.3131C13.9352 14.2941 13.8202 14.4381 13.8732 14.5771C13.9547 14.7931 14.0312 15.0096 14.1082 15.2306C14.2762 15.7206 14.4487 16.2151 14.6067 16.7146L14.6592 16.8876C15.4932 16.3161 16.1407 15.4901 16.4807 14.5196L16.3132 14.5101ZM16.0592 10.4176L15.9297 10.5571C15.5702 10.9416 15.2012 11.3111 14.8317 11.6811C14.5967 11.9211 14.3427 12.1516 14.0982 12.3871C14.4242 12.4686 14.7502 12.5551 15.0762 12.6511C15.5797 12.7951 16.0782 12.9346 16.5767 13.0976L16.7542 13.1551C16.7592 13.0781 16.7592 12.9966 16.7592 12.9151C16.7592 11.9981 16.5052 11.1431 16.0592 10.4176ZM16.0592 10.4176L15.9297 10.5571C15.5702 10.9416 15.2012 11.3111 14.8317 11.6811C14.5967 11.9211 14.3427 12.1516 14.0982 12.3871C14.4242 12.4686 14.7502 12.5551 15.0762 12.6511C15.5797 12.7951 16.0782 12.9346 16.5767 13.0976L16.7542 13.1551C16.7592 13.0781 16.7592 12.9966 16.7592 12.9151C16.7592 11.9981 16.5052 11.1431 16.0592 10.4176ZM16.3132 14.5101C15.7907 14.4766 15.2727 14.4286 14.7502 14.3806C14.5247 14.3616 14.3042 14.3376 14.0792 14.3131C13.9352 14.2941 13.8202 14.4381 13.8732 14.5771C13.9547 14.7931 14.0312 15.0096 14.1082 15.2306C14.2762 15.7206 14.4487 16.2151 14.6067 16.7146L14.6592 16.8876C15.4932 16.3161 16.1407 15.4901 16.4807 14.5196L16.3132 14.5101ZM12.6557 8.16512L12.6797 8.35262C12.7467 8.87112 12.7947 9.39512 12.8427 9.91362C12.8617 10.1201 12.8812 10.3221 12.8952 10.5286C12.9047 10.6871 13.0822 10.7686 13.2117 10.6776C13.3747 10.5576 13.5427 10.4376 13.7152 10.3221C14.1467 10.0291 14.5732 9.73613 15.0142 9.45263L15.1772 9.35162C14.4917 8.72712 13.6192 8.29962 12.6557 8.16512ZM13.3027 17.3101C13.0247 16.8681 12.7657 16.4121 12.5067 15.9606C12.3917 15.7636 12.2812 15.5666 12.1757 15.3651C12.0992 15.2256 11.9022 15.2256 11.8257 15.3651C11.7152 15.5716 11.6002 15.7736 11.4807 15.9701C11.2172 16.4216 10.9532 16.8731 10.6752 17.3151L10.5552 17.5071C11.0012 17.6466 11.4757 17.7186 11.9647 17.7186C12.4682 17.7186 12.9572 17.6416 13.4127 17.4926L13.3027 17.3101ZM9.93717 14.2461C9.71167 14.2751 9.49117 14.3086 9.26617 14.3326C8.74367 14.3951 8.23067 14.4576 7.70817 14.5056L7.44917 14.5296C7.79917 15.5096 8.46067 16.3451 9.30917 16.9121L9.37617 16.7101C9.53917 16.2106 9.71167 15.7206 9.88917 15.2261C9.97067 14.9861 10.0572 14.7506 10.1482 14.5106C10.2057 14.3706 10.0857 14.2221 9.93717 14.2461ZM13.3027 17.3101C13.0247 16.8681 12.7657 16.4121 12.5067 15.9606C12.3917 15.7636 12.2812 15.5666 12.1757 15.3651C12.0992 15.2256 11.9022 15.2256 11.8257 15.3651C11.7152 15.5716 11.6002 15.7736 11.4807 15.9701C11.2172 16.4216 10.9532 16.8731 10.6752 17.3151L10.5552 17.5071C11.0012 17.6466 11.4757 17.7186 11.9647 17.7186C12.4682 17.7186 12.9572 17.6416 13.4127 17.4926L13.3027 17.3101ZM12.6557 8.16512L12.6797 8.35262C12.7467 8.87112 12.7947 9.39512 12.8427 9.91362C12.8617 10.1201 12.8812 10.3221 12.8952 10.5286C12.9047 10.6871 13.0822 10.7686 13.2117 10.6776C13.3747 10.5576 13.5427 10.4376 13.7152 10.3221C14.1467 10.0291 14.5732 9.73613 15.0142 9.45263L15.1772 9.35162C14.4917 8.72712 13.6192 8.29962 12.6557 8.16512ZM16.3132 14.5101C15.7907 14.4766 15.2727 14.4286 14.7502 14.3806C14.5247 14.3616 14.3042 14.3376 14.0792 14.3131C13.9352 14.2941 13.8202 14.4381 13.8732 14.5771C13.9547 14.7931 14.0312 15.0096 14.1082 15.2306C14.2762 15.7206 14.4487 16.2151 14.6067 16.7146L14.6592 16.8876C15.4932 16.3161 16.1407 15.4901 16.4807 14.5196L16.3132 14.5101ZM16.0592 10.4176L15.9297 10.5571C15.5702 10.9416 15.2012 11.3111 14.8317 11.6811C14.5967 11.9211 14.3427 12.1516 14.0982 12.3871C14.4242 12.4686 14.7502 12.5551 15.0762 12.6511C15.5797 12.7951 16.0782 12.9346 16.5767 13.0976L16.7542 13.1551C16.7592 13.0781 16.7592 12.9966 16.7592 12.9151C16.7592 11.9981 16.5052 11.1431 16.0592 10.4176ZM16.0592 10.4176L15.9297 10.5571C15.5702 10.9416 15.2012 11.3111 14.8317 11.6811C14.5967 11.9211 14.3427 12.1516 14.0982 12.3871C14.4242 12.4686 14.7502 12.5551 15.0762 12.6511C15.5797 12.7951 16.0782 12.9346 16.5767 13.0976L16.7542 13.1551C16.7592 13.0781 16.7592 12.9966 16.7592 12.9151C16.7592 11.9981 16.5052 11.1431 16.0592 10.4176ZM16.3132 14.5101C15.7907 14.4766 15.2727 14.4286 14.7502 14.3806C14.5247 14.3616 14.3042 14.3376 14.0792 14.3131C13.9352 14.2941 13.8202 14.4381 13.8732 14.5771C13.9547 14.7931 14.0312 15.0096 14.1082 15.2306C14.2762 15.7206 14.4487 16.2151 14.6067 16.7146L14.6592 16.8876C15.4932 16.3161 16.1407 15.4901 16.4807 14.5196L16.3132 14.5101ZM12.6557 8.16512L12.6797 8.35262C12.7467 8.87112 12.7947 9.39512 12.8427 9.91362C12.8617 10.1201 12.8812 10.3221 12.8952 10.5286C12.9047 10.6871 13.0822 10.7686 13.2117 10.6776C13.3747 10.5576 13.5427 10.4376 13.7152 10.3221C14.1467 10.0291 14.5732 9.73613 15.0142 9.45263L15.1772 9.35162C14.4917 8.72712 13.6192 8.29962 12.6557 8.16512ZM13.3027 17.3101C13.0247 16.8681 12.7657 16.4121 12.5067 15.9606C12.3917 15.7636 12.2812 15.5666 12.1757 15.3651C12.0992 15.2256 11.9022 15.2256 11.8257 15.3651C11.7152 15.5716 11.6002 15.7736 11.4807 15.9701C11.2172 16.4216 10.9532 16.8731 10.6752 17.3151L10.5552 17.5071C11.0012 17.6466 11.4757 17.7186 11.9647 17.7186C12.4682 17.7186 12.9572 17.6416 13.4127 17.4926L13.3027 17.3101ZM9.93717 14.2461C9.71167 14.2751 9.49117 14.3086 9.26617 14.3326C8.74367 14.3951 8.23067 14.4576 7.70817 14.5056L7.44917 14.5296C7.79917 15.5096 8.46067 16.3451 9.30917 16.9121L9.37617 16.7101C9.53917 16.2106 9.71167 15.7206 9.88917 15.2261C9.97067 14.9861 10.0572 14.7506 10.1482 14.5106C10.2057 14.3706 10.0857 14.2221 9.93717 14.2461ZM9.93717 14.2461C9.71167 14.2751 9.49117 14.3086 9.26617 14.3326C8.74367 14.3951 8.23067 14.4576 7.70817 14.5056L7.44917 14.5296C7.79917 15.5096 8.46067 16.3451 9.30917 16.9121L9.37617 16.7101C9.53917 16.2106 9.71167 15.7206 9.88917 15.2261C9.97067 14.9861 10.0572 14.7506 10.1482 14.5106C10.2057 14.3706 10.0857 14.2221 9.93717 14.2461ZM13.3027 17.3101C13.0247 16.8681 12.7657 16.4121 12.5067 15.9606C12.3917 15.7636 12.2812 15.5666 12.1757 15.3651C12.0992 15.2256 11.9022 15.2256 11.8257 15.3651C11.7152 15.5716 11.6002 15.7736 11.4807 15.9701C11.2172 16.4216 10.9532 16.8731 10.6752 17.3151L10.5552 17.5071C11.0012 17.6466 11.4757 17.7186 11.9647 17.7186C12.4682 17.7186 12.9572 17.6416 13.4127 17.4926L13.3027 17.3101ZM12.6557 8.16512L12.6797 8.35262C12.7467 8.87112 12.7947 9.39512 12.8427 9.91362C12.8617 10.1201 12.8812 10.3221 12.8952 10.5286C12.9047 10.6871 13.0822 10.7686 13.2117 10.6776C13.3747 10.5576 13.5427 10.4376 13.7152 10.3221C14.1467 10.0291 14.5732 9.73613 15.0142 9.45263L15.1772 9.35162C14.4917 8.72712 13.6192 8.29962 12.6557 8.16512ZM16.3132 14.5101C15.7907 14.4766 15.2727 14.4286 14.7502 14.3806C14.5247 14.3616 14.3042 14.3376 14.0792 14.3131C13.9352 14.2941 13.8202 14.4381 13.8732 14.5771C13.9547 14.7931 14.0312 15.0096 14.1082 15.2306C14.2762 15.7206 14.4487 16.2151 14.6067 16.7146L14.6592 16.8876C15.4932 16.3161 16.1407 15.4901 16.4807 14.5196L16.3132 14.5101ZM16.0592 10.4176L15.9297 10.5571C15.5702 10.9416 15.2012 11.3111 14.8317 11.6811C14.5967 11.9211 14.3427 12.1516 14.0982 12.3871C14.4242 12.4686 14.7502 12.5551 15.0762 12.6511C15.5797 12.7951 16.0782 12.9346 16.5767 13.0976L16.7542 13.1551C16.7592 13.0781 16.7592 12.9966 16.7592 12.9151C16.7592 11.9981 16.5052 11.1431 16.0592 10.4176ZM16.0592 10.4176L15.9297 10.5571C15.5702 10.9416 15.2012 11.3111 14.8317 11.6811C14.5967 11.9211 14.3427 12.1516 14.0982 12.3871C14.4242 12.4686 14.7502 12.5551 15.0762 12.6511C15.5797 12.7951 16.0782 12.9346 16.5767 13.0976L16.7542 13.1551C16.7592 13.0781 16.7592 12.9966 16.7592 12.9151C16.7592 11.9981 16.5052 11.1431 16.0592 10.4176ZM16.3132 14.5101C15.7907 14.4766 15.2727 14.4286 14.7502 14.3806C14.5247 14.3616 14.3042 14.3376 14.0792 14.3131C13.9352 14.2941 13.8202 14.4381 13.8732 14.5771C13.9547 14.7931 14.0312 15.0096 14.1082 15.2306C14.2762 15.7206 14.4487 16.2151 14.6067 16.7146L14.6592 16.8876C15.4932 16.3161 16.1407 15.4901 16.4807 14.5196L16.3132 14.5101ZM12.6557 8.16512L12.6797 8.35262C12.7467 8.87112 12.7947 9.39512 12.8427 9.91362C12.8617 10.1201 12.8812 10.3221 12.8952 10.5286C12.9047 10.6871 13.0822 10.7686 13.2117 10.6776C13.3747 10.5576 13.5427 10.4376 13.7152 10.3221C14.1467 10.0291 14.5732 9.73613 15.0142 9.45263L15.1772 9.35162C14.4917 8.72712 13.6192 8.29962 12.6557 8.16512ZM13.3027 17.3101C13.0247 16.8681 12.7657 16.4121 12.5067 15.9606C12.3917 15.7636 12.2812 15.5666 12.1757 15.3651C12.0992 15.2256 11.9022 15.2256 11.8257 15.3651C11.7152 15.5716 11.6002 15.7736 11.4807 15.9701C11.2172 16.4216 10.9532 16.8731 10.6752 17.3151L10.5552 17.5071C11.0012 17.6466 11.4757 17.7186 11.9647 17.7186C12.4682 17.7186 12.9572 17.6416 13.4127 17.4926L13.3027 17.3101ZM9.93717 14.2461C9.71167 14.2751 9.49117 14.3086 9.26617 14.3326C8.74367 14.3951 8.23067 14.4576 7.70817 14.5056L7.44917 14.5296C7.79917 15.5096 8.46067 16.3451 9.30917 16.9121L9.37617 16.7101C9.53917 16.2106 9.71167 15.7206 9.88917 15.2261C9.97067 14.9861 10.0572 14.7506 10.1482 14.5106C10.2057 14.3706 10.0857 14.2221 9.93717 14.2461ZM9.66867 12.0556C9.50567 11.9066 9.34767 11.7576 9.18917 11.5991C8.81517 11.2291 8.44617 10.8641 8.08167 10.4846L7.92817 10.3261C7.44867 11.0706 7.17067 11.9591 7.17067 12.9151C7.17067 13.0066 7.17567 13.0926 7.17567 13.1791L7.40117 13.1021C7.89517 12.9246 8.39367 12.7706 8.88717 12.6076C9.12217 12.5306 9.35717 12.4636 9.59167 12.3916C9.74067 12.3486 9.78367 12.1611 9.66867 12.0556ZM9.93717 14.2461C9.71167 14.2751 9.49117 14.3086 9.26617 14.3326C8.74367 14.3951 8.23067 14.4576 7.70817 14.5056L7.44917 14.5296C7.79917 15.5096 8.46067 16.3451 9.30917 16.9121L9.37617 16.7101C9.53917 16.2106 9.71167 15.7206 9.88917 15.2261C9.97067 14.9861 10.0572 14.7506 10.1482 14.5106C10.2057 14.3706 10.0857 14.2221 9.93717 14.2461ZM13.3027 17.3101C13.0247 16.8681 12.7657 16.4121 12.5067 15.9606C12.3917 15.7636 12.2812 15.5666 12.1757 15.3651C12.0992 15.2256 11.9022 15.2256 11.8257 15.3651C11.7152 15.5716 11.6002 15.7736 11.4807 15.9701C11.2172 16.4216 10.9532 16.8731 10.6752 17.3151L10.5552 17.5071C11.0012 17.6466 11.4757 17.7186 11.9647 17.7186C12.4682 17.7186 12.9572 17.6416 13.4127 17.4926L13.3027 17.3101ZM12.6557 8.16512L12.6797 8.35262C12.7467 8.87112 12.7947 9.39512 12.8427 9.91362C12.8617 10.1201 12.8812 10.3221 12.8952 10.5286C12.9047 10.6871 13.0822 10.7686 13.2117 10.6776C13.3747 10.5576 13.5427 10.4376 13.7152 10.3221C14.1467 10.0291 14.5732 9.73613 15.0142 9.45263L15.1772 9.35162C14.4917 8.72712 13.6192 8.29962 12.6557 8.16512ZM16.3132 14.5101C15.7907 14.4766 15.2727 14.4286 14.7502 14.3806C14.5247 14.3616 14.3042 14.3376 14.0792 14.3131C13.9352 14.2941 13.8202 14.4381 13.8732 14.5771C13.9547 14.7931 14.0312 15.0096 14.1082 15.2306C14.2762 15.7206 14.4487 16.2151 14.6067 16.7146L14.6592 16.8876C15.4932 16.3161 16.1407 15.4901 16.4807 14.5196L16.3132 14.5101ZM16.0592 10.4176L15.9297 10.5571C15.5702 10.9416 15.2012 11.3111 14.8317 11.6811C14.5967 11.9211 14.3427 12.1516 14.0982 12.3871C14.4242 12.4686 14.7502 12.5551 15.0762 12.6511C15.5797 12.7951 16.0782 12.9346 16.5767 13.0976L16.7542 13.1551C16.7592 13.0781 16.7592 12.9966 16.7592 12.9151C16.7592 11.9981 16.5052 11.1431 16.0592 10.4176ZM16.0592 10.4176L15.9297 10.5571C15.5702 10.9416 15.2012 11.3111 14.8317 11.6811C14.5967 11.9211 14.3427 12.1516 14.0982 12.3871C14.4242 12.4686 14.7502 12.5551 15.0762 12.6511C15.5797 12.7951 16.0782 12.9346 16.5767 13.0976L16.7542 13.1551C16.7592 13.0781 16.7592 12.9966 16.7592 12.9151C16.7592 11.9981 16.5052 11.1431 16.0592 10.4176ZM14.7502 14.3806C14.5247 14.3616 14.3042 14.3376 14.0792 14.3131C13.9352 14.2941 13.8202 14.4381 13.8732 14.5771C13.9547 14.7931 14.0312 15.0096 14.1082 15.2306C14.2762 15.7206 14.4487 16.2151 14.6067 16.7146L14.6592 16.8876C15.4932 16.3161 16.1407 15.4901 16.4807 14.5196L16.3127 14.5101C15.7907 14.4766 15.2732 14.4286 14.7502 14.3806ZM15.1772 9.35162C14.4917 8.72712 13.6192 8.29962 12.6557 8.16512L12.6797 8.35262C12.7467 8.87112 12.7947 9.39512 12.8427 9.91362C12.8617 10.1201 12.8812 10.3221 12.8952 10.5286C12.9047 10.6871 13.0822 10.7686 13.2117 10.6776C13.3747 10.5576 13.5427 10.4376 13.7152 10.3221C14.1467 10.0291 14.5732 9.73613 15.0142 9.45263L15.1772 9.35162ZM12.5067 15.9606C12.3917 15.7636 12.2812 15.5666 12.1757 15.3651C12.0992 15.2256 11.9022 15.2256 11.8257 15.3651C11.7152 15.5716 11.6002 15.7736 11.4807 15.9701C11.2172 16.4216 10.9532 16.8731 10.6752 17.3151L10.5552 17.5071C11.0012 17.6466 11.4757 17.7186 11.9647 17.7186C12.4682 17.7186 12.9572 17.6416 13.4127 17.4926L13.3022 17.3101C13.0247 16.8686 12.7657 16.4121 12.5067 15.9606ZM9.93717 14.2461C9.71167 14.2751 9.49117 14.3086 9.26617 14.3326C8.74367 14.3951 8.23067 14.4576 7.70817 14.5056L7.44917 14.5296C7.79917 15.5096 8.46067 16.3451 9.30917 16.9121L9.37617 16.7101C9.53917 16.2106 9.71167 15.7206 9.88917 15.2261C9.97067 14.9861 10.0572 14.7506 10.1482 14.5106C10.2057 14.3706 10.0857 14.2221 9.93717 14.2461ZM9.59217 12.3916C9.74067 12.3486 9.78417 12.1611 9.66867 12.0556C9.50567 11.9066 9.34767 11.7576 9.18917 11.5991C8.81517 11.2291 8.44617 10.8641 8.08167 10.4846L7.92817 10.3261C7.44867 11.0706 7.17067 11.9591 7.17067 12.9151C7.17067 13.0066 7.17567 13.0926 7.17567 13.1791L7.40117 13.1021C7.89517 12.9246 8.39367 12.7706 8.88717 12.6076C9.12217 12.5311 9.35717 12.4641 9.59217 12.3916ZM22.3827 14.5871L20.5512 6.52712C20.4697 6.16712 20.2302 5.86913 19.8992 5.70563L12.4877 2.12262C12.1567 1.95912 11.7732 1.95912 11.4427 2.12262L4.03117 5.70563C3.70017 5.86913 3.46067 6.16663 3.37917 6.52712L1.54767 14.5871C1.46617 14.9471 1.55267 15.3221 1.77767 15.6056L6.90717 22.0706C7.13717 22.3586 7.48717 22.5271 7.85167 22.5271H16.0782C16.4427 22.5271 16.7927 22.3591 17.0227 22.0706L22.1522 15.6056C22.3777 15.3216 22.4642 14.9471 22.3827 14.5871ZM19.8227 14.9231C19.6787 14.9566 19.5352 14.9231 19.4202 14.8511C19.1852 14.6926 18.9362 14.6061 18.6867 14.5341C18.5622 14.5006 18.4327 14.4716 18.3082 14.4526C18.1837 14.4141 18.0397 14.4526 17.8957 14.5196C17.7517 14.6011 17.6222 14.5871 17.4882 14.5771H17.4737C17.0612 15.9461 16.1552 17.1036 14.9567 17.8386V17.8436C14.9952 17.9686 15.0382 18.0886 14.9997 18.2521C14.9662 18.4106 14.9612 18.5546 15.0287 18.6701C15.0812 18.7856 15.1392 18.9056 15.2012 19.0161C15.3307 19.2416 15.4747 19.4676 15.6852 19.6551C15.8962 19.8521 15.9107 20.1786 15.7187 20.3946C15.5222 20.6061 15.1962 20.6201 14.9802 20.4281C14.8697 20.3271 14.8122 20.1926 14.8122 20.0536C14.8027 19.7701 14.7307 19.5206 14.6442 19.2706C14.6012 19.1506 14.5532 19.0306 14.4957 18.9106C14.4527 18.7856 14.3377 18.6991 14.1982 18.6176C14.0642 18.5456 13.9967 18.4446 13.9297 18.3341C13.3162 18.5601 12.6547 18.6801 11.9642 18.6801C11.2837 18.6801 10.6317 18.5601 10.0272 18.3441C9.96967 18.4496 9.90267 18.5456 9.76817 18.6181C9.62917 18.6951 9.51417 18.7861 9.47117 18.9111C9.41367 19.0266 9.36067 19.1466 9.31767 19.2666C9.23117 19.5166 9.15467 19.7661 9.14967 20.0496C9.14017 20.3376 8.89567 20.5636 8.60817 20.5541C8.32067 20.5446 8.09517 20.3046 8.10467 20.0161C8.10967 19.8671 8.17667 19.7376 8.27717 19.6461C8.48817 19.4541 8.63217 19.2331 8.76617 19.0121C8.82867 18.8966 8.88617 18.7816 8.93867 18.6616C9.00567 18.5511 9.00117 18.4021 8.97217 18.2436C8.93867 18.0946 8.97217 17.9746 9.01067 17.8641C7.80717 17.1386 6.88667 15.9861 6.46517 14.6171C6.35467 14.6266 6.24967 14.6266 6.12467 14.5641C5.97617 14.5016 5.83717 14.4631 5.71217 14.5066C5.58267 14.5306 5.45817 14.5641 5.33367 14.6026C5.08417 14.6841 4.83967 14.7756 4.60967 14.9386C4.37467 15.1066 4.04867 15.0491 3.88117 14.8136C3.71817 14.5781 3.77067 14.2516 4.00567 14.0881C4.12567 14.0016 4.27417 13.9726 4.40817 13.9966C4.68167 14.0541 4.94517 14.0351 5.20417 14.0016C5.33367 13.9871 5.46317 13.9631 5.58767 13.9296C5.71717 13.9201 5.83217 13.8241 5.93767 13.7041C6.02867 13.5986 6.13417 13.5551 6.23967 13.5166C6.22067 13.3196 6.21067 13.1181 6.21067 12.9161C6.21067 11.6866 6.59417 10.5481 7.25117 9.61162C7.16467 9.52512 7.08317 9.43862 7.04967 9.28512C7.00667 9.13162 6.94917 8.99713 6.83867 8.92513C6.73817 8.83862 6.63717 8.76162 6.53167 8.68962C6.31117 8.54562 6.08567 8.41113 5.81717 8.32963C5.53917 8.25262 5.37617 7.95962 5.45767 7.68612C5.53917 7.40762 5.82667 7.24913 6.10467 7.32613C6.24367 7.36913 6.35867 7.46562 6.42117 7.58562C6.55067 7.83562 6.72817 8.03212 6.91517 8.21462C7.00617 8.30612 7.10717 8.39212 7.20767 8.46912C7.29867 8.56512 7.44267 8.59413 7.60067 8.60363C7.76867 8.60863 7.87367 8.68062 7.98417 8.75262L7.98917 8.75762C8.89067 7.88362 10.0792 7.30713 11.3977 7.18213C11.4122 7.05263 11.4217 6.92263 11.5222 6.79313C11.6182 6.66363 11.6852 6.53362 11.6707 6.40412C11.6757 6.27462 11.6707 6.14463 11.6612 6.01013C11.6322 5.75063 11.5942 5.49113 11.4837 5.23213C11.3687 4.96813 11.4932 4.66063 11.7572 4.54513C12.0207 4.43463 12.3277 4.55463 12.4427 4.81912C12.5002 4.95862 12.4952 5.10713 12.4427 5.23213C12.3322 5.49163 12.2942 5.75063 12.2652 6.01013C12.2557 6.14463 12.2507 6.27412 12.2557 6.40412C12.2412 6.53362 12.3082 6.66363 12.4042 6.79313C12.5047 6.92263 12.5147 7.05263 12.5287 7.18213C13.8807 7.31163 15.0982 7.91213 16.0092 8.82463C16.1197 8.75262 16.2247 8.67562 16.3927 8.67112C16.5507 8.66162 16.6947 8.63263 16.7857 8.53662C16.8862 8.45512 16.9822 8.36862 17.0782 8.27712C17.2602 8.09462 17.4377 7.89762 17.5672 7.64812C17.6967 7.38862 18.0132 7.28813 18.2672 7.42263C18.5262 7.55212 18.6267 7.86912 18.4927 8.12413C18.4257 8.25863 18.3107 8.35012 18.1762 8.38812C17.9077 8.46513 17.6822 8.60413 17.4667 8.74813C17.3612 8.82513 17.2557 8.90162 17.1597 8.98812C17.0492 9.06012 16.9917 9.19462 16.9487 9.34812C16.9152 9.51162 16.8242 9.60262 16.7332 9.69862C17.3562 10.6161 17.7162 11.7256 17.7162 12.9166C17.7162 13.0991 17.7067 13.2816 17.6922 13.4596H17.6972C17.8217 13.4981 17.9467 13.5316 18.0567 13.6611C18.1672 13.7766 18.2822 13.8626 18.4117 13.8726C18.5412 13.9016 18.6657 13.9206 18.7952 13.9351C19.0587 13.9591 19.3177 13.9686 19.5957 13.9061C19.8787 13.8436 20.1567 14.0216 20.2187 14.3046C20.2827 14.5821 20.1052 14.8606 19.8227 14.9231ZM15.9297 10.5571C15.5702 10.9416 15.2012 11.3111 14.8317 11.6811C14.5967 11.9211 14.3427 12.1516 14.0982 12.3871C14.4242 12.4686 14.7502 12.5551 15.0762 12.6511C15.5797 12.7951 16.0782 12.9346 16.5767 13.0976L16.7542 13.1551C16.7592 13.0781 16.7592 12.9966 16.7592 12.9151C16.7592 11.9976 16.5052 11.1426 16.0592 10.4176L15.9297 10.5571ZM14.7502 14.3806C14.5247 14.3616 14.3042 14.3376 14.0792 14.3131C13.9352 14.2941 13.8202 14.4381 13.8732 14.5771C13.9547 14.7931 14.0312 15.0096 14.1082 15.2306C14.2762 15.7206 14.4487 16.2151 14.6067 16.7146L14.6592 16.8876C15.4932 16.3161 16.1407 15.4901 16.4807 14.5196L16.3127 14.5101C15.7907 14.4766 15.2732 14.4286 14.7502 14.3806ZM15.1772 9.35162C14.4917 8.72712 13.6192 8.29962 12.6557 8.16512L12.6797 8.35262C12.7467 8.87112 12.7947 9.39512 12.8427 9.91362C12.8617 10.1201 12.8812 10.3221 12.8952 10.5286C12.9047 10.6871 13.0822 10.7686 13.2117 10.6776C13.3747 10.5576 13.5427 10.4376 13.7152 10.3221C14.1467 10.0291 14.5732 9.73613 15.0142 9.45263L15.1772 9.35162ZM12.5067 15.9606C12.3917 15.7636 12.2812 15.5666 12.1757 15.3651C12.0992 15.2256 11.9022 15.2256 11.8257 15.3651C11.7152 15.5716 11.6002 15.7736 11.4807 15.9701C11.2172 16.4216 10.9532 16.8731 10.6752 17.3151L10.5552 17.5071C11.0012 17.6466 11.4757 17.7186 11.9647 17.7186C12.4682 17.7186 12.9572 17.6416 13.4127 17.4926L13.3022 17.3101C13.0247 16.8686 12.7657 16.4121 12.5067 15.9606ZM11.0877 9.91362C11.1357 9.39462 11.1837 8.87112 11.2507 8.35262L11.2747 8.16512C10.3497 8.29462 9.51067 8.69362 8.83917 9.27962L8.98767 9.37113C9.43367 9.64963 9.86517 9.94263 10.2967 10.2356C10.5462 10.3941 10.7807 10.5716 11.0157 10.7401C11.0352 10.4656 11.0592 10.1871 11.0877 9.91362ZM9.93717 14.2461C9.71167 14.2751 9.49117 14.3086 9.26617 14.3326C8.74367 14.3951 8.23067 14.4576 7.70817 14.5056L7.44917 14.5296C7.79917 15.5096 8.46067 16.3451 9.30917 16.9121L9.37617 16.7101C9.53917 16.2106 9.71167 15.7206 9.88917 15.2261C9.97067 14.9861 10.0572 14.7506 10.1482 14.5106C10.2057 14.3706 10.0857 14.2221 9.93717 14.2461ZM9.59217 12.3916C9.74067 12.3486 9.78417 12.1611 9.66867 12.0556C9.50567 11.9066 9.34767 11.7576 9.18917 11.5991C8.81517 11.2291 8.44617 10.8641 8.08167 10.4846L7.92817 10.3261C7.44867 11.0706 7.17067 11.9591 7.17067 12.9151C7.17067 13.0066 7.17567 13.0926 7.17567 13.1791L7.40117 13.1021C7.89517 12.9246 8.39367 12.7706 8.88717 12.6076C9.12217 12.5311 9.35717 12.4641 9.59217 12.3916ZM9.66867 12.0556C9.50567 11.9066 9.34767 11.7576 9.18917 11.5991C8.81517 11.2291 8.44617 10.8641 8.08167 10.4846L7.92817 10.3261C7.44867 11.0706 7.17067 11.9591 7.17067 12.9151C7.17067 13.0066 7.17567 13.0926 7.17567 13.1791L7.40117 13.1021C7.89517 12.9246 8.39367 12.7706 8.88717 12.6076C9.12217 12.5306 9.35717 12.4636 9.59167 12.3916C9.74067 12.3486 9.78367 12.1611 9.66867 12.0556ZM9.93717 14.2461C9.71167 14.2751 9.49117 14.3086 9.26617 14.3326C8.74367 14.3951 8.23067 14.4576 7.70817 14.5056L7.44917 14.5296C7.79917 15.5096 8.46067 16.3451 9.30917 16.9121L9.37617 16.7101C9.53917 16.2106 9.71167 15.7206 9.88917 15.2261C9.97067 14.9861 10.0572 14.7506 10.1482 14.5106C10.2057 14.3706 10.0857 14.2221 9.93717 14.2461ZM13.3027 17.3101C13.0247 16.8681 12.7657 16.4121 12.5067 15.9606C12.3917 15.7636 12.2812 15.5666 12.1757 15.3651C12.0992 15.2256 11.9022 15.2256 11.8257 15.3651C11.7152 15.5716 11.6002 15.7736 11.4807 15.9701C11.2172 16.4216 10.9532 16.8731 10.6752 17.3151L10.5552 17.5071C11.0012 17.6466 11.4757 17.7186 11.9647 17.7186C12.4682 17.7186 12.9572 17.6416 13.4127 17.4926L13.3027 17.3101ZM12.6557 8.16512L12.6797 8.35262C12.7467 8.87112 12.7947 9.39512 12.8427 9.91362C12.8617 10.1201 12.8812 10.3221 12.8952 10.5286C12.9047 10.6871 13.0822 10.7686 13.2117 10.6776C13.3747 10.5576 13.5427 10.4376 13.7152 10.3221C14.1467 10.0291 14.5732 9.73613 15.0142 9.45263L15.1772 9.35162C14.4917 8.72712 13.6192 8.29962 12.6557 8.16512ZM16.3132 14.5101C15.7907 14.4766 15.2727 14.4286 14.7502 14.3806C14.5247 14.3616 14.3042 14.3376 14.0792 14.3131C13.9352 14.2941 13.8202 14.4381 13.8732 14.5771C13.9547 14.7931 14.0312 15.0096 14.1082 15.2306C14.2762 15.7206 14.4487 16.2151 14.6067 16.7146L14.6592 16.8876C15.4932 16.3161 16.1407 15.4901 16.4807 14.5196L16.3132 14.5101ZM16.0592 10.4176L15.9297 10.5571C15.5702 10.9416 15.2012 11.3111 14.8317 11.6811C14.5967 11.9211 14.3427 12.1516 14.0982 12.3871C14.4242 12.4686 14.7502 12.5551 15.0762 12.6511C15.5797 12.7951 16.0782 12.9346 16.5767 13.0976L16.7542 13.1551C16.7592 13.0781 16.7592 12.9966 16.7592 12.9151C16.7592 11.9981 16.5052 11.1431 16.0592 10.4176ZM16.0592 10.4176L15.9297 10.5571C15.5702 10.9416 15.2012 11.3111 14.8317 11.6811C14.5967 11.9211 14.3427 12.1516 14.0982 12.3871C14.4242 12.4686 14.7502 12.5551 15.0762 12.6511C15.5797 12.7951 16.0782 12.9346 16.5767 13.0976L16.7542 13.1551C16.7592 13.0781 16.7592 12.9966 16.7592 12.9151C16.7592 11.9981 16.5052 11.1431 16.0592 10.4176ZM16.3132 14.5101C15.7907 14.4766 15.2727 14.4286 14.7502 14.3806C14.5247 14.3616 14.3042 14.3376 14.0792 14.3131C13.9352 14.2941 13.8202 14.4381 13.8732 14.5771C13.9547 14.7931 14.0312 15.0096 14.1082 15.2306C14.2762 15.7206 14.4487 16.2151 14.6067 16.7146L14.6592 16.8876C15.4932 16.3161 16.1407 15.4901 16.4807 14.5196L16.3132 14.5101ZM12.6557 8.16512L12.6797 8.35262C12.7467 8.87112 12.7947 9.39512 12.8427 9.91362C12.8617 10.1201 12.8812 10.3221 12.8952 10.5286C12.9047 10.6871 13.0822 10.7686 13.2117 10.6776C13.3747 10.5576 13.5427 10.4376 13.7152 10.3221C14.1467 10.0291 14.5732 9.73613 15.0142 9.45263L15.1772 9.35162C14.4917 8.72712 13.6192 8.29962 12.6557 8.16512ZM13.3027 17.3101C13.0247 16.8681 12.7657 16.4121 12.5067 15.9606C12.3917 15.7636 12.2812 15.5666 12.1757 15.3651C12.0992 15.2256 11.9022 15.2256 11.8257 15.3651C11.7152 15.5716 11.6002 15.7736 11.4807 15.9701C11.2172 16.4216 10.9532 16.8731 10.6752 17.3151L10.5552 17.5071C11.0012 17.6466 11.4757 17.7186 11.9647 17.7186C12.4682 17.7186 12.9572 17.6416 13.4127 17.4926L13.3027 17.3101ZM9.93717 14.2461C9.71167 14.2751 9.49117 14.3086 9.26617 14.3326C8.74367 14.3951 8.23067 14.4576 7.70817 14.5056L7.44917 14.5296C7.79917 15.5096 8.46067 16.3451 9.30917 16.9121L9.37617 16.7101C9.53917 16.2106 9.71167 15.7206 9.88917 15.2261C9.97067 14.9861 10.0572 14.7506 10.1482 14.5106C10.2057 14.3706 10.0857 14.2221 9.93717 14.2461ZM9.66867 12.0556C9.50567 11.9066 9.34767 11.7576 9.18917 11.5991C8.81517 11.2291 8.44617 10.8641 8.08167 10.4846L7.92817 10.3261C7.44867 11.0706 7.17067 11.9591 7.17067 12.9151C7.17067 13.0066 7.17567 13.0926 7.17567 13.1791L7.40117 13.1021C7.89517 12.9246 8.39367 12.7706 8.88717 12.6076C9.12217 12.5306 9.35717 12.4636 9.59167 12.3916C9.74067 12.3486 9.78367 12.1611 9.66867 12.0556ZM9.93717 14.2461C9.71167 14.2751 9.49117 14.3086 9.26617 14.3326C8.74367 14.3951 8.23067 14.4576 7.70817 14.5056L7.44917 14.5296C7.79917 15.5096 8.46067 16.3451 9.30917 16.9121L9.37617 16.7101C9.53917 16.2106 9.71167 15.7206 9.88917 15.2261C9.97067 14.9861 10.0572 14.7506 10.1482 14.5106C10.2057 14.3706 10.0857 14.2221 9.93717 14.2461ZM13.3027 17.3101C13.0247 16.8681 12.7657 16.4121 12.5067 15.9606C12.3917 15.7636 12.2812 15.5666 12.1757 15.3651C12.0992 15.2256 11.9022 15.2256 11.8257 15.3651C11.7152 15.5716 11.6002 15.7736 11.4807 15.9701C11.2172 16.4216 10.9532 16.8731 10.6752 17.3151L10.5552 17.5071C11.0012 17.6466 11.4757 17.7186 11.9647 17.7186C12.4682 17.7186 12.9572 17.6416 13.4127 17.4926L13.3027 17.3101ZM12.6557 8.16512L12.6797 8.35262C12.7467 8.87112 12.7947 9.39512 12.8427 9.91362C12.8617 10.1201 12.8812 10.3221 12.8952 10.5286C12.9047 10.6871 13.0822 10.7686 13.2117 10.6776C13.3747 10.5576 13.5427 10.4376 13.7152 10.3221C14.1467 10.0291 14.5732 9.73613 15.0142 9.45263L15.1772 9.35162C14.4917 8.72712 13.6192 8.29962 12.6557 8.16512ZM16.3132 14.5101C15.7907 14.4766 15.2727 14.4286 14.7502 14.3806C14.5247 14.3616 14.3042 14.3376 14.0792 14.3131C13.9352 14.2941 13.8202 14.4381 13.8732 14.5771C13.9547 14.7931 14.0312 15.0096 14.1082 15.2306C14.2762 15.7206 14.4487 16.2151 14.6067 16.7146L14.6592 16.8876C15.4932 16.3161 16.1407 15.4901 16.4807 14.5196L16.3132 14.5101ZM16.0592 10.4176L15.9297 10.5571C15.5702 10.9416 15.2012 11.3111 14.8317 11.6811C14.5967 11.9211 14.3427 12.1516 14.0982 12.3871C14.4242 12.4686 14.7502 12.5551 15.0762 12.6511C15.5797 12.7951 16.0782 12.9346 16.5767 13.0976L16.7542 13.1551C16.7592 13.0781 16.7592 12.9966 16.7592 12.9151C16.7592 11.9981 16.5052 11.1431 16.0592 10.4176ZM16.0592 10.4176L15.9297 10.5571C15.5702 10.9416 15.2012 11.3111 14.8317 11.6811C14.5967 11.9211 14.3427 12.1516 14.0982 12.3871C14.4242 12.4686 14.7502 12.5551 15.0762 12.6511C15.5797 12.7951 16.0782 12.9346 16.5767 13.0976L16.7542 13.1551C16.7592 13.0781 16.7592 12.9966 16.7592 12.9151C16.7592 11.9981 16.5052 11.1431 16.0592 10.4176ZM16.3132 14.5101C15.7907 14.4766 15.2727 14.4286 14.7502 14.3806C14.5247 14.3616 14.3042 14.3376 14.0792 14.3131C13.9352 14.2941 13.8202 14.4381 13.8732 14.5771C13.9547 14.7931 14.0312 15.0096 14.1082 15.2306C14.2762 15.7206 14.4487 16.2151 14.6067 16.7146L14.6592 16.8876C15.4932 16.3161 16.1407 15.4901 16.4807 14.5196L16.3132 14.5101ZM12.6557 8.16512L12.6797 8.35262C12.7467 8.87112 12.7947 9.39512 12.8427 9.91362C12.8617 10.1201 12.8812 10.3221 12.8952 10.5286C12.9047 10.6871 13.0822 10.7686 13.2117 10.6776C13.3747 10.5576 13.5427 10.4376 13.7152 10.3221C14.1467 10.0291 14.5732 9.73613 15.0142 9.45263L15.1772 9.35162C14.4917 8.72712 13.6192 8.29962 12.6557 8.16512ZM13.3027 17.3101C13.0247 16.8681 12.7657 16.4121 12.5067 15.9606C12.3917 15.7636 12.2812 15.5666 12.1757 15.3651C12.0992 15.2256 11.9022 15.2256 11.8257 15.3651C11.7152 15.5716 11.6002 15.7736 11.4807 15.9701C11.2172 16.4216 10.9532 16.8731 10.6752 17.3151L10.5552 17.5071C11.0012 17.6466 11.4757 17.7186 11.9647 17.7186C12.4682 17.7186 12.9572 17.6416 13.4127 17.4926L13.3027 17.3101ZM9.93717 14.2461C9.71167 14.2751 9.49117 14.3086 9.26617 14.3326C8.74367 14.3951 8.23067 14.4576 7.70817 14.5056L7.44917 14.5296C7.79917 15.5096 8.46067 16.3451 9.30917 16.9121L9.37617 16.7101C9.53917 16.2106 9.71167 15.7206 9.88917 15.2261C9.97067 14.9861 10.0572 14.7506 10.1482 14.5106C10.2057 14.3706 10.0857 14.2221 9.93717 14.2461ZM13.3027 17.3101C13.0247 16.8681 12.7657 16.4121 12.5067 15.9606C12.3917 15.7636 12.2812 15.5666 12.1757 15.3651C12.0992 15.2256 11.9022 15.2256 11.8257 15.3651C11.7152 15.5716 11.6002 15.7736 11.4807 15.9701C11.2172 16.4216 10.9532 16.8731 10.6752 17.3151L10.5552 17.5071C11.0012 17.6466 11.4757 17.7186 11.9647 17.7186C12.4682 17.7186 12.9572 17.6416 13.4127 17.4926L13.3027 17.3101ZM12.6557 8.16512L12.6797 8.35262C12.7467 8.87112 12.7947 9.39512 12.8427 9.91362C12.8617 10.1201 12.8812 10.3221 12.8952 10.5286C12.9047 10.6871 13.0822 10.7686 13.2117 10.6776C13.3747 10.5576 13.5427 10.4376 13.7152 10.3221C14.1467 10.0291 14.5732 9.73613 15.0142 9.45263L15.1772 9.35162C14.4917 8.72712 13.6192 8.29962 12.6557 8.16512ZM16.3132 14.5101C15.7907 14.4766 15.2727 14.4286 14.7502 14.3806C14.5247 14.3616 14.3042 14.3376 14.0792 14.3131C13.9352 14.2941 13.8202 14.4381 13.8732 14.5771C13.9547 14.7931 14.0312 15.0096 14.1082 15.2306C14.2762 15.7206 14.4487 16.2151 14.6067 16.7146L14.6592 16.8876C15.4932 16.3161 16.1407 15.4901 16.4807 14.5196L16.3132 14.5101ZM16.0592 10.4176L15.9297 10.5571C15.5702 10.9416 15.2012 11.3111 14.8317 11.6811C14.5967 11.9211 14.3427 12.1516 14.0982 12.3871C14.4242 12.4686 14.7502 12.5551 15.0762 12.6511C15.5797 12.7951 16.0782 12.9346 16.5767 13.0976L16.7542 13.1551C16.7592 13.0781 16.7592 12.9966 16.7592 12.9151C16.7592 11.9981 16.5052 11.1431 16.0592 10.4176ZM16.0592 10.4176L15.9297 10.5571C15.5702 10.9416 15.2012 11.3111 14.8317 11.6811C14.5967 11.9211 14.3427 12.1516 14.0982 12.3871C14.4242 12.4686 14.7502 12.5551 15.0762 12.6511C15.5797 12.7951 16.0782 12.9346 16.5767 13.0976L16.7542 13.1551C16.7592 13.0781 16.7592 12.9966 16.7592 12.9151C16.7592 11.9981 16.5052 11.1431 16.0592 10.4176ZM16.3132 14.5101C15.7907 14.4766 15.2727 14.4286 14.7502 14.3806C14.5247 14.3616 14.3042 14.3376 14.0792 14.3131C13.9352 14.2941 13.8202 14.4381 13.8732 14.5771C13.9547 14.7931 14.0312 15.0096 14.1082 15.2306C14.2762 15.7206 14.4487 16.2151 14.6067 16.7146L14.6592 16.8876C15.4932 16.3161 16.1407 15.4901 16.4807 14.5196L16.3132 14.5101ZM12.6557 8.16512L12.6797 8.35262C12.7467 8.87112 12.7947 9.39512 12.8427 9.91362C12.8617 10.1201 12.8812 10.3221 12.8952 10.5286C12.9047 10.6871 13.0822 10.7686 13.2117 10.6776C13.3747 10.5576 13.5427 10.4376 13.7152 10.3221C14.1467 10.0291 14.5732 9.73613 15.0142 9.45263L15.1772 9.35162C14.4917 8.72712 13.6192 8.29962 12.6557 8.16512ZM13.3027 17.3101C13.0247 16.8681 12.7657 16.4121 12.5067 15.9606C12.3917 15.7636 12.2812 15.5666 12.1757 15.3651C12.0992 15.2256 11.9022 15.2256 11.8257 15.3651C11.7152 15.5716 11.6002 15.7736 11.4807 15.9701C11.2172 16.4216 10.9532 16.8731 10.6752 17.3151L10.5552 17.5071C11.0012 17.6466 11.4757 17.7186 11.9647 17.7186C12.4682 17.7186 12.9572 17.6416 13.4127 17.4926L13.3027 17.3101ZM13.3027 17.3101C13.0247 16.8681 12.7657 16.4121 12.5067 15.9606C12.3917 15.7636 12.2812 15.5666 12.1757 15.3651C12.0992 15.2256 11.9022 15.2256 11.8257 15.3651C11.7152 15.5716 11.6002 15.7736 11.4807 15.9701C11.2172 16.4216 10.9532 16.8731 10.6752 17.3151L10.5552 17.5071C11.0012 17.6466 11.4757 17.7186 11.9647 17.7186C12.4682 17.7186 12.9572 17.6416 13.4127 17.4926L13.3027 17.3101ZM12.6557 8.16512L12.6797 8.35262C12.7467 8.87112 12.7947 9.39512 12.8427 9.91362C12.8617 10.1201 12.8812 10.3221 12.8952 10.5286C12.9047 10.6871 13.0822 10.7686 13.2117 10.6776C13.3747 10.5576 13.5427 10.4376 13.7152 10.3221C14.1467 10.0291 14.5732 9.73613 15.0142 9.45263L15.1772 9.35162C14.4917 8.72712 13.6192 8.29962 12.6557 8.16512ZM16.3132 14.5101C15.7907 14.4766 15.2727 14.4286 14.7502 14.3806C14.5247 14.3616 14.3042 14.3376 14.0792 14.3131C13.9352 14.2941 13.8202 14.4381 13.8732 14.5771C13.9547 14.7931 14.0312 15.0096 14.1082 15.2306C14.2762 15.7206 14.4487 16.2151 14.6067 16.7146L14.6592 16.8876C15.4932 16.3161 16.1407 15.4901 16.4807 14.5196L16.3132 14.5101ZM16.0592 10.4176L15.9297 10.5571C15.5702 10.9416 15.2012 11.3111 14.8317 11.6811C14.5967 11.9211 14.3427 12.1516 14.0982 12.3871C14.4242 12.4686 14.7502 12.5551 15.0762 12.6511C15.5797 12.7951 16.0782 12.9346 16.5767 13.0976L16.7542 13.1551C16.7592 13.0781 16.7592 12.9966 16.7592 12.9151C16.7592 11.9981 16.5052 11.1431 16.0592 10.4176ZM16.0592 10.4176L15.9297 10.5571C15.5702 10.9416 15.2012 11.3111 14.8317 11.6811C14.5967 11.9211 14.3427 12.1516 14.0982 12.3871C14.4242 12.4686 14.7502 12.5551 15.0762 12.6511C15.5797 12.7951 16.0782 12.9346 16.5767 13.0976L16.7542 13.1551C16.7592 13.0781 16.7592 12.9966 16.7592 12.9151C16.7592 11.9981 16.5052 11.1431 16.0592 10.4176ZM16.3132 14.5101C15.7907 14.4766 15.2727 14.4286 14.7502 14.3806C14.5247 14.3616 14.3042 14.3376 14.0792 14.3131C13.9352 14.2941 13.8202 14.4381 13.8732 14.5771C13.9547 14.7931 14.0312 15.0096 14.1082 15.2306C14.2762 15.7206 14.4487 16.2151 14.6067 16.7146L14.6592 16.8876C15.4932 16.3161 16.1407 15.4901 16.4807 14.5196L16.3132 14.5101ZM12.6557 8.16512L12.6797 8.35262C12.7467 8.87112 12.7947 9.39512 12.8427 9.91362C12.8617 10.1201 12.8812 10.3221 12.8952 10.5286C12.9047 10.6871 13.0822 10.7686 13.2117 10.6776C13.3747 10.5576 13.5427 10.4376 13.7152 10.3221C14.1467 10.0291 14.5732 9.73613 15.0142 9.45263L15.1772 9.35162C14.4917 8.72712 13.6192 8.29962 12.6557 8.16512ZM13.3027 17.3101C13.0247 16.8681 12.7657 16.4121 12.5067 15.9606C12.3917 15.7636 12.2812 15.5666 12.1757 15.3651C12.0992 15.2256 11.9022 15.2256 11.8257 15.3651C11.7152 15.5716 11.6002 15.7736 11.4807 15.9701C11.2172 16.4216 10.9532 16.8731 10.6752 17.3151L10.5552 17.5071C11.0012 17.6466 11.4757 17.7186 11.9647 17.7186C12.4682 17.7186 12.9572 17.6416 13.4127 17.4926L13.3027 17.3101ZM12.6557 8.16512L12.6797 8.35262C12.7467 8.87112 12.7947 9.39512 12.8427 9.91362C12.8617 10.1201 12.8812 10.3221 12.8952 10.5286C12.9047 10.6871 13.0822 10.7686 13.2117 10.6776C13.3747 10.5576 13.5427 10.4376 13.7152 10.3221C14.1467 10.0291 14.5732 9.73613 15.0142 9.45263L15.1772 9.35162C14.4917 8.72712 13.6192 8.29962 12.6557 8.16512ZM16.3132 14.5101C15.7907 14.4766 15.2727 14.4286 14.7502 14.3806C14.5247 14.3616 14.3042 14.3376 14.0792 14.3131C13.9352 14.2941 13.8202 14.4381 13.8732 14.5771C13.9547 14.7931 14.0312 15.0096 14.1082 15.2306C14.2762 15.7206 14.4487 16.2151 14.6067 16.7146L14.6592 16.8876C15.4932 16.3161 16.1407 15.4901 16.4807 14.5196L16.3132 14.5101ZM16.0592 10.4176L15.9297 10.5571C15.5702 10.9416 15.2012 11.3111 14.8317 11.6811C14.5967 11.9211 14.3427 12.1516 14.0982 12.3871C14.4242 12.4686 14.7502 12.5551 15.0762 12.6511C15.5797 12.7951 16.0782 12.9346 16.5767 13.0976L16.7542 13.1551C16.7592 13.0781 16.7592 12.9966 16.7592 12.9151C16.7592 11.9981 16.5052 11.1431 16.0592 10.4176ZM16.0592 10.4176L15.9297 10.5571C15.5702 10.9416 15.2012 11.3111 14.8317 11.6811C14.5967 11.9211 14.3427 12.1516 14.0982 12.3871C14.4242 12.4686 14.7502 12.5551 15.0762 12.6511C15.5797 12.7951 16.0782 12.9346 16.5767 13.0976L16.7542 13.1551C16.7592 13.0781 16.7592 12.9966 16.7592 12.9151C16.7592 11.9981 16.5052 11.1431 16.0592 10.4176ZM16.3132 14.5101C15.7907 14.4766 15.2727 14.4286 14.7502 14.3806C14.5247 14.3616 14.3042 14.3376 14.0792 14.3131C13.9352 14.2941 13.8202 14.4381 13.8732 14.5771C13.9547 14.7931 14.0312 15.0096 14.1082 15.2306C14.2762 15.7206 14.4487 16.2151 14.6067 16.7146L14.6592 16.8876C15.4932 16.3161 16.1407 15.4901 16.4807 14.5196L16.3132 14.5101ZM12.6557 8.16512L12.6797 8.35262C12.7467 8.87112 12.7947 9.39512 12.8427 9.91362C12.8617 10.1201 12.8812 10.3221 12.8952 10.5286C12.9047 10.6871 13.0822 10.7686 13.2117 10.6776C13.3747 10.5576 13.5427 10.4376 13.7152 10.3221C14.1467 10.0291 14.5732 9.73613 15.0142 9.45263L15.1772 9.35162C14.4917 8.72712 13.6192 8.29962 12.6557 8.16512ZM12.6557 8.16512L12.6797 8.35262C12.7467 8.87112 12.7947 9.39512 12.8427 9.91362C12.8617 10.1201 12.8812 10.3221 12.8952 10.5286C12.9047 10.6871 13.0822 10.7686 13.2117 10.6776C13.3747 10.5576 13.5427 10.4376 13.7152 10.3221C14.1467 10.0291 14.5732 9.73613 15.0142 9.45263L15.1772 9.35162C14.4917 8.72712 13.6192 8.29962 12.6557 8.16512ZM16.0592 10.4176L15.9297 10.5571C15.5702 10.9416 15.2012 11.3111 14.8317 11.6811C14.5967 11.9211 14.3427 12.1516 14.0982 12.3871C14.4242 12.4686 14.7502 12.5551 15.0762 12.6511C15.5797 12.7951 16.0782 12.9346 16.5767 13.0976L16.7542 13.1551C16.7592 13.0781 16.7592 12.9966 16.7592 12.9151C16.7592 11.9981 16.5052 11.1431 16.0592 10.4176ZM16.0592 10.4176L15.9297 10.5571C15.5702 10.9416 15.2012 11.3111 14.8317 11.6811C14.5967 11.9211 14.3427 12.1516 14.0982 12.3871C14.4242 12.4686 14.7502 12.5551 15.0762 12.6511C15.5797 12.7951 16.0782 12.9346 16.5767 13.0976L16.7542 13.1551C16.7592 13.0781 16.7592 12.9966 16.7592 12.9151C16.7592 11.9981 16.5052 11.1431 16.0592 10.4176ZM12.6557 8.16512L12.6797 8.35262C12.7467 8.87112 12.7947 9.39512 12.8427 9.91362C12.8617 10.1201 12.8812 10.3221 12.8952 10.5286C12.9047 10.6871 13.0822 10.7686 13.2117 10.6776C13.3747 10.5576 13.5427 10.4376 13.7152 10.3221C14.1467 10.0291 14.5732 9.73613 15.0142 9.45263L15.1772 9.35162C14.4917 8.72712 13.6192 8.29962 12.6557 8.16512ZM12.6557 8.16512L12.6797 8.35262C12.7467 8.87112 12.7947 9.39512 12.8427 9.91362C12.8617 10.1201 12.8812 10.3221 12.8952 10.5286C12.9047 10.6871 13.0822 10.7686 13.2117 10.6776C13.3747 10.5576 13.5427 10.4376 13.7152 10.3221C14.1467 10.0291 14.5732 9.73613 15.0142 9.45263L15.1772 9.35162C14.4917 8.72712 13.6192 8.29962 12.6557 8.16512ZM16.0592 10.4176L15.9297 10.5571C15.5702 10.9416 15.2012 11.3111 14.8317 11.6811C14.5967 11.9211 14.3427 12.1516 14.0982 12.3871C14.4242 12.4686 14.7502 12.5551 15.0762 12.6511C15.5797 12.7951 16.0782 12.9346 16.5767 13.0976L16.7542 13.1551C16.7592 13.0781 16.7592 12.9966 16.7592 12.9151C16.7592 11.9981 16.5052 11.1431 16.0592 10.4176ZM16.0592 10.4176L15.9297 10.5571C15.5702 10.9416 15.2012 11.3111 14.8317 11.6811C14.5967 11.9211 14.3427 12.1516 14.0982 12.3871C14.4242 12.4686 14.7502 12.5551 15.0762 12.6511C15.5797 12.7951 16.0782 12.9346 16.5767 13.0976L16.7542 13.1551C16.7592 13.0781 16.7592 12.9966 16.7592 12.9151C16.7592 11.9981 16.5052 11.1431 16.0592 10.4176ZM12.6557 8.16512L12.6797 8.35262C12.7467 8.87112 12.7947 9.39512 12.8427 9.91362C12.8617 10.1201 12.8812 10.3221 12.8952 10.5286C12.9047 10.6871 13.0822 10.7686 13.2117 10.6776C13.3747 10.5576 13.5427 10.4376 13.7152 10.3221C14.1467 10.0291 14.5732 9.73613 15.0142 9.45263L15.1772 9.35162C14.4917 8.72712 13.6192 8.29962 12.6557 8.16512ZM12.6557 8.16512L12.6797 8.35262C12.7467 8.87112 12.7947 9.39512 12.8427 9.91362C12.8617 10.1201 12.8812 10.3221 12.8952 10.5286C12.9047 10.6871 13.0822 10.7686 13.2117 10.6776C13.3747 10.5576 13.5427 10.4376 13.7152 10.3221C14.1467 10.0291 14.5732 9.73613 15.0142 9.45263L15.1772 9.35162C14.4917 8.72712 13.6192 8.29962 12.6557 8.16512ZM12.6557 8.16512L12.6797 8.35262C12.7467 8.87112 12.7947 9.39512 12.8427 9.91362C12.8617 10.1201 12.8812 10.3221 12.8952 10.5286C12.9047 10.6871 13.0822 10.7686 13.2117 10.6776C13.3747 10.5576 13.5427 10.4376 13.7152 10.3221C14.1467 10.0291 14.5732 9.73613 15.0142 9.45263L15.1772 9.35162C14.4917 8.72712 13.6192 8.29962 12.6557 8.16512Z" fill="#0277BD"/>
</svg>
