<svg width="206" height="427" viewBox="0 0 206 427" fill="none" xmlns="http://www.w3.org/2000/svg">
<g filter="url(#filter0_f)">
<path d="M23.75 156.408H182.25L145.673 418.277H67.2182L23.75 156.408Z" fill="url(#paint0_linear)"/>
</g>
<path opacity="0.8" d="M180.69 159.5C180.152 158.876 179.481 158.297 178.585 157.763L111.037 119.017C106.782 116.568 99.7939 116.568 95.5386 119.017L27.9908 157.808C27.095 158.342 26.3783 158.921 25.8856 159.544H24.8105V162.885H24.8553C25.0793 164.265 26.1543 165.646 27.9908 166.715L95.5386 205.46C99.7939 207.91 106.782 207.91 111.037 205.46L178.54 166.715C180.421 165.646 181.451 164.265 181.675 162.885H181.72V159.544H180.69V159.5Z" fill="#DAEDFE"/>
<g filter="url(#filter1_d)">
<path d="M111.036 202.279C106.781 204.729 99.7944 204.729 95.5397 202.279L28.0016 163.514C23.7469 161.063 23.7469 157.053 28.0016 154.603L95.4949 115.838C99.7496 113.387 106.736 113.387 110.991 115.838L178.529 154.603C182.784 157.053 182.784 161.063 178.529 163.514L111.036 202.279Z" fill="white"/>
</g>
<g filter="url(#filter2_dd)">
<path d="M82.5391 112.332V137.627L104.549 150.523V125.062L82.5391 112.332Z" fill="url(#paint1_linear)"/>
<path d="M126.558 112.332V137.627L104.549 150.523V125.062L126.558 112.332Z" fill="url(#paint2_linear)"/>
<path d="M82.5391 112.333L104.549 99.6023L126.558 112.333L104.549 125.063L82.5391 112.333Z" fill="url(#paint3_linear)"/>
</g>
<path d="M86.4131 69.136V74.197L104.331 84.6955V79.4999L86.4131 69.136Z" fill="url(#paint4_linear)"/>
<path d="M122.391 68.875V74.1969L104.312 84.6875L104.125 79.1464L122.391 68.875Z" fill="url(#paint5_linear)"/>
<path d="M86.4131 50.6036V71.1969L104.331 81.6955V60.9676L86.4131 50.6036Z" fill="url(#paint6_linear)"/>
<path d="M122.249 50.6036V71.1969L104.331 81.6955V60.9676L122.249 50.6036Z" fill="url(#paint7_linear)"/>
<path d="M86.4131 50.6046L104.331 40.2406L122.249 50.6046L104.331 60.9685L86.4131 50.6046Z" fill="url(#paint8_linear)"/>
<path opacity="0.8" d="M86.4131 0.603638V71.1969L104.331 81.6955V10.9676L86.4131 0.603638Z" fill="url(#paint9_linear)"/>
<path opacity="0.8" d="M122.391 0.603638V71.1969L104.437 81.5938L104.125 10.875L122.391 0.603638Z" fill="url(#paint10_linear)"/>
<circle opacity="0.5" r="4.60238" transform="matrix(0.866025 0.5 -2.20305e-08 1 51.2153 146.234)" fill="#7535FD"/>
<circle opacity="0.9" r="3.45178" transform="matrix(0.866025 0.5 -2.20305e-08 1 51.2149 146.234)" fill="#7535FD"/>
<circle r="2.30119" transform="matrix(0.866025 0.5 -2.20305e-08 1 51.2155 146.234)" fill="#002978"/>
<g filter="url(#filter3_d)">
<circle opacity="0.9" r="6.2911" transform="matrix(0.866025 0.5 -2.20305e-08 1 92.5235 131.086)" fill="#7535FD"/>
<circle r="3.33601" transform="matrix(0.866025 0.5 -2.20305e-08 1 92.5238 131.086)" fill="#002978"/>
</g>
<g filter="url(#filter4_f)">
<path d="M95.6631 140.371L94.9131 132.496H90.2881L89.0381 136.746L95.6631 140.371Z" fill="url(#paint11_linear)" fill-opacity="0.5"/>
</g>
<line x1="80.5759" y1="138.192" x2="90.6804" y2="132.248" stroke="url(#paint12_linear)" stroke-width="8" stroke-linecap="round" stroke-linejoin="bevel"/>
<line x1="80.5759" y1="138.192" x2="90.6804" y2="132.248" stroke="url(#paint13_linear)" stroke-width="8" stroke-linecap="round" stroke-linejoin="bevel"/>
<g filter="url(#filter5_dd)">
<path d="M43.5859 134.888V160.184L65.5954 173.079V147.618L43.5859 134.888Z" fill="url(#paint14_linear)"/>
<path d="M87.6052 134.888V160.184L65.5957 173.079V147.618L87.6052 134.888Z" fill="url(#paint15_linear)"/>
<path d="M43.5859 134.889L65.5954 122.158L87.6049 134.889L65.5954 147.619L43.5859 134.889Z" fill="url(#paint16_linear)"/>
</g>
<g filter="url(#filter6_d)">
<circle opacity="0.9" r="6.29" transform="matrix(0.866025 -0.5 2.20305e-08 1 76.6006 153.556)" fill="#7535FD"/>
<circle r="3.335" transform="matrix(0.866025 -0.5 2.20305e-08 1 76.6001 153.556)" fill="#002978"/>
</g>
<g filter="url(#filter7_f)">
<path d="M73.2881 163.931L74.0381 156.056H78.6631L79.9131 160.306L73.2881 163.931Z" fill="url(#paint17_linear)" fill-opacity="0.5"/>
</g>
<line x1="90.7666" y1="162.641" x2="78.353" y2="154.792" stroke="url(#paint18_linear)" stroke-width="8" stroke-linecap="round" stroke-linejoin="bevel"/>
<line x1="90.7666" y1="162.641" x2="78.353" y2="154.792" stroke="url(#paint19_linear)" stroke-width="8" stroke-linecap="round" stroke-linejoin="bevel"/>
<g filter="url(#filter8_d)">
<circle opacity="0.9" r="6.2911" transform="matrix(-0.866025 0.5 -0.866025 -0.5 104.474 112.721)" fill="#7535FD"/>
<circle r="3.33601" transform="matrix(-0.866025 0.5 -0.866025 -0.5 104.474 112.722)" fill="#002978"/>
</g>
<g filter="url(#filter9_f)">
<path d="M94.8624 110.798L102 114.5L104.37 110.08L101.314 106.873L94.8624 110.798Z" fill="url(#paint20_linear)" fill-opacity="0.5"/>
</g>
<path d="M104.293 98.8213L104.388 110.544" stroke="url(#paint21_linear)" stroke-width="8" stroke-linecap="round" stroke-linejoin="bevel"/>
<path d="M104.293 98.8213L104.388 110.544" stroke="url(#paint22_linear)" stroke-width="8" stroke-linecap="round" stroke-linejoin="bevel"/>
<rect x="99.6562" y="94.6874" width="10.1106" height="3.28131" fill="white"/>
<ellipse rx="3.22577" ry="3.23801" transform="matrix(-0.866025 0.5 -0.866025 -0.5 104.293 98.3064)" fill="#002978"/>
<g filter="url(#filter10_dd)">
<path d="M80.4277 156.459V181.755L102.437 194.651V169.19L80.4277 156.459Z" fill="url(#paint23_linear)"/>
<path d="M124.447 156.459V181.755L102.438 194.651V169.19L124.447 156.459Z" fill="url(#paint24_linear)"/>
<path d="M80.4277 156.46L102.437 143.73L124.447 156.46L102.437 169.191L80.4277 156.46Z" fill="url(#paint25_linear)"/>
</g>
<defs>
<filter id="filter0_f" x="15.75" y="148.408" width="174.5" height="277.87" filterUnits="userSpaceOnUse" color-interpolation-filters="sRGB">
<feFlood flood-opacity="0" result="BackgroundImageFix"/>
<feBlend mode="normal" in="SourceGraphic" in2="BackgroundImageFix" result="shape"/>
<feGaussianBlur stdDeviation="4" result="effect1_foregroundBlur"/>
</filter>
<filter id="filter1_d" x="0.810547" y="81.9998" width="204.91" height="138.117" filterUnits="userSpaceOnUse" color-interpolation-filters="sRGB">
<feFlood flood-opacity="0" result="BackgroundImageFix"/>
<feColorMatrix in="SourceAlpha" type="matrix" values="0 0 0 0 0 0 0 0 0 0 0 0 0 0 0 0 0 0 127 0"/>
<feOffset dy="-8"/>
<feGaussianBlur stdDeviation="12"/>
<feColorMatrix type="matrix" values="0 0 0 0 0.854902 0 0 0 0 0.933333 0 0 0 0 0.988235 0 0 0 0.4 0"/>
<feBlend mode="normal" in2="BackgroundImageFix" result="effect1_dropShadow"/>
<feBlend mode="normal" in="SourceGraphic" in2="effect1_dropShadow" result="shape"/>
</filter>
<filter id="filter2_dd" x="74.5391" y="98.6023" width="60.0192" height="67.9209" filterUnits="userSpaceOnUse" color-interpolation-filters="sRGB">
<feFlood flood-opacity="0" result="BackgroundImageFix"/>
<feColorMatrix in="SourceAlpha" type="matrix" values="0 0 0 0 0 0 0 0 0 0 0 0 0 0 0 0 0 0 127 0"/>
<feOffset dy="1"/>
<feGaussianBlur stdDeviation="1"/>
<feColorMatrix type="matrix" values="0 0 0 0 0.203922 0 0 0 0 0.0823529 0 0 0 0 0.462745 0 0 0 0.3 0"/>
<feBlend mode="normal" in2="BackgroundImageFix" result="effect1_dropShadow"/>
<feColorMatrix in="SourceAlpha" type="matrix" values="0 0 0 0 0 0 0 0 0 0 0 0 0 0 0 0 0 0 127 0"/>
<feOffset dy="8"/>
<feGaussianBlur stdDeviation="4"/>
<feColorMatrix type="matrix" values="0 0 0 0 0.341176 0 0 0 0 0.152941 0 0 0 0 0.741176 0 0 0 0.16 0"/>
<feBlend mode="normal" in2="effect1_dropShadow" result="effect2_dropShadow"/>
<feBlend mode="normal" in="SourceGraphic" in2="effect2_dropShadow" result="shape"/>
</filter>
<filter id="filter3_d" x="83.0752" y="120.051" width="18.8965" height="22.0704" filterUnits="userSpaceOnUse" color-interpolation-filters="sRGB">
<feFlood flood-opacity="0" result="BackgroundImageFix"/>
<feColorMatrix in="SourceAlpha" type="matrix" values="0 0 0 0 0 0 0 0 0 0 0 0 0 0 0 0 0 0 127 0"/>
<feOffset/>
<feGaussianBlur stdDeviation="2"/>
<feColorMatrix type="matrix" values="0 0 0 0 0.611765 0 0 0 0 0.423529 0 0 0 0 1 0 0 0 1 0"/>
<feBlend mode="normal" in2="BackgroundImageFix" result="effect1_dropShadow"/>
<feBlend mode="normal" in="SourceGraphic" in2="effect1_dropShadow" result="shape"/>
</filter>
<filter id="filter4_f" x="88.0381" y="131.496" width="8.625" height="9.875" filterUnits="userSpaceOnUse" color-interpolation-filters="sRGB">
<feFlood flood-opacity="0" result="BackgroundImageFix"/>
<feBlend mode="normal" in="SourceGraphic" in2="BackgroundImageFix" result="shape"/>
<feGaussianBlur stdDeviation="0.5" result="effect1_foregroundBlur"/>
</filter>
<filter id="filter5_dd" x="35.5859" y="121.158" width="60.0192" height="67.9209" filterUnits="userSpaceOnUse" color-interpolation-filters="sRGB">
<feFlood flood-opacity="0" result="BackgroundImageFix"/>
<feColorMatrix in="SourceAlpha" type="matrix" values="0 0 0 0 0 0 0 0 0 0 0 0 0 0 0 0 0 0 127 0"/>
<feOffset dy="1"/>
<feGaussianBlur stdDeviation="1"/>
<feColorMatrix type="matrix" values="0 0 0 0 0.203922 0 0 0 0 0.0823529 0 0 0 0 0.462745 0 0 0 0.3 0"/>
<feBlend mode="normal" in2="BackgroundImageFix" result="effect1_dropShadow"/>
<feColorMatrix in="SourceAlpha" type="matrix" values="0 0 0 0 0 0 0 0 0 0 0 0 0 0 0 0 0 0 127 0"/>
<feOffset dy="8"/>
<feGaussianBlur stdDeviation="4"/>
<feColorMatrix type="matrix" values="0 0 0 0 0.341176 0 0 0 0 0.152941 0 0 0 0 0.741176 0 0 0 0.16 0"/>
<feBlend mode="normal" in2="effect1_dropShadow" result="effect2_dropShadow"/>
<feBlend mode="normal" in="SourceGraphic" in2="effect2_dropShadow" result="shape"/>
</filter>
<filter id="filter6_d" x="67.1533" y="142.522" width="18.8946" height="22.0679" filterUnits="userSpaceOnUse" color-interpolation-filters="sRGB">
<feFlood flood-opacity="0" result="BackgroundImageFix"/>
<feColorMatrix in="SourceAlpha" type="matrix" values="0 0 0 0 0 0 0 0 0 0 0 0 0 0 0 0 0 0 127 0"/>
<feOffset/>
<feGaussianBlur stdDeviation="2"/>
<feColorMatrix type="matrix" values="0 0 0 0 0.611765 0 0 0 0 0.423529 0 0 0 0 1 0 0 0 1 0"/>
<feBlend mode="normal" in2="BackgroundImageFix" result="effect1_dropShadow"/>
<feBlend mode="normal" in="SourceGraphic" in2="effect1_dropShadow" result="shape"/>
</filter>
<filter id="filter7_f" x="72.2881" y="155.056" width="8.625" height="9.875" filterUnits="userSpaceOnUse" color-interpolation-filters="sRGB">
<feFlood flood-opacity="0" result="BackgroundImageFix"/>
<feBlend mode="normal" in="SourceGraphic" in2="BackgroundImageFix" result="shape"/>
<feGaussianBlur stdDeviation="0.5" result="effect1_foregroundBlur"/>
</filter>
<filter id="filter8_d" x="92.7686" y="104.273" width="23.41" height="16.897" filterUnits="userSpaceOnUse" color-interpolation-filters="sRGB">
<feFlood flood-opacity="0" result="BackgroundImageFix"/>
<feColorMatrix in="SourceAlpha" type="matrix" values="0 0 0 0 0 0 0 0 0 0 0 0 0 0 0 0 0 0 127 0"/>
<feOffset/>
<feGaussianBlur stdDeviation="2"/>
<feColorMatrix type="matrix" values="0 0 0 0 0.611765 0 0 0 0 0.423529 0 0 0 0 1 0 0 0 1 0"/>
<feBlend mode="normal" in2="BackgroundImageFix" result="effect1_dropShadow"/>
<feBlend mode="normal" in="SourceGraphic" in2="effect1_dropShadow" result="shape"/>
</filter>
<filter id="filter9_f" x="93.8623" y="104.06" width="12.2684" height="11.7534" filterUnits="userSpaceOnUse" color-interpolation-filters="sRGB">
<feFlood flood-opacity="0" result="BackgroundImageFix"/>
<feBlend mode="normal" in="SourceGraphic" in2="BackgroundImageFix" result="shape"/>
<feGaussianBlur stdDeviation="0.5" result="effect1_foregroundBlur"/>
</filter>
<filter id="filter10_dd" x="72.4277" y="142.73" width="60.0192" height="67.9209" filterUnits="userSpaceOnUse" color-interpolation-filters="sRGB">
<feFlood flood-opacity="0" result="BackgroundImageFix"/>
<feColorMatrix in="SourceAlpha" type="matrix" values="0 0 0 0 0 0 0 0 0 0 0 0 0 0 0 0 0 0 127 0"/>
<feOffset dy="1"/>
<feGaussianBlur stdDeviation="1"/>
<feColorMatrix type="matrix" values="0 0 0 0 0.203922 0 0 0 0 0.0823529 0 0 0 0 0.462745 0 0 0 0.3 0"/>
<feBlend mode="normal" in2="BackgroundImageFix" result="effect1_dropShadow"/>
<feColorMatrix in="SourceAlpha" type="matrix" values="0 0 0 0 0 0 0 0 0 0 0 0 0 0 0 0 0 0 127 0"/>
<feOffset dy="8"/>
<feGaussianBlur stdDeviation="4"/>
<feColorMatrix type="matrix" values="0 0 0 0 0.341176 0 0 0 0 0.152941 0 0 0 0 0.741176 0 0 0 0.16 0"/>
<feBlend mode="normal" in2="effect1_dropShadow" result="effect2_dropShadow"/>
<feBlend mode="normal" in="SourceGraphic" in2="effect2_dropShadow" result="shape"/>
</filter>
<linearGradient id="paint0_linear" x1="103.265" y1="156.408" x2="103.265" y2="492.491" gradientUnits="userSpaceOnUse">
<stop stop-color="#DAEDFE" stop-opacity="0.56"/>
<stop offset="0.936909" stop-color="#F8F8F8" stop-opacity="0"/>
</linearGradient>
<linearGradient id="paint1_linear" x1="94.045" y1="118.587" x2="94.045" y2="146.777" gradientUnits="userSpaceOnUse">
<stop offset="0.153061" stop-color="#6E36E5"/>
<stop offset="1" stop-color="#7535FD"/>
</linearGradient>
<linearGradient id="paint2_linear" x1="115.906" y1="119.738" x2="115.906" y2="142.75" gradientUnits="userSpaceOnUse">
<stop stop-color="#8146FF"/>
<stop offset="0.979167" stop-color="#7B42F4"/>
</linearGradient>
<linearGradient id="paint3_linear" x1="102.674" y1="101.328" x2="104.4" y2="124.915" gradientUnits="userSpaceOnUse">
<stop stop-color="#9664FF"/>
<stop offset="1" stop-color="#874FFF"/>
</linearGradient>
<linearGradient id="paint4_linear" x1="94.1245" y1="74.2499" x2="91.7495" y2="78.6249" gradientUnits="userSpaceOnUse">
<stop offset="0.13707" stop-color="#6E36E5"/>
<stop offset="0.89029" stop-color="white" stop-opacity="0"/>
</linearGradient>
<linearGradient id="paint5_linear" x1="114.5" y1="74.625" x2="116.5" y2="78.375" gradientUnits="userSpaceOnUse">
<stop stop-color="#6E36E5"/>
<stop offset="0.950877" stop-color="white" stop-opacity="0"/>
</linearGradient>
<linearGradient id="paint6_linear" x1="95.7801" y1="55.6962" x2="95.7801" y2="78.6454" gradientUnits="userSpaceOnUse">
<stop offset="0.153061" stop-color="#6E36E5"/>
<stop offset="1" stop-color="#7535FD"/>
</linearGradient>
<linearGradient id="paint7_linear" x1="113.577" y1="56.6329" x2="113.577" y2="75.3669" gradientUnits="userSpaceOnUse">
<stop stop-color="#8146FF"/>
<stop offset="0.979167" stop-color="#7B42F4"/>
</linearGradient>
<linearGradient id="paint8_linear" x1="102.805" y1="41.6457" x2="104.21" y2="60.8481" gradientUnits="userSpaceOnUse">
<stop stop-color="#9664FF"/>
<stop offset="1" stop-color="#874FFF"/>
</linearGradient>
<linearGradient id="paint9_linear" x1="99.9995" y1="53" x2="89.4995" y2="0.999994" gradientUnits="userSpaceOnUse">
<stop offset="0.13707" stop-color="#6E36E5"/>
<stop offset="0.907583" stop-color="white" stop-opacity="0"/>
</linearGradient>
<linearGradient id="paint10_linear" x1="109" y1="52" x2="122" y2="5" gradientUnits="userSpaceOnUse">
<stop stop-color="#6E36E5"/>
<stop offset="0.950877" stop-color="white" stop-opacity="0"/>
</linearGradient>
<linearGradient id="paint11_linear" x1="92.7256" y1="132.496" x2="92.7256" y2="141.371" gradientUnits="userSpaceOnUse">
<stop offset="0.323944" stop-color="#371A73"/>
<stop offset="1" stop-color="#371A73" stop-opacity="0"/>
</linearGradient>
<linearGradient id="paint12_linear" x1="74.4275" y1="139.871" x2="76.0263" y2="142.748" gradientUnits="userSpaceOnUse">
<stop stop-color="#002978"/>
<stop offset="0.46822" stop-color="#1AF98C"/>
<stop offset="1" stop-color="#002978"/>
</linearGradient>
<linearGradient id="paint13_linear" x1="94.6563" y1="132.668" x2="83.6562" y2="138.668" gradientUnits="userSpaceOnUse">
<stop stop-color="#002978"/>
<stop offset="0.418392" stop-color="#002978" stop-opacity="0"/>
</linearGradient>
<linearGradient id="paint14_linear" x1="55.0919" y1="141.143" x2="55.0919" y2="169.333" gradientUnits="userSpaceOnUse">
<stop offset="0.153061" stop-color="#6E36E5"/>
<stop offset="1" stop-color="#7535FD"/>
</linearGradient>
<linearGradient id="paint15_linear" x1="76.953" y1="142.294" x2="76.953" y2="165.306" gradientUnits="userSpaceOnUse">
<stop stop-color="#8146FF"/>
<stop offset="0.979167" stop-color="#7B42F4"/>
</linearGradient>
<linearGradient id="paint16_linear" x1="63.7213" y1="123.884" x2="65.4472" y2="147.472" gradientUnits="userSpaceOnUse">
<stop stop-color="#9664FF"/>
<stop offset="1" stop-color="#874FFF"/>
</linearGradient>
<linearGradient id="paint17_linear" x1="76.2256" y1="156.056" x2="76.2256" y2="164.931" gradientUnits="userSpaceOnUse">
<stop offset="0.304385" stop-color="#371A73"/>
<stop offset="0.839596" stop-color="#371A73" stop-opacity="0"/>
</linearGradient>
<linearGradient id="paint18_linear" x1="95.3455" y1="167.513" x2="97.164" y2="164.769" gradientUnits="userSpaceOnUse">
<stop stop-color="#002978"/>
<stop offset="0.46822" stop-color="#1AF98C"/>
<stop offset="1" stop-color="#002978"/>
</linearGradient>
<linearGradient id="paint19_linear" x1="77.0069" y1="151.127" x2="88.8915" y2="159.277" gradientUnits="userSpaceOnUse">
<stop stop-color="#002978"/>
<stop offset="0.418392" stop-color="#002978" stop-opacity="0"/>
</linearGradient>
<linearGradient id="paint20_linear" x1="103.151" y1="112.191" x2="95.4651" y2="107.754" gradientUnits="userSpaceOnUse">
<stop offset="0.323944" stop-color="#371A73"/>
<stop offset="0.731714" stop-color="#371A73" stop-opacity="0"/>
</linearGradient>
<linearGradient id="paint21_linear" x1="105.913" y1="92.6572" x2="102.622" y2="92.6031" gradientUnits="userSpaceOnUse">
<stop stop-color="#002978"/>
<stop offset="0.46822" stop-color="#4F5B72"/>
<stop offset="1" stop-color="#002978"/>
</linearGradient>
<linearGradient id="paint22_linear" x1="102.037" y1="113.777" x2="102.341" y2="101.251" gradientUnits="userSpaceOnUse">
<stop stop-color="#002978"/>
<stop offset="0.418392" stop-color="#002978" stop-opacity="0"/>
</linearGradient>
<linearGradient id="paint23_linear" x1="91.9337" y1="162.715" x2="91.9337" y2="190.904" gradientUnits="userSpaceOnUse">
<stop offset="0.153061" stop-color="#6E36E5"/>
<stop offset="1" stop-color="#7535FD"/>
</linearGradient>
<linearGradient id="paint24_linear" x1="113.795" y1="163.865" x2="113.795" y2="186.877" gradientUnits="userSpaceOnUse">
<stop stop-color="#8146FF"/>
<stop offset="0.979167" stop-color="#7B42F4"/>
</linearGradient>
<linearGradient id="paint25_linear" x1="100.563" y1="145.456" x2="102.289" y2="169.043" gradientUnits="userSpaceOnUse">
<stop stop-color="#9664FF"/>
<stop offset="1" stop-color="#874FFF"/>
</linearGradient>
</defs>
</svg>
