<svg width="1440" height="3610" viewBox="0 0 1440 3610" fill="none" xmlns="http://www.w3.org/2000/svg">
<path d="M93.2025 63.8584C-184.398 19.0584 -268.464 48.5251 -263.798 71.8584C-296.798 56.8584 -407.798 270.303 -383.798 398.303C-359.798 526.303 -349.798 3656.08 -263.798 3609.08C-177.798 3562.08 234.202 3430.08 433.202 3431.08C632.202 3432.08 601.202 3700.07 825.202 3441.08C953.157 3293.13 1034.2 3444.08 1361.2 3446.08C1622.8 3447.68 1757.54 3156.34 1766.2 3133.67C1783.54 3060.67 2035 -217.698 1703 13.3021C1478.52 169.49 1234.2 49.3032 1027.2 13.3032C820.202 -22.6968 794.202 20.8584 632.202 77.8584C470.202 134.858 440.203 119.858 93.2025 63.8584Z" fill="url(#paint0_linear)"/>
<defs>
<linearGradient id="paint0_linear" x1="695.291" y1="-37.2924" x2="757" y2="3405.08" gradientUnits="userSpaceOnUse">
<stop stop-color="#DAEDFE" stop-opacity="0.16"/>
<stop offset="1" stop-color="white"/>
</linearGradient>
</defs>
</svg>
