<svg width="83" height="87" viewBox="0 0 83 87" fill="none" xmlns="http://www.w3.org/2000/svg">
<path d="M49.2854 70.3619L46.321 80.7734L35.9103 77.81" stroke="#1AF98C" stroke-width="3" stroke-linecap="round" stroke-linejoin="round"/>
<path d="M40.7726 3.00018C40.7726 3.00018 29.4676 27.4979 44.9291 49.8332C56.2256 66.1492 71.8122 47.8893 60.9554 37.7282C49.3315 26.8516 23.718 41.5667 40.5046 72.214" stroke="#1AF98C" stroke-width="3" stroke-linecap="round" stroke-dasharray="8 6"/>
</svg>
