<svg width="885" height="10" viewBox="0 0 885 10" fill="none" xmlns="http://www.w3.org/2000/svg">
<path fill-rule="evenodd" clip-rule="evenodd" d="M647.25 3.50006L448.401 3.50004L442.75 0.237517C442.083 -0.147383 441.25 0.333742 441.25 1.10354V3.50004L242.4 3.50002L236.75 0.237855C236.083 -0.147045 235.25 0.33408 235.25 1.10388V3.50002L1.5 3.5C0.671573 3.5 0 4.17157 0 5C0 5.82843 0.671573 6.5 1.5 6.5L235.25 6.50002V8.89811C235.25 9.66791 236.083 10.149 236.75 9.76414L242.404 6.50002L441.25 6.50004V8.89777C441.25 9.66757 442.083 10.1487 442.75 9.7638L448.403 6.50004L647.25 6.50006V8.89809C647.25 9.66789 648.083 10.149 648.75 9.76412L654.404 6.50006L883.5 6.50008C884.328 6.50008 885 5.82851 885 5.00008C885 4.17165 884.328 3.50008 883.5 3.50008L654.4 3.50006L648.75 0.237836C648.083 -0.147064 647.25 0.334061 647.25 1.10386V3.50006Z" fill="url(#paint0_linear)"/>
<defs>
<linearGradient id="paint0_linear" x1="885" y1="0.102051" x2="-55.8947" y2="0.102051" gradientUnits="userSpaceOnUse">
<stop stop-color="#18BBF1"/>
<stop offset="1" stop-color="#4284FB"/>
</linearGradient>
</defs>
</svg>
