<svg width="2500" height="787" viewBox="0 0 2500 787" fill="none" xmlns="http://www.w3.org/2000/svg">
<path d="M435.372 92.6819C69.6913 11.8324 -41.0492 65.0102 -34.9018 107.119C-78.3725 80.0492 -224.592 412.11 -192.977 643.108C-161.362 874.107 34.9149 827.186 148.202 742.366C261.489 657.546 621.11 477.078 883.252 478.883C1145.39 480.688 1104.56 964.332 1399.63 496.93C1568.18 229.937 1674.94 502.344 2105.7 505.953C2450.3 508.84 2627.79 272.548 2639.2 231.642C2662.04 99.9006 2716.92 -396.386 2279.58 20.4948C1983.88 302.364 1938.4 13.2762 1665.72 -51.6922C1393.04 -116.661 1358.79 15.0808 1145.39 117.947C931.991 220.814 892.473 193.744 435.372 92.6819Z" fill="url(#paint0_linear)"/>
<defs>
<linearGradient id="paint0_linear" x1="1228.38" y1="30.249" x2="1228.6" y2="812" gradientUnits="userSpaceOnUse">
<stop stop-color="#021F56"/>
<stop offset="1" stop-color="#012A76"/>
</linearGradient>
</defs>
</svg>
