<svg width="39" height="47" viewBox="0 0 39 47" fill="none" xmlns="http://www.w3.org/2000/svg">
<path fill-rule="evenodd" clip-rule="evenodd" d="M18.4376 10.3266C18.4376 10.3266 17.0606 10.8516 16.7514 11.2169C16.7514 11.2169 16.7028 11.9707 16.1893 12.5191C15.7616 12.9759 14.8215 13.3372 14.8215 13.3372C14.8215 13.3372 14.9715 10.964 18.4376 10.3266ZM38.3804 17.9768C38.2707 17.3465 38.0926 16.7642 37.8659 16.227C37.3399 14.9799 36.5502 13.9796 35.7343 13.1996C34.9222 12.4234 34.0854 11.8657 33.4557 11.5052C32.8414 11.1535 32.4245 10.9877 32.4245 10.9877C32.4358 10.9847 32.4472 10.9826 32.4585 10.9798C32.8557 10.881 33.2628 10.8731 33.6485 10.9139C34.5959 11.014 35.4078 11.4116 35.5896 11.5057C35.6143 11.5185 35.6276 11.526 35.6276 11.526C35.137 10.8781 34.5832 10.3132 34.005 9.81997C31.3395 7.54603 28.148 6.82369 28.148 6.82369C28.1662 6.81449 28.186 6.80636 28.2054 6.79787C29.1854 6.37055 31.6952 6.82369 31.6952 6.82369C31.6783 6.81199 31.6613 6.80055 31.6443 6.78894C28.2618 4.46023 23.1564 4.03201 23.1564 4.03201C17.7437 0.387822 19.1668 -1.13154 18.01 0.924949C17.3844 2.03699 17.3892 3.07149 17.5886 3.88066C17.4747 3.95937 17.4692 3.96304 17.3553 4.04175C15.6666 2.90701 13.2379 1.44456 13.8038 2.26196C14.2336 2.8828 14.6685 4.60282 14.9442 5.85906C10.835 9.97283 12.5832 13.3255 12.5832 13.9808C12.5832 14.6887 8.65067 19.4078 8.65067 19.4078C8.65514 19.4135 8.65969 19.4189 8.66416 19.4247C8.66461 19.4253 8.66505 19.4258 8.6655 19.4264C8.69713 19.4644 8.79656 19.5838 8.95524 19.7741C9.02725 19.8552 9.10006 19.9334 9.17341 20.0096C11.7648 22.6532 15.1148 21.3419 17.1668 20.0776C19.2897 18.7694 22.1056 19.23 23.5781 21.2424C23.6908 21.3963 23.8036 21.5671 23.9129 21.7535C24.7626 23.2009 24.8302 25.091 24.2665 26.9355C22.359 33.1769 14.5719 35.1569 9.63254 30.8912C7.569 29.109 6.45142 26.9784 5.86104 25.4041C4.99862 22.7169 4.5402 19.875 4.5402 16.9621V14.1979L10.6979 11.5431C10.6675 10.8624 10.7341 9.99821 11.0313 8.99507C11.3164 8.03214 11.8137 6.94118 12.6434 5.76025L0 11.211V16.9621C0 28.8189 6.49323 39.6776 16.9454 45.3003L18.8047 46.3009L20.6638 45.3003C30.5881 39.9616 36.9397 29.9024 37.5564 18.751C37.585 18.2333 37.602 17.7135 37.6056 17.1913L37.6021 17.1898C37.6023 17.1894 37.6024 17.1888 37.6025 17.1884C38.0889 17.6096 38.3804 17.9768 38.3804 17.9768Z" fill="#7737FD"/>
<mask id="mask0" mask-type="alpha" maskUnits="userSpaceOnUse" x="8" y="19" width="2" height="2">
<path fill-rule="evenodd" clip-rule="evenodd" d="M8.66602 19.4265C8.83183 19.6395 9.00158 19.8339 9.17472 20.0106C9.10126 19.9342 9.02833 19.8559 8.95621 19.7746C8.79729 19.584 8.69769 19.4645 8.66602 19.4265Z" fill="white"/>
</mask>
<g mask="url(#mask0)">
<path fill-rule="evenodd" clip-rule="evenodd" d="M8.66602 19.4265C8.83183 19.6395 9.00158 19.8339 9.17472 20.0106C9.10126 19.9342 9.02833 19.8559 8.95621 19.7746C8.79729 19.584 8.69769 19.4645 8.66602 19.4265Z" fill="url(#paint0_linear)"/>
</g>
<mask id="mask1" mask-type="alpha" maskUnits="userSpaceOnUse" x="17" y="0" width="5" height="6">
<path fill-rule="evenodd" clip-rule="evenodd" d="M21.008 4.10405C19.2957 3.26414 18.3689 0.938019 18.3689 0.938019C17.4419 2.68252 18.165 4.10405 18.165 4.10405C19.2635 6.04242 22.7203 4.94404 21.008 4.10405Z" fill="white"/>
</mask>
<g mask="url(#mask1)">
<path fill-rule="evenodd" clip-rule="evenodd" d="M21.008 4.10405C19.2957 3.26414 18.3689 0.938019 18.3689 0.938019C17.4419 2.68252 18.165 4.10405 18.165 4.10405C19.2635 6.04242 22.7203 4.94404 21.008 4.10405Z" fill="#6224E5"/>
</g>
<mask id="mask2" mask-type="alpha" maskUnits="userSpaceOnUse" x="24" y="5" width="8" height="2">
<path fill-rule="evenodd" clip-rule="evenodd" d="M24.5947 6.23626C24.5947 6.23626 26.9595 6.70066 28.121 6.79001C28.1477 6.79206 28.1765 6.79483 28.206 6.79787C29.186 6.37054 31.6958 6.82369 31.6958 6.82369C31.679 6.81198 31.6619 6.80055 31.6449 6.78893C28.6494 5.20829 24.5947 6.23626 24.5947 6.23626Z" fill="white"/>
</mask>
<g mask="url(#mask2)">
<path fill-rule="evenodd" clip-rule="evenodd" d="M24.5947 6.23626C24.5947 6.23626 26.9595 6.70066 28.121 6.79001C28.1477 6.79206 28.1765 6.79483 28.206 6.79787C29.186 6.37054 31.6958 6.82369 31.6958 6.82369C31.679 6.81198 31.6619 6.80055 31.6449 6.78893C28.6494 5.20829 24.5947 6.23626 24.5947 6.23626Z" fill="#6224E5"/>
</g>
<mask id="mask3" mask-type="alpha" maskUnits="userSpaceOnUse" x="28" y="8" width="8" height="4">
<path fill-rule="evenodd" clip-rule="evenodd" d="M29.4526 8.95795C25.7373 8.73182 32.4267 10.9738 32.4267 10.9738C32.4267 10.9738 32.4382 10.976 32.4585 10.9798C32.8557 10.881 33.2629 10.8731 33.6486 10.9138C34.5959 11.014 35.4079 11.4116 35.5896 11.5056C35.5974 11.5069 35.6052 11.508 35.6132 11.5092C35.6132 11.5092 33.1678 9.18407 29.4526 8.95795Z" fill="white"/>
</mask>
<g mask="url(#mask3)">
<path fill-rule="evenodd" clip-rule="evenodd" d="M29.4526 8.95795C25.7373 8.73182 32.4267 10.9738 32.4267 10.9738C32.4267 10.9738 32.4382 10.976 32.4585 10.9798C32.8557 10.881 33.2629 10.8731 33.6486 10.9138C34.5959 11.014 35.4079 11.4116 35.5896 11.5056C35.5974 11.5069 35.6052 11.508 35.6132 11.5092C35.6132 11.5092 33.1678 9.18407 29.4526 8.95795Z" fill="#6224E5"/>
</g>
<mask id="mask4" mask-type="alpha" maskUnits="userSpaceOnUse" x="33" y="14" width="6" height="5">
<path fill-rule="evenodd" clip-rule="evenodd" d="M37.6023 17.1898C37.6025 17.1894 37.6027 17.1888 37.6028 17.1884C38.0891 17.6096 38.3807 17.9768 38.3807 17.9768C38.3807 17.9768 37.1625 14.9071 33.5322 14.5372L37.5567 18.751C37.5852 18.2333 37.6022 17.7134 37.6059 17.1913L37.6023 17.1898Z" fill="white"/>
</mask>
<g mask="url(#mask4)">
<path fill-rule="evenodd" clip-rule="evenodd" d="M37.6023 17.1898C37.6025 17.1894 37.6027 17.1888 37.6028 17.1884C38.0891 17.6096 38.3807 17.9768 38.3807 17.9768C38.3807 17.9768 37.1625 14.9071 33.5322 14.5372L37.5567 18.751C37.5852 18.2333 37.6022 17.7134 37.6059 17.1913L37.6023 17.1898Z" fill="#6224E5"/>
</g>
<mask id="mask5" mask-type="alpha" maskUnits="userSpaceOnUse" x="8" y="19" width="1" height="1">
<path fill-rule="evenodd" clip-rule="evenodd" d="M8.65113 19.409C8.65176 19.4099 8.65609 19.4153 8.66366 19.424C8.65834 19.4176 8.65131 19.4093 8.65113 19.4089C8.65113 19.4089 8.65113 19.4089 8.65113 19.409Z" fill="white"/>
</mask>
<g mask="url(#mask5)">
<path fill-rule="evenodd" clip-rule="evenodd" d="M8.65113 19.409C8.65176 19.4099 8.65609 19.4153 8.66366 19.424C8.65834 19.4176 8.65131 19.4093 8.65113 19.4089C8.65113 19.4089 8.65113 19.4089 8.65113 19.409Z" fill="url(#paint1_linear)"/>
</g>
<mask id="mask6" mask-type="alpha" maskUnits="userSpaceOnUse" x="8" y="19" width="1" height="1">
<path fill-rule="evenodd" clip-rule="evenodd" d="M8.66404 19.424C8.66458 19.4247 8.66566 19.426 8.66638 19.4269C8.66593 19.4262 8.66548 19.4257 8.66503 19.4251C8.66476 19.4249 8.66431 19.4243 8.66404 19.424Z" fill="white"/>
</mask>
<g mask="url(#mask6)">
<path fill-rule="evenodd" clip-rule="evenodd" d="M8.66404 19.424C8.66458 19.4247 8.66566 19.426 8.66638 19.4269C8.66593 19.4262 8.66548 19.4257 8.66503 19.4251C8.66476 19.4249 8.66431 19.4243 8.66404 19.424Z" fill="url(#paint2_linear)"/>
</g>
<mask id="mask7" mask-type="alpha" maskUnits="userSpaceOnUse" x="2" y="8" width="31" height="33">
<path fill-rule="evenodd" clip-rule="evenodd" d="M19.1392 40.9011C19.1689 40.9428 19.1869 40.9671 19.1869 40.9671L19.8273 40.6227C21.7303 39.5545 28.5006 33.915 29.7351 28.8153C31.9159 19.8064 26.7715 18.2981 26.7715 18.2981C31.0582 18.4442 32.6824 22.3412 32.6824 22.3412C32.6824 22.3412 31.935 16.4958 26.5767 14.9856C21.2182 13.4755 18.7339 17.5674 14.3985 19.4079C10.301 21.1473 8.81536 19.6 8.66446 19.4248C8.66491 19.4253 8.66536 19.4258 8.6658 19.4265C8.69743 19.4644 8.79687 19.5838 8.95554 19.7741C9.02755 19.8552 9.10037 19.9334 9.17372 20.0097C11.7651 22.6532 15.1151 21.342 17.1671 20.0776C19.29 18.7694 22.1059 19.23 23.5784 21.2424C23.6911 21.3964 23.8039 21.5671 23.9132 21.7536C24.7629 23.2009 24.8305 25.091 24.2668 26.9355C22.3593 33.177 14.5722 35.1569 9.63285 30.8912C7.5693 29.109 6.45172 26.9784 5.86135 25.4041C4.99892 22.7169 4.54051 19.875 4.54051 16.9621V14.198L10.6983 11.5431C10.6678 10.8624 10.7344 9.99824 11.0316 8.9951L2.4415 12.5208C2.4415 12.5208 -0.336069 36.3893 19.1392 40.9011Z" fill="white"/>
</mask>
<g mask="url(#mask7)">
<path fill-rule="evenodd" clip-rule="evenodd" d="M19.7257 40.3792C21.6287 39.311 28.4996 33.915 29.734 28.8153C31.9149 19.8064 26.7705 18.2981 26.7705 18.2981C31.0572 18.4442 32.6814 22.3412 32.6814 22.3412C32.6814 22.3412 31.934 16.4957 26.5757 14.9856C21.2172 13.4755 18.7329 17.5674 14.3974 19.4079C10.3 21.1473 8.81433 19.6 8.66343 19.4247L8.66477 19.4264C8.6964 19.4644 8.79584 19.5838 8.95451 19.7741C9.02652 19.8552 9.09933 19.9334 9.17268 20.0097C11.7641 22.6532 15.114 21.3419 17.1661 20.0776C19.2889 18.7694 22.1049 19.23 23.5774 21.2424C23.6901 21.3963 23.8029 21.5671 23.9122 21.7535C24.7619 23.2009 24.8295 25.091 24.2657 26.9355C22.3583 33.1769 14.5712 35.1569 9.63182 30.8912C7.56827 29.109 6.45069 26.9784 5.86031 25.4041C4.99789 22.7169 4.53948 19.875 4.53948 16.9621V14.1979L10.6972 11.5431C10.6668 10.8624 10.7334 9.99822 11.0306 8.99509L2.44046 12.5208C2.44046 12.5208 -0.97038 36.3576 18.5049 40.8695C18.7 40.9671 19.7257 40.3792 19.7257 40.3792Z" fill="#A67CFF"/>
</g>
<defs>
<linearGradient id="paint0_linear" x1="-4.76507" y1="0.846516" x2="-9.59235" y2="36.1144" gradientUnits="userSpaceOnUse">
<stop/>
<stop offset="1" stop-color="#808080"/>
</linearGradient>
<linearGradient id="paint1_linear" x1="-7.46904" y1="0.945687" x2="-11.1752" y2="36.6485" gradientUnits="userSpaceOnUse">
<stop/>
<stop offset="1" stop-color="#808080"/>
</linearGradient>
<linearGradient id="paint2_linear" x1="0.284159" y1="1.75045" x2="-1.81417" y2="21.9642" gradientUnits="userSpaceOnUse">
<stop/>
<stop offset="1" stop-color="#808080"/>
</linearGradient>
</defs>
</svg>
